-3.468793630599975586e-01,0.000000000000000000e+00
0.000000000000000000e+00,-3.293273150920867920e-01
-0.000000000000000000e+00,0.000000000000000000e+00
0.000000000000000000e+00,-0.000000000000000000e+00
0.000000000000000000e+00,-0.000000000000000000e+00
-3.048528730869293213e-01,0.000000000000000000e+00
0.000000000000000000e+00,-0.000000000000000000e+00
0.000000000000000000e+00,0.000000000000000000e+00
0.000000000000000000e+00,-0.000000000000000000e+00
-2.940419316291809082e-01,-0.000000000000000000e+00
-0.000000000000000000e+00,3.238868713378906250e-01
-0.000000000000000000e+00,0.000000000000000000e+00
-3.450568914413452148e-01,-0.000000000000000000e+00
-0.000000000000000000e+00,0.000000000000000000e+00
0.000000000000000000e+00,-0.000000000000000000e+00
-0.000000000000000000e+00,-0.000000000000000000e+00
-0.000000000000000000e+00,0.000000000000000000e+00
0.000000000000000000e+00,-0.000000000000000000e+00
0.000000000000000000e+00,-0.000000000000000000e+00
-0.000000000000000000e+00,-0.000000000000000000e+00
0.000000000000000000e+00,3.157232999801635742e-01
0.000000000000000000e+00,3.128551840782165527e-01
0.000000000000000000e+00,-0.000000000000000000e+00
-0.000000000000000000e+00,0.000000000000000000e+00
-0.000000000000000000e+00,-0.000000000000000000e+00
-3.174205124378204346e-01,-3.099701702594757080e-01
-0.000000000000000000e+00,-3.151976466178894043e-01
-0.000000000000000000e+00,0.000000000000000000e+00
-0.000000000000000000e+00,-0.000000000000000000e+00
-0.000000000000000000e+00,0.000000000000000000e+00
0.000000000000000000e+00,-0.000000000000000000e+00
-0.000000000000000000e+00,0.000000000000000000e+00
2.964826226234436035e-01,0.000000000000000000e+00
-0.000000000000000000e+00,-0.000000000000000000e+00
-0.000000000000000000e+00,0.000000000000000000e+00
0.000000000000000000e+00,-0.000000000000000000e+00
-0.000000000000000000e+00,-0.000000000000000000e+00
0.000000000000000000e+00,0.000000000000000000e+00
3.097327947616577148e-01,-0.000000000000000000e+00
-0.000000000000000000e+00,-3.047440648078918457e-01
0.000000000000000000e+00,-3.288788497447967529e-01
-3.082811236381530762e-01,-3.251533806324005127e-01
0.000000000000000000e+00,-0.000000000000000000e+00
0.000000000000000000e+00,0.000000000000000000e+00
0.000000000000000000e+00,0.000000000000000000e+00
-3.473475873470306396e-01,3.104048073291778564e-01
0.000000000000000000e+00,0.000000000000000000e+00
0.000000000000000000e+00,0.000000000000000000e+00
0.000000000000000000e+00,-0.000000000000000000e+00
3.074968159198760986e-01,0.000000000000000000e+00
