-2.444948405027389526e-01,-1.561370372772216797e+00,0.000000000000000000e+00,0.000000000000000000e+00,-2.313127070665359497e-01,0.000000000000000000e+00,-0.000000000000000000e+00,-0.000000000000000000e+00,-0.000000000000000000e+00,0.000000000000000000e+00,9.117647409439086914e-01,0.000000000000000000e+00,0.000000000000000000e+00,-0.000000000000000000e+00,-2.413081079721450806e-01,0.000000000000000000e+00,-0.000000000000000000e+00,0.000000000000000000e+00,-0.000000000000000000e+00,-0.000000000000000000e+00,0.000000000000000000e+00,-0.000000000000000000e+00,9.448707103729248047e-01,0.000000000000000000e+00,0.000000000000000000e+00,0.000000000000000000e+00,-0.000000000000000000e+00,2.384864538908004761e-01,-1.646986156702041626e-01,-0.000000000000000000e+00,0.000000000000000000e+00,-0.000000000000000000e+00,0.000000000000000000e+00,-0.000000000000000000e+00,-0.000000000000000000e+00,0.000000000000000000e+00,-0.000000000000000000e+00,0.000000000000000000e+00,0.000000000000000000e+00,-0.000000000000000000e+00,0.000000000000000000e+00,-0.000000000000000000e+00,-0.000000000000000000e+00,-0.000000000000000000e+00,1.954822242259979248e-01,0.000000000000000000e+00,0.000000000000000000e+00,-0.000000000000000000e+00,0.000000000000000000e+00,-0.000000000000000000e+00
0.000000000000000000e+00,0.000000000000000000e+00,-0.000000000000000000e+00,0.000000000000000000e+00,-0.000000000000000000e+00,1.993887275457382202e-01,0.000000000000000000e+00,-0.000000000000000000e+00,2.405933737754821777e-01,-2.299192994832992554e-01,0.000000000000000000e+00,-1.959992349147796631e-01,2.306632995605468750e-01,0.000000000000000000e+00,-0.000000000000000000e+00,-0.000000000000000000e+00,0.000000000000000000e+00,0.000000000000000000e+00,0.000000000000000000e+00,0.000000000000000000e+00,1.875420957803726196e-01,2.081413567066192627e-01,0.000000000000000000e+00,2.051676213741302490e-01,0.000000000000000000e+00,0.000000000000000000e+00,0.000000000000000000e+00,1.808554679155349731e-01,0.000000000000000000e+00,0.000000000000000000e+00,-1.967238187789916992e-01,-1.673813760280609131e-01,0.000000000000000000e+00,-0.000000000000000000e+00,-0.000000000000000000e+00,-0.000000000000000000e+00,0.000000000000000000e+00,-1.992445886135101318e-01,-1.788892745971679688e-01,-0.000000000000000000e+00,2.203803360462188721e-01,-0.000000000000000000e+00,-0.000000000000000000e+00,-1.802083551883697510e-01,1.983469873666763306e-01,2.451404482126235962e-01,-2.408195883035659790e-01,-1.770491302013397217e-01,0.000000000000000000e+00,-2.458407580852508545e-01
-2.598932683467864990e-01,-0.000000000000000000e+00,0.000000000000000000e+00,-0.000000000000000000e+00,-0.000000000000000000e+00,2.658727765083312988e-01,0.000000000000000000e+00,2.450292557477951050e-01,-0.000000000000000000e+00,-1.727570891380310059e-01,-0.000000000000000000e+00,-0.000000000000000000e+00,-0.000000000000000000e+00,-0.000000000000000000e+00,-2.424699962139129639e-01,-2.479440420866012573e-01,1.786300092935562134e-01,-0.000000000000000000e+00,0.000000000000000000e+00,2.160304337739944458e-01,2.240611463785171509e-01,0.000000000000000000e+00,-0.000000000000000000e+00,-0.000000000000000000e+00,0.000000000000000000e+00,0.000000000000000000e+00,2.236796617507934570e-01,-1.674204319715499878e-01,0.000000000000000000e+00,0.000000000000000000e+00,-0.000000000000000000e+00,-0.000000000000000000e+00,0.000000000000000000e+00,-0.000000000000000000e+00,2.080583125352859497e-01,-0.000000000000000000e+00,-1.666018664836883545e-01,-2.401253283023834229e-01,-0.000000000000000000e+00,0.000000000000000000e+00,-2.132413536310195923e-01,0.000000000000000000e+00,-2.378760725259780884e-01,-1.686256080865859985e-01,0.000000000000000000e+00,-1.890254765748977661e-01,-0.000000000000000000e+00,0.000000000000000000e+00,0.000000000000000000e+00,-0.000000000000000000e+00
-0.000000000000000000e+00,2.258003205060958862e-01,-0.000000000000000000e+00,0.000000000000000000e+00,0.000000000000000000e+00,1.954133957624435425e-01,-0.000000000000000000e+00,-0.000000000000000000e+00,0.000000000000000000e+00,-2.358041703701019287e-01,-0.000000000000000000e+00,0.000000000000000000e+00,-2.685394287109375000e-01,0.000000000000000000e+00,1.532342731952667236e-01,-3.366282284259796143e-01,-0.000000000000000000e+00,0.000000000000000000e+00,-0.000000000000000000e+00,0.000000000000000000e+00,-2.168271988630294800e-01,2.243350893259048462e-01,-0.000000000000000000e+00,7.115730643272399902e-01,0.000000000000000000e+00,-0.000000000000000000e+00,3.507871627807617188e-01,0.000000000000000000e+00,-0.000000000000000000e+00,0.000000000000000000e+00,-0.000000000000000000e+00,0.000000000000000000e+00,0.000000000000000000e+00,-0.000000000000000000e+00,-2.181592583656311035e-01,-0.000000000000000000e+00,4.040380418300628662e-01,-0.000000000000000000e+00,0.000000000000000000e+00,-0.000000000000000000e+00,-0.000000000000000000e+00,-0.000000000000000000e+00,-1.788750588893890381e-01,0.000000000000000000e+00,-0.000000000000000000e+00,1.650613397359848022e-01,-1.776848733425140381e-01,-0.000000000000000000e+00,-0.000000000000000000e+00,-0.000000000000000000e+00
-2.167410105466842651e-01,-0.000000000000000000e+00,1.854040175676345825e-01,-7.333230376243591309e-01,0.000000000000000000e+00,0.000000000000000000e+00,-0.000000000000000000e+00,5.521183609962463379e-01,-0.000000000000000000e+00,-0.000000000000000000e+00,-0.000000000000000000e+00,-0.000000000000000000e+00,0.000000000000000000e+00,0.000000000000000000e+00,-0.000000000000000000e+00,0.000000000000000000e+00,-0.000000000000000000e+00,0.000000000000000000e+00,0.000000000000000000e+00,-0.000000000000000000e+00,0.000000000000000000e+00,0.000000000000000000e+00,-0.000000000000000000e+00,0.000000000000000000e+00,0.000000000000000000e+00,2.314338535070419312e-01,8.090174794197082520e-01,2.503564059734344482e-01,0.000000000000000000e+00,-0.000000000000000000e+00,-1.937326639890670776e-01,1.704641580581665039e-01,0.000000000000000000e+00,-0.000000000000000000e+00,-0.000000000000000000e+00,0.000000000000000000e+00,-0.000000000000000000e+00,-1.727537810802459717e-01,0.000000000000000000e+00,0.000000000000000000e+00,0.000000000000000000e+00,0.000000000000000000e+00,-0.000000000000000000e+00,-0.000000000000000000e+00,-2.534961104393005371e-01,-0.000000000000000000e+00,-2.405696362257003784e-01,0.000000000000000000e+00,-2.435288876295089722e-01,0.000000000000000000e+00
-0.000000000000000000e+00,0.000000000000000000e+00,0.000000000000000000e+00,5.608351230621337891e-01,-1.737163066864013672e-01,0.000000000000000000e+00,0.000000000000000000e+00,-0.000000000000000000e+00,0.000000000000000000e+00,-0.000000000000000000e+00,0.000000000000000000e+00,-2.657670378684997559e-01,-0.000000000000000000e+00,-0.000000000000000000e+00,-0.000000000000000000e+00,5.734595656394958496e-01,-0.000000000000000000e+00,-2.077710628509521484e-01,-0.000000000000000000e+00,2.710184454917907715e-01,0.000000000000000000e+00,0.000000000000000000e+00,5.729609727859497070e-01,-0.000000000000000000e+00,1.750921010971069336e-01,0.000000000000000000e+00,-0.000000000000000000e+00,-2.015677392482757568e-01,1.651660799980163574e-01,0.000000000000000000e+00,2.133999317884445190e-01,0.000000000000000000e+00,0.000000000000000000e+00,1.807156652212142944e-01,-0.000000000000000000e+00,-4.423730075359344482e-02,-0.000000000000000000e+00,-0.000000000000000000e+00,0.000000000000000000e+00,1.459938660264015198e-02,0.000000000000000000e+00,0.000000000000000000e+00,0.000000000000000000e+00,0.000000000000000000e+00,-2.224023193120956421e-01,-0.000000000000000000e+00,-0.000000000000000000e+00,0.000000000000000000e+00,0.000000000000000000e+00,-0.000000000000000000e+00
-2.671857178211212158e-01,0.000000000000000000e+00,-0.000000000000000000e+00,-0.000000000000000000e+00,-2.192323505878448486e-01,-0.000000000000000000e+00,-0.000000000000000000e+00,-0.000000000000000000e+00,-2.413098514080047607e-01,-0.000000000000000000e+00,0.000000000000000000e+00,0.000000000000000000e+00,0.000000000000000000e+00,-0.000000000000000000e+00,-2.422160804271697998e-01,7.778760790824890137e-01,-0.000000000000000000e+00,0.000000000000000000e+00,1.871933192014694214e-01,0.000000000000000000e+00,0.000000000000000000e+00,-2.356630116701126099e-01,8.028535842895507812e-01,-0.000000000000000000e+00,0.000000000000000000e+00,-0.000000000000000000e+00,0.000000000000000000e+00,-0.000000000000000000e+00,2.324097901582717896e-01,-8.278217315673828125e-01,0.000000000000000000e+00,-2.217190712690353394e-01,0.000000000000000000e+00,0.000000000000000000e+00,-2.122606933116912842e-01,0.000000000000000000e+00,0.000000000000000000e+00,-2.103946208953857422e-01,-0.000000000000000000e+00,-0.000000000000000000e+00,-0.000000000000000000e+00,0.000000000000000000e+00,1.836023330688476562e-01,-0.000000000000000000e+00,-0.000000000000000000e+00,0.000000000000000000e+00,-2.073521465063095093e-01,0.000000000000000000e+00,-2.464819699525833130e-01,0.000000000000000000e+00
0.000000000000000000e+00,-0.000000000000000000e+00,-2.268203943967819214e-01,-0.000000000000000000e+00,-2.074775844812393188e-01,1.665201932191848755e-01,-0.000000000000000000e+00,-0.000000000000000000e+00,0.000000000000000000e+00,-0.000000000000000000e+00,-0.000000000000000000e+00,0.000000000000000000e+00,0.000000000000000000e+00,2.447578161954879761e-01,1.729197502136230469e-01,-1.775442808866500854e-01,0.000000000000000000e+00,-0.000000000000000000e+00,-2.089420855045318604e-01,1.889888793230056763e-01,2.225965112447738647e-01,-0.000000000000000000e+00,1.692643463611602783e-01,-0.000000000000000000e+00,0.000000000000000000e+00,2.174215316772460938e-01,-0.000000000000000000e+00,-2.732817232608795166e-01,0.000000000000000000e+00,-0.000000000000000000e+00,-0.000000000000000000e+00,0.000000000000000000e+00,0.000000000000000000e+00,0.000000000000000000e+00,-2.136017382144927979e-01,-2.322852611541748047e-01,-0.000000000000000000e+00,-2.280952632427215576e-01,-0.000000000000000000e+00,-0.000000000000000000e+00,0.000000000000000000e+00,-0.000000000000000000e+00,-1.738283932209014893e-01,-0.000000000000000000e+00,-0.000000000000000000e+00,0.000000000000000000e+00,1.988492757081985474e-01,0.000000000000000000e+00,-2.031428217887878418e-01,-0.000000000000000000e+00
0.000000000000000000e+00,-1.847714632749557495e-01,0.000000000000000000e+00,0.000000000000000000e+00,-2.073647528886795044e-01,0.000000000000000000e+00,-0.000000000000000000e+00,2.752293348312377930e-01,-2.190417945384979248e-01,-2.343584895133972168e-01,-0.000000000000000000e+00,-1.877688616514205933e-01,-2.253338545560836792e-01,0.000000000000000000e+00,-0.000000000000000000e+00,-0.000000000000000000e+00,0.000000000000000000e+00,-0.000000000000000000e+00,0.000000000000000000e+00,-1.959226578474044800e-01,-0.000000000000000000e+00,-0.000000000000000000e+00,0.000000000000000000e+00,-0.000000000000000000e+00,0.000000000000000000e+00,0.000000000000000000e+00,-0.000000000000000000e+00,-0.000000000000000000e+00,-0.000000000000000000e+00,-0.000000000000000000e+00,-0.000000000000000000e+00,-0.000000000000000000e+00,-0.000000000000000000e+00,-0.000000000000000000e+00,-0.000000000000000000e+00,-0.000000000000000000e+00,2.602998614311218262e-01,0.000000000000000000e+00,-1.876341998577117920e-01,0.000000000000000000e+00,-1.910145133733749390e-01,0.000000000000000000e+00,-0.000000000000000000e+00,-2.120669782161712646e-01,0.000000000000000000e+00,1.915517896413803101e-01,0.000000000000000000e+00,2.255262285470962524e-01,2.113835364580154419e-01,-0.000000000000000000e+00
1.968608647584915161e-01,0.000000000000000000e+00,-0.000000000000000000e+00,-0.000000000000000000e+00,2.245090752840042114e-01,-0.000000000000000000e+00,-1.682745814323425293e-01,-1.679770648479461670e-01,0.000000000000000000e+00,-2.108384668827056885e-01,-0.000000000000000000e+00,0.000000000000000000e+00,-0.000000000000000000e+00,-0.000000000000000000e+00,1.936813443899154663e-01,1.645567715167999268e-01,0.000000000000000000e+00,0.000000000000000000e+00,-0.000000000000000000e+00,1.752972751855850220e-01,-0.000000000000000000e+00,0.000000000000000000e+00,0.000000000000000000e+00,1.742014735937118530e-01,0.000000000000000000e+00,-0.000000000000000000e+00,-1.891295015811920166e-01,-0.000000000000000000e+00,-2.158304750919342041e-01,0.000000000000000000e+00,-2.149985581636428833e-01,-2.281899601221084595e-01,2.573284208774566650e-01,-2.122707962989807129e-01,0.000000000000000000e+00,0.000000000000000000e+00,1.999719887971878052e-01,0.000000000000000000e+00,0.000000000000000000e+00,-0.000000000000000000e+00,2.116557061672210693e-01,-2.283988445997238159e-01,-0.000000000000000000e+00,-1.665076315402984619e-01,-0.000000000000000000e+00,-0.000000000000000000e+00,-2.110558450222015381e-01,-0.000000000000000000e+00,0.000000000000000000e+00,0.000000000000000000e+00
-0.000000000000000000e+00,-1.229776859283447266e+00,-2.622852325439453125e-01,0.000000000000000000e+00,-0.000000000000000000e+00,1.760272979736328125e-01,-1.750070601701736450e-01,0.000000000000000000e+00,-0.000000000000000000e+00,0.000000000000000000e+00,-0.000000000000000000e+00,1.783003062009811401e-01,-0.000000000000000000e+00,-2.274843752384185791e-01,0.000000000000000000e+00,0.000000000000000000e+00,0.000000000000000000e+00,0.000000000000000000e+00,0.000000000000000000e+00,-0.000000000000000000e+00,1.936466842889785767e-01,-0.000000000000000000e+00,0.000000000000000000e+00,-0.000000000000000000e+00,-2.446154356002807617e-01,0.000000000000000000e+00,0.000000000000000000e+00,0.000000000000000000e+00,-0.000000000000000000e+00,-0.000000000000000000e+00,0.000000000000000000e+00,0.000000000000000000e+00,-0.000000000000000000e+00,-0.000000000000000000e+00,0.000000000000000000e+00,-0.000000000000000000e+00,-3.255940377712249756e-01,1.759531646966934204e-01,-9.904274940490722656e-01,0.000000000000000000e+00,0.000000000000000000e+00,-0.000000000000000000e+00,-0.000000000000000000e+00,-0.000000000000000000e+00,-0.000000000000000000e+00,0.000000000000000000e+00,1.741653531789779663e-01,0.000000000000000000e+00,-0.000000000000000000e+00,0.000000000000000000e+00
-2.158136516809463501e-01,-0.000000000000000000e+00,-0.000000000000000000e+00,9.613463878631591797e-01,2.028363198041915894e-01,1.935528069734573364e-01,-0.000000000000000000e+00,-0.000000000000000000e+00,-0.000000000000000000e+00,1.801914572715759277e-01,0.000000000000000000e+00,-0.000000000000000000e+00,0.000000000000000000e+00,-2.039179056882858276e-01,-0.000000000000000000e+00,-0.000000000000000000e+00,-0.000000000000000000e+00,-0.000000000000000000e+00,0.000000000000000000e+00,-1.924153566360473633e-01,-0.000000000000000000e+00,0.000000000000000000e+00,-0.000000000000000000e+00,-0.000000000000000000e+00,-1.801512688398361206e-01,-0.000000000000000000e+00,-0.000000000000000000e+00,1.734678149223327637e-01,-1.878077834844589233e-01,-7.490746974945068359e-01,-1.960483342409133911e-01,0.000000000000000000e+00,0.000000000000000000e+00,2.072366327047348022e-01,-1.681388616561889648e-01,0.000000000000000000e+00,-0.000000000000000000e+00,0.000000000000000000e+00,-0.000000000000000000e+00,-0.000000000000000000e+00,0.000000000000000000e+00,9.401547312736511230e-01,-0.000000000000000000e+00,0.000000000000000000e+00,0.000000000000000000e+00,2.118602395057678223e-01,0.000000000000000000e+00,-0.000000000000000000e+00,0.000000000000000000e+00,1.756038367748260498e-01
0.000000000000000000e+00,-0.000000000000000000e+00,0.000000000000000000e+00,0.000000000000000000e+00,0.000000000000000000e+00,-1.984188109636306763e-01,-0.000000000000000000e+00,0.000000000000000000e+00,0.000000000000000000e+00,0.000000000000000000e+00,-0.000000000000000000e+00,0.000000000000000000e+00,0.000000000000000000e+00,1.922974735498428345e-01,-0.000000000000000000e+00,-0.000000000000000000e+00,0.000000000000000000e+00,0.000000000000000000e+00,-2.029633522033691406e-01,-1.821265667676925659e-01,1.804807335138320923e-01,-0.000000000000000000e+00,0.000000000000000000e+00,-0.000000000000000000e+00,-0.000000000000000000e+00,-1.880689114332199097e-01,1.328933954238891602e+00,-0.000000000000000000e+00,2.532724738121032715e-01,0.000000000000000000e+00,-0.000000000000000000e+00,-0.000000000000000000e+00,0.000000000000000000e+00,-0.000000000000000000e+00,-1.807925254106521606e-01,0.000000000000000000e+00,0.000000000000000000e+00,2.123085707426071167e-01,-0.000000000000000000e+00,-0.000000000000000000e+00,-0.000000000000000000e+00,0.000000000000000000e+00,0.000000000000000000e+00,-0.000000000000000000e+00,-0.000000000000000000e+00,-0.000000000000000000e+00,-0.000000000000000000e+00,-1.786648035049438477e-01,-0.000000000000000000e+00,0.000000000000000000e+00
1.655528545379638672e-01,3.639709055423736572e-01,0.000000000000000000e+00,0.000000000000000000e+00,0.000000000000000000e+00,0.000000000000000000e+00,-1.650484353303909302e-01,-0.000000000000000000e+00,0.000000000000000000e+00,-2.442246824502944946e-01,0.000000000000000000e+00,-1.772293448448181152e-01,-1.873342096805572510e-01,-0.000000000000000000e+00,-0.000000000000000000e+00,-0.000000000000000000e+00,-0.000000000000000000e+00,-0.000000000000000000e+00,0.000000000000000000e+00,2.452383041381835938e-01,-2.263752520084381104e-01,1.872621476650238037e-01,0.000000000000000000e+00,-0.000000000000000000e+00,-0.000000000000000000e+00,1.816315203905105591e-01,-0.000000000000000000e+00,-0.000000000000000000e+00,-0.000000000000000000e+00,3.142679035663604736e-01,2.135865986347198486e-01,-1.790091246366500854e-01,-0.000000000000000000e+00,-0.000000000000000000e+00,-2.059916555881500244e-01,-0.000000000000000000e+00,-0.000000000000000000e+00,-0.000000000000000000e+00,-0.000000000000000000e+00,-0.000000000000000000e+00,-0.000000000000000000e+00,-3.168340027332305908e-01,0.000000000000000000e+00,3.092101812362670898e-01,0.000000000000000000e+00,-1.854139715433120728e-01,-0.000000000000000000e+00,0.000000000000000000e+00,-0.000000000000000000e+00,-0.000000000000000000e+00
-2.168305218219757080e-01,0.000000000000000000e+00,2.224912345409393311e-01,-0.000000000000000000e+00,-2.119601368904113770e-01,-2.591056227684020996e-01,0.000000000000000000e+00,2.177359312772750854e-01,1.688119173049926758e-01,-0.000000000000000000e+00,-0.000000000000000000e+00,1.959202885627746582e-01,-0.000000000000000000e+00,0.000000000000000000e+00,0.000000000000000000e+00,0.000000000000000000e+00,-0.000000000000000000e+00,-2.149585187435150146e-01,0.000000000000000000e+00,-1.941142380237579346e-01,0.000000000000000000e+00,-2.107192128896713257e-01,2.432686686515808105e-01,0.000000000000000000e+00,-2.130665779113769531e-01,-0.000000000000000000e+00,-1.653828322887420654e-01,-0.000000000000000000e+00,0.000000000000000000e+00,-0.000000000000000000e+00,1.667998731136322021e-01,-0.000000000000000000e+00,-0.000000000000000000e+00,-2.231044769287109375e-01,-0.000000000000000000e+00,1.801111698150634766e-01,-0.000000000000000000e+00,1.772604137659072876e-01,2.070525735616683960e-01,2.168873399496078491e-01,-0.000000000000000000e+00,-0.000000000000000000e+00,-0.000000000000000000e+00,2.035234868526458740e-01,0.000000000000000000e+00,-0.000000000000000000e+00,-0.000000000000000000e+00,-0.000000000000000000e+00,1.668885499238967896e-01,-0.000000000000000000e+00
-0.000000000000000000e+00,-0.000000000000000000e+00,0.000000000000000000e+00,-7.629705667495727539e-01,2.113979607820510864e-01,-2.335241883993148804e-01,-0.000000000000000000e+00,-0.000000000000000000e+00,0.000000000000000000e+00,-0.000000000000000000e+00,0.000000000000000000e+00,0.000000000000000000e+00,-0.000000000000000000e+00,0.000000000000000000e+00,-0.000000000000000000e+00,-0.000000000000000000e+00,-0.000000000000000000e+00,-0.000000000000000000e+00,-0.000000000000000000e+00,0.000000000000000000e+00,-1.856630593538284302e-01,0.000000000000000000e+00,-0.000000000000000000e+00,-0.000000000000000000e+00,0.000000000000000000e+00,0.000000000000000000e+00,-0.000000000000000000e+00,2.067327201366424561e-01,2.407413870096206665e-01,0.000000000000000000e+00,-0.000000000000000000e+00,-2.079821527004241943e-01,0.000000000000000000e+00,-0.000000000000000000e+00,-0.000000000000000000e+00,0.000000000000000000e+00,1.220704436302185059e+00,-2.001979798078536987e-01,0.000000000000000000e+00,-0.000000000000000000e+00,-0.000000000000000000e+00,-0.000000000000000000e+00,0.000000000000000000e+00,-0.000000000000000000e+00,0.000000000000000000e+00,-1.676896214485168457e-01,-1.773356795310974121e-01,2.080926150083541870e-01,-0.000000000000000000e+00,2.029460817575454712e-01
-0.000000000000000000e+00,0.000000000000000000e+00,-0.000000000000000000e+00,0.000000000000000000e+00,0.000000000000000000e+00,2.196125537157058716e-01,1.732174605131149292e-01,2.266248017549514771e-01,0.000000000000000000e+00,-2.191252559423446655e-01,-1.943215578794479370e-01,2.241442948579788208e-01,2.332180291414260864e-01,-0.000000000000000000e+00,-0.000000000000000000e+00,0.000000000000000000e+00,0.000000000000000000e+00,0.000000000000000000e+00,0.000000000000000000e+00,0.000000000000000000e+00,2.196194976568222046e-01,-1.983316242694854736e-01,1.967875808477401733e-01,2.374879568815231323e-01,0.000000000000000000e+00,-0.000000000000000000e+00,-0.000000000000000000e+00,-2.311389148235321045e-01,-0.000000000000000000e+00,2.101754397153854370e-01,-0.000000000000000000e+00,0.000000000000000000e+00,-2.411056905984878540e-01,-1.665936410427093506e-01,2.416944354772567749e-01,2.174732834100723267e-01,-0.000000000000000000e+00,0.000000000000000000e+00,-0.000000000000000000e+00,-1.990123391151428223e-01,-2.167987525463104248e-01,-0.000000000000000000e+00,-0.000000000000000000e+00,0.000000000000000000e+00,-0.000000000000000000e+00,-0.000000000000000000e+00,-0.000000000000000000e+00,0.000000000000000000e+00,-2.134481519460678101e-01,-0.000000000000000000e+00
-0.000000000000000000e+00,1.659879833459854126e-01,0.000000000000000000e+00,-2.615866661071777344e-01,0.000000000000000000e+00,0.000000000000000000e+00,-0.000000000000000000e+00,1.941329240798950195e-01,-0.000000000000000000e+00,-0.000000000000000000e+00,0.000000000000000000e+00,1.832334846258163452e-01,1.914133876562118530e-01,-0.000000000000000000e+00,0.000000000000000000e+00,0.000000000000000000e+00,0.000000000000000000e+00,0.000000000000000000e+00,-0.000000000000000000e+00,-0.000000000000000000e+00,-0.000000000000000000e+00,2.618235349655151367e-01,1.709537506103515625e-01,1.729713827371597290e-01,-1.671016812324523926e-01,0.000000000000000000e+00,-0.000000000000000000e+00,2.031274437904357910e-01,0.000000000000000000e+00,2.501855194568634033e-01,0.000000000000000000e+00,-0.000000000000000000e+00,-1.683875620365142822e-01,-1.961309164762496948e-01,0.000000000000000000e+00,-0.000000000000000000e+00,0.000000000000000000e+00,-0.000000000000000000e+00,-1.954050511121749878e-01,0.000000000000000000e+00,0.000000000000000000e+00,2.008970528841018677e-01,-1.883435845375061035e-01,-0.000000000000000000e+00,2.412791997194290161e-01,-0.000000000000000000e+00,-0.000000000000000000e+00,0.000000000000000000e+00,0.000000000000000000e+00,-0.000000000000000000e+00
0.000000000000000000e+00,-8.003070950508117676e-01,-0.000000000000000000e+00,9.622291922569274902e-01,-0.000000000000000000e+00,1.725722849369049072e-01,0.000000000000000000e+00,-8.895440697669982910e-01,0.000000000000000000e+00,0.000000000000000000e+00,9.678619503974914551e-01,0.000000000000000000e+00,-0.000000000000000000e+00,-0.000000000000000000e+00,-0.000000000000000000e+00,9.021247029304504395e-01,1.970980614423751831e-01,0.000000000000000000e+00,-0.000000000000000000e+00,0.000000000000000000e+00,-2.407424449920654297e-01,0.000000000000000000e+00,0.000000000000000000e+00,0.000000000000000000e+00,-2.197681516408920288e-01,0.000000000000000000e+00,-0.000000000000000000e+00,1.836069077253341675e-01,-0.000000000000000000e+00,0.000000000000000000e+00,-0.000000000000000000e+00,0.000000000000000000e+00,0.000000000000000000e+00,-1.867566704750061035e-01,1.764173954725265503e-01,-0.000000000000000000e+00,-0.000000000000000000e+00,0.000000000000000000e+00,-0.000000000000000000e+00,-0.000000000000000000e+00,0.000000000000000000e+00,-0.000000000000000000e+00,0.000000000000000000e+00,0.000000000000000000e+00,0.000000000000000000e+00,0.000000000000000000e+00,-0.000000000000000000e+00,0.000000000000000000e+00,0.000000000000000000e+00,-0.000000000000000000e+00
0.000000000000000000e+00,0.000000000000000000e+00,-3.195222020149230957e-01,-2.531069517135620117e-01,0.000000000000000000e+00,2.222507148981094360e-01,1.682084649801254272e-01,-0.000000000000000000e+00,0.000000000000000000e+00,0.000000000000000000e+00,0.000000000000000000e+00,0.000000000000000000e+00,2.148140221834182739e-01,-2.235804498195648193e-01,-0.000000000000000000e+00,-2.244613170623779297e-01,0.000000000000000000e+00,-0.000000000000000000e+00,-2.318475395441055298e-01,0.000000000000000000e+00,1.712471097707748413e-01,-2.258679270744323730e-01,0.000000000000000000e+00,0.000000000000000000e+00,-0.000000000000000000e+00,0.000000000000000000e+00,-0.000000000000000000e+00,0.000000000000000000e+00,-0.000000000000000000e+00,0.000000000000000000e+00,-1.933587193489074707e-01,-0.000000000000000000e+00,3.442578911781311035e-01,0.000000000000000000e+00,0.000000000000000000e+00,-0.000000000000000000e+00,3.711096644401550293e-01,-0.000000000000000000e+00,-0.000000000000000000e+00,-0.000000000000000000e+00,-0.000000000000000000e+00,-0.000000000000000000e+00,-0.000000000000000000e+00,0.000000000000000000e+00,-2.136411666870117188e-01,0.000000000000000000e+00,-0.000000000000000000e+00,0.000000000000000000e+00,0.000000000000000000e+00,0.000000000000000000e+00
0.000000000000000000e+00,-0.000000000000000000e+00,0.000000000000000000e+00,0.000000000000000000e+00,-0.000000000000000000e+00,1.905790269374847412e-01,-2.076401710510253906e-01,0.000000000000000000e+00,-0.000000000000000000e+00,0.000000000000000000e+00,-0.000000000000000000e+00,-0.000000000000000000e+00,-2.525637745857238770e-01,-2.423500418663024902e-01,0.000000000000000000e+00,0.000000000000000000e+00,1.788185387849807739e-01,0.000000000000000000e+00,-1.934105753898620605e-01,-1.870478391647338867e-01,2.144031077623367310e-01,0.000000000000000000e+00,-2.069750308990478516e+00,0.000000000000000000e+00,-0.000000000000000000e+00,1.945386081933975220e-01,2.369843006134033203e+00,-0.000000000000000000e+00,-0.000000000000000000e+00,-0.000000000000000000e+00,1.856626570224761963e-01,0.000000000000000000e+00,-0.000000000000000000e+00,-0.000000000000000000e+00,-0.000000000000000000e+00,0.000000000000000000e+00,0.000000000000000000e+00,-0.000000000000000000e+00,-0.000000000000000000e+00,-0.000000000000000000e+00,-0.000000000000000000e+00,-0.000000000000000000e+00,-2.118165045976638794e-01,1.907923936843872070e+00,-0.000000000000000000e+00,-0.000000000000000000e+00,-0.000000000000000000e+00,0.000000000000000000e+00,2.400247603654861450e-01,-0.000000000000000000e+00
-0.000000000000000000e+00,0.000000000000000000e+00,-2.501994073390960693e-01,6.794775724411010742e-01,-2.111632674932479858e-01,0.000000000000000000e+00,0.000000000000000000e+00,-0.000000000000000000e+00,-0.000000000000000000e+00,-0.000000000000000000e+00,6.961310505867004395e-01,-0.000000000000000000e+00,-0.000000000000000000e+00,-2.624304592609405518e-01,0.000000000000000000e+00,-0.000000000000000000e+00,-0.000000000000000000e+00,0.000000000000000000e+00,-2.014652043581008911e-01,2.383044958114624023e-01,-0.000000000000000000e+00,-2.210650891065597534e-01,-0.000000000000000000e+00,-4.350060224533081055e-01,-0.000000000000000000e+00,-0.000000000000000000e+00,0.000000000000000000e+00,0.000000000000000000e+00,-0.000000000000000000e+00,0.000000000000000000e+00,2.110596299171447754e-01,0.000000000000000000e+00,-0.000000000000000000e+00,-0.000000000000000000e+00,-0.000000000000000000e+00,-0.000000000000000000e+00,-5.160285234451293945e-01,-1.712157428264617920e-01,-5.634413957595825195e-01,-0.000000000000000000e+00,-0.000000000000000000e+00,6.632947921752929688e-01,-0.000000000000000000e+00,-6.378269791603088379e-01,1.674576252698898315e-01,0.000000000000000000e+00,0.000000000000000000e+00,-2.120428681373596191e-01,-0.000000000000000000e+00,-1.867651045322418213e-01
0.000000000000000000e+00,-7.013391256332397461e-01,-0.000000000000000000e+00,-0.000000000000000000e+00,0.000000000000000000e+00,0.000000000000000000e+00,-0.000000000000000000e+00,-0.000000000000000000e+00,0.000000000000000000e+00,0.000000000000000000e+00,7.841376066207885742e-01,0.000000000000000000e+00,-0.000000000000000000e+00,-2.060471624135971069e-01,-3.108189702033996582e-01,-0.000000000000000000e+00,0.000000000000000000e+00,0.000000000000000000e+00,0.000000000000000000e+00,-1.970299929380416870e-01,0.000000000000000000e+00,-0.000000000000000000e+00,0.000000000000000000e+00,0.000000000000000000e+00,1.976041644811630249e-01,1.659978032112121582e-01,-8.384060263633728027e-01,0.000000000000000000e+00,-0.000000000000000000e+00,-0.000000000000000000e+00,-0.000000000000000000e+00,-0.000000000000000000e+00,0.000000000000000000e+00,-0.000000000000000000e+00,0.000000000000000000e+00,-0.000000000000000000e+00,0.000000000000000000e+00,-0.000000000000000000e+00,-0.000000000000000000e+00,-7.380092740058898926e-01,0.000000000000000000e+00,0.000000000000000000e+00,-2.736992835998535156e-01,-7.059307694435119629e-01,0.000000000000000000e+00,1.864100098609924316e-01,-1.683437824249267578e-01,-1.795473843812942505e-01,-0.000000000000000000e+00,-0.000000000000000000e+00
0.000000000000000000e+00,0.000000000000000000e+00,-0.000000000000000000e+00,0.000000000000000000e+00,-2.560153603553771973e-01,-0.000000000000000000e+00,0.000000000000000000e+00,0.000000000000000000e+00,0.000000000000000000e+00,-0.000000000000000000e+00,0.000000000000000000e+00,-0.000000000000000000e+00,0.000000000000000000e+00,1.905128061771392822e-01,0.000000000000000000e+00,-0.000000000000000000e+00,0.000000000000000000e+00,-0.000000000000000000e+00,-1.686936765909194946e-01,-0.000000000000000000e+00,0.000000000000000000e+00,-0.000000000000000000e+00,8.861621022224426270e-01,-0.000000000000000000e+00,1.845384687185287476e-01,2.104072421789169312e-01,0.000000000000000000e+00,-1.693780869245529175e-01,0.000000000000000000e+00,-9.397544860839843750e-01,-2.317361831665039062e-01,0.000000000000000000e+00,0.000000000000000000e+00,0.000000000000000000e+00,-0.000000000000000000e+00,0.000000000000000000e+00,-0.000000000000000000e+00,0.000000000000000000e+00,0.000000000000000000e+00,-0.000000000000000000e+00,0.000000000000000000e+00,8.572399020195007324e-01,0.000000000000000000e+00,0.000000000000000000e+00,-2.439495623111724854e-01,0.000000000000000000e+00,-1.873507201671600342e-01,-1.905089467763900757e-01,-0.000000000000000000e+00,0.000000000000000000e+00
0.000000000000000000e+00,-0.000000000000000000e+00,-2.299670875072479248e-01,-0.000000000000000000e+00,-0.000000000000000000e+00,-0.000000000000000000e+00,-2.713440060615539551e-01,0.000000000000000000e+00,0.000000000000000000e+00,-2.410428822040557861e-01,1.049501538276672363e+00,-0.000000000000000000e+00,1.854581385850906372e-01,-0.000000000000000000e+00,1.579995304346084595e-01,-0.000000000000000000e+00,0.000000000000000000e+00,-0.000000000000000000e+00,0.000000000000000000e+00,-1.965362727642059326e-01,-0.000000000000000000e+00,-2.226275056600570679e-01,-0.000000000000000000e+00,0.000000000000000000e+00,1.905860751867294312e-01,-0.000000000000000000e+00,0.000000000000000000e+00,-0.000000000000000000e+00,-0.000000000000000000e+00,-7.720701098442077637e-01,0.000000000000000000e+00,-2.832939624786376953e-01,-0.000000000000000000e+00,0.000000000000000000e+00,1.786109060049057007e-01,0.000000000000000000e+00,0.000000000000000000e+00,-0.000000000000000000e+00,0.000000000000000000e+00,-0.000000000000000000e+00,0.000000000000000000e+00,9.805338978767395020e-01,-0.000000000000000000e+00,0.000000000000000000e+00,-0.000000000000000000e+00,0.000000000000000000e+00,-1.671880930662155151e-01,-0.000000000000000000e+00,-0.000000000000000000e+00,-0.000000000000000000e+00
1.983409374952316284e-01,0.000000000000000000e+00,-2.005864828824996948e-01,0.000000000000000000e+00,-0.000000000000000000e+00,-0.000000000000000000e+00,0.000000000000000000e+00,0.000000000000000000e+00,-0.000000000000000000e+00,-0.000000000000000000e+00,-2.210773378610610962e-01,0.000000000000000000e+00,-0.000000000000000000e+00,0.000000000000000000e+00,-1.930028051137924194e-01,0.000000000000000000e+00,-0.000000000000000000e+00,-0.000000000000000000e+00,0.000000000000000000e+00,1.674659252166748047e-01,-0.000000000000000000e+00,0.000000000000000000e+00,1.647592186927795410e-01,-1.902007311582565308e-01,0.000000000000000000e+00,0.000000000000000000e+00,0.000000000000000000e+00,0.000000000000000000e+00,0.000000000000000000e+00,0.000000000000000000e+00,0.000000000000000000e+00,-0.000000000000000000e+00,0.000000000000000000e+00,0.000000000000000000e+00,0.000000000000000000e+00,-0.000000000000000000e+00,-0.000000000000000000e+00,0.000000000000000000e+00,0.000000000000000000e+00,-0.000000000000000000e+00,2.434773445129394531e-01,2.166951000690460205e-01,-1.783940047025680542e-01,0.000000000000000000e+00,-1.837743222713470459e-01,0.000000000000000000e+00,-1.845375597476959229e-01,0.000000000000000000e+00,-1.694406121969223022e-01,0.000000000000000000e+00
-2.029295861721038818e-01,-0.000000000000000000e+00,0.000000000000000000e+00,0.000000000000000000e+00,-0.000000000000000000e+00,2.023838311433792114e-01,0.000000000000000000e+00,-0.000000000000000000e+00,-0.000000000000000000e+00,0.000000000000000000e+00,0.000000000000000000e+00,-1.979724317789077759e-01,-2.068574130535125732e-01,-0.000000000000000000e+00,0.000000000000000000e+00,0.000000000000000000e+00,-0.000000000000000000e+00,0.000000000000000000e+00,0.000000000000000000e+00,0.000000000000000000e+00,-0.000000000000000000e+00,0.000000000000000000e+00,-0.000000000000000000e+00,2.869374275207519531e+00,-0.000000000000000000e+00,-0.000000000000000000e+00,2.707410097122192383e+00,-1.744459271430969238e-01,0.000000000000000000e+00,3.069809198379516602e+00,-0.000000000000000000e+00,0.000000000000000000e+00,3.203125000000000000e+00,0.000000000000000000e+00,0.000000000000000000e+00,0.000000000000000000e+00,3.224238634109497070e+00,-0.000000000000000000e+00,-0.000000000000000000e+00,0.000000000000000000e+00,0.000000000000000000e+00,-0.000000000000000000e+00,0.000000000000000000e+00,-0.000000000000000000e+00,0.000000000000000000e+00,0.000000000000000000e+00,-0.000000000000000000e+00,1.754723936319351196e-01,0.000000000000000000e+00,-1.664351969957351685e-01
-1.828846633434295654e-01,-0.000000000000000000e+00,0.000000000000000000e+00,0.000000000000000000e+00,-0.000000000000000000e+00,-0.000000000000000000e+00,0.000000000000000000e+00,0.000000000000000000e+00,-0.000000000000000000e+00,0.000000000000000000e+00,-0.000000000000000000e+00,-2.726360261440277100e-01,-0.000000000000000000e+00,0.000000000000000000e+00,0.000000000000000000e+00,0.000000000000000000e+00,-1.805228292942047119e-01,0.000000000000000000e+00,-0.000000000000000000e+00,-2.011189758777618408e-01,-2.120571136474609375e-01,-0.000000000000000000e+00,7.563536167144775391e-01,0.000000000000000000e+00,-0.000000000000000000e+00,2.096619904041290283e-01,-0.000000000000000000e+00,2.729439437389373779e-01,2.020086795091629028e-01,0.000000000000000000e+00,0.000000000000000000e+00,-0.000000000000000000e+00,0.000000000000000000e+00,0.000000000000000000e+00,0.000000000000000000e+00,-0.000000000000000000e+00,-5.423813462257385254e-01,1.804866939783096313e-01,0.000000000000000000e+00,-0.000000000000000000e+00,-0.000000000000000000e+00,6.870113611221313477e-01,0.000000000000000000e+00,-0.000000000000000000e+00,-0.000000000000000000e+00,-0.000000000000000000e+00,-0.000000000000000000e+00,1.994660198688507080e-01,-2.483343482017517090e-01,-0.000000000000000000e+00
0.000000000000000000e+00,-0.000000000000000000e+00,-0.000000000000000000e+00,3.391863107681274414e-01,-0.000000000000000000e+00,-2.032109797000885010e-01,0.000000000000000000e+00,0.000000000000000000e+00,2.265823781490325928e-01,-0.000000000000000000e+00,3.606281876564025879e-01,-2.363587319850921631e-01,-0.000000000000000000e+00,-0.000000000000000000e+00,1.925825774669647217e-01,-0.000000000000000000e+00,-0.000000000000000000e+00,-0.000000000000000000e+00,2.319092899560928345e-01,-0.000000000000000000e+00,0.000000000000000000e+00,0.000000000000000000e+00,0.000000000000000000e+00,0.000000000000000000e+00,2.367546409368515015e-01,-0.000000000000000000e+00,0.000000000000000000e+00,0.000000000000000000e+00,2.119401991367340088e-01,-0.000000000000000000e+00,-0.000000000000000000e+00,-0.000000000000000000e+00,-0.000000000000000000e+00,2.052284628152847290e-01,-1.902891844511032104e-01,0.000000000000000000e+00,0.000000000000000000e+00,0.000000000000000000e+00,0.000000000000000000e+00,-2.719803452491760254e-01,-0.000000000000000000e+00,-0.000000000000000000e+00,1.965911388397216797e-01,3.566906154155731201e-01,-2.194437235593795776e-01,-0.000000000000000000e+00,0.000000000000000000e+00,-2.157822847366333008e-01,-0.000000000000000000e+00,-1.807660460472106934e-01
-0.000000000000000000e+00,2.004390954971313477e-01,0.000000000000000000e+00,-0.000000000000000000e+00,-0.000000000000000000e+00,2.040140926837921143e-01,-0.000000000000000000e+00,0.000000000000000000e+00,-2.045718133449554443e-01,-0.000000000000000000e+00,2.729191184043884277e-01,1.915592402219772339e-01,2.440045177936553955e-01,-2.041125595569610596e-01,0.000000000000000000e+00,-1.799193173646926880e-01,-0.000000000000000000e+00,-0.000000000000000000e+00,-0.000000000000000000e+00,-0.000000000000000000e+00,-0.000000000000000000e+00,1.904537081718444824e-01,-0.000000000000000000e+00,0.000000000000000000e+00,-2.263250797986984253e-01,2.642338275909423828e-01,0.000000000000000000e+00,-0.000000000000000000e+00,-0.000000000000000000e+00,0.000000000000000000e+00,0.000000000000000000e+00,0.000000000000000000e+00,0.000000000000000000e+00,-0.000000000000000000e+00,2.275867611169815063e-01,0.000000000000000000e+00,-0.000000000000000000e+00,-2.048767209053039551e-01,-0.000000000000000000e+00,2.070102542638778687e-01,0.000000000000000000e+00,0.000000000000000000e+00,-2.718219161033630371e-01,0.000000000000000000e+00,-0.000000000000000000e+00,1.687805056571960449e-01,0.000000000000000000e+00,-0.000000000000000000e+00,-0.000000000000000000e+00,-1.872352361679077148e-01
0.000000000000000000e+00,3.524344265460968018e-01,0.000000000000000000e+00,0.000000000000000000e+00,0.000000000000000000e+00,-2.211789637804031372e-01,-0.000000000000000000e+00,3.532999753952026367e-01,-1.680675745010375977e-01,-0.000000000000000000e+00,0.000000000000000000e+00,2.332350760698318481e-01,-0.000000000000000000e+00,0.000000000000000000e+00,-3.971624970436096191e-01,0.000000000000000000e+00,-0.000000000000000000e+00,0.000000000000000000e+00,-2.341084480285644531e-01,0.000000000000000000e+00,0.000000000000000000e+00,-0.000000000000000000e+00,-0.000000000000000000e+00,-0.000000000000000000e+00,-2.313844859600067139e-01,0.000000000000000000e+00,-0.000000000000000000e+00,-2.040220350027084351e-01,0.000000000000000000e+00,-0.000000000000000000e+00,0.000000000000000000e+00,-0.000000000000000000e+00,0.000000000000000000e+00,2.011709958314895630e-01,0.000000000000000000e+00,0.000000000000000000e+00,-0.000000000000000000e+00,-2.429975718259811401e-01,-0.000000000000000000e+00,4.376829862594604492e-01,-0.000000000000000000e+00,0.000000000000000000e+00,-0.000000000000000000e+00,3.027241528034210205e-01,2.437921613454818726e-01,-0.000000000000000000e+00,0.000000000000000000e+00,0.000000000000000000e+00,-0.000000000000000000e+00,2.134188264608383179e-01
1.770507991313934326e-01,-1.715804785490036011e-01,0.000000000000000000e+00,0.000000000000000000e+00,2.616492509841918945e-01,-1.884125918149948120e-01,0.000000000000000000e+00,0.000000000000000000e+00,-0.000000000000000000e+00,0.000000000000000000e+00,0.000000000000000000e+00,2.035344839096069336e-01,-2.193776965141296387e-01,0.000000000000000000e+00,0.000000000000000000e+00,0.000000000000000000e+00,-0.000000000000000000e+00,-1.680210381746292114e-01,0.000000000000000000e+00,-0.000000000000000000e+00,-0.000000000000000000e+00,2.008267045021057129e-01,-2.026763856410980225e-01,2.639588117599487305e-01,2.533010840415954590e-01,-0.000000000000000000e+00,0.000000000000000000e+00,-0.000000000000000000e+00,1.789675801992416382e-01,-0.000000000000000000e+00,1.808692365884780884e-01,1.739444136619567871e-01,-0.000000000000000000e+00,0.000000000000000000e+00,-0.000000000000000000e+00,-0.000000000000000000e+00,-0.000000000000000000e+00,-2.439252734184265137e-01,-1.674529761075973511e-01,0.000000000000000000e+00,2.445631474256515503e-01,-0.000000000000000000e+00,-1.875256747007369995e-01,-0.000000000000000000e+00,0.000000000000000000e+00,0.000000000000000000e+00,0.000000000000000000e+00,0.000000000000000000e+00,-1.822316348552703857e-01,2.376444935798645020e-01
-2.009122222661972046e-01,0.000000000000000000e+00,-2.669171094894409180e-01,0.000000000000000000e+00,2.281641662120819092e-01,-0.000000000000000000e+00,0.000000000000000000e+00,-0.000000000000000000e+00,0.000000000000000000e+00,-0.000000000000000000e+00,0.000000000000000000e+00,-0.000000000000000000e+00,0.000000000000000000e+00,0.000000000000000000e+00,-2.263179272413253784e-01,-0.000000000000000000e+00,-0.000000000000000000e+00,1.828867793083190918e-01,2.044084817171096802e-01,0.000000000000000000e+00,-2.138626128435134888e-01,-0.000000000000000000e+00,0.000000000000000000e+00,0.000000000000000000e+00,2.051382660865783691e-01,-0.000000000000000000e+00,3.789169788360595703e-01,-2.083837538957595825e-01,-0.000000000000000000e+00,2.772302329540252686e-01,2.525174319744110107e-01,-1.864310801029205322e-01,0.000000000000000000e+00,0.000000000000000000e+00,-0.000000000000000000e+00,-0.000000000000000000e+00,-0.000000000000000000e+00,-1.642811596393585205e-01,5.717919468879699707e-01,-0.000000000000000000e+00,3.131451308727264404e-01,-0.000000000000000000e+00,-1.724256128072738647e-01,3.563874363899230957e-01,-0.000000000000000000e+00,0.000000000000000000e+00,0.000000000000000000e+00,-1.868789643049240112e-01,-1.793280094861984253e-01,-0.000000000000000000e+00
-2.493215948343276978e-01,0.000000000000000000e+00,1.678938865661621094e-01,0.000000000000000000e+00,-0.000000000000000000e+00,-1.792868524789810181e-01,-0.000000000000000000e+00,1.828159570693969727e+00,2.691086232662200928e-01,-0.000000000000000000e+00,-0.000000000000000000e+00,-0.000000000000000000e+00,-1.786645799875259399e-01,-0.000000000000000000e+00,0.000000000000000000e+00,0.000000000000000000e+00,1.775810420513153076e-01,1.711651086807250977e-01,-0.000000000000000000e+00,1.988184005022048950e-01,-2.432448416948318481e-01,0.000000000000000000e+00,0.000000000000000000e+00,0.000000000000000000e+00,-2.383769005537033081e-01,-0.000000000000000000e+00,-0.000000000000000000e+00,-0.000000000000000000e+00,0.000000000000000000e+00,0.000000000000000000e+00,-0.000000000000000000e+00,-1.826990395784378052e-01,0.000000000000000000e+00,-0.000000000000000000e+00,0.000000000000000000e+00,-0.000000000000000000e+00,0.000000000000000000e+00,0.000000000000000000e+00,0.000000000000000000e+00,-0.000000000000000000e+00,-0.000000000000000000e+00,-2.014180898666381836e+00,1.791736632585525513e-01,-0.000000000000000000e+00,0.000000000000000000e+00,0.000000000000000000e+00,-2.095184475183486938e-01,1.759420484304428101e-01,0.000000000000000000e+00,-0.000000000000000000e+00
0.000000000000000000e+00,-0.000000000000000000e+00,-2.020877599716186523e-01,-2.549373507499694824e-01,-0.000000000000000000e+00,0.000000000000000000e+00,-0.000000000000000000e+00,-0.000000000000000000e+00,2.142190039157867432e-01,1.725142002105712891e-01,-0.000000000000000000e+00,-2.079992890357971191e-01,0.000000000000000000e+00,-2.228130698204040527e-01,0.000000000000000000e+00,0.000000000000000000e+00,0.000000000000000000e+00,0.000000000000000000e+00,0.000000000000000000e+00,-0.000000000000000000e+00,1.971748322248458862e-01,0.000000000000000000e+00,0.000000000000000000e+00,1.674399375915527344e-01,0.000000000000000000e+00,1.868408918380737305e-01,0.000000000000000000e+00,0.000000000000000000e+00,-1.979069411754608154e-01,0.000000000000000000e+00,0.000000000000000000e+00,-0.000000000000000000e+00,0.000000000000000000e+00,-0.000000000000000000e+00,0.000000000000000000e+00,-0.000000000000000000e+00,0.000000000000000000e+00,-0.000000000000000000e+00,0.000000000000000000e+00,-0.000000000000000000e+00,-0.000000000000000000e+00,0.000000000000000000e+00,0.000000000000000000e+00,0.000000000000000000e+00,2.659933567047119141e-01,-2.477113753557205200e-01,2.108931988477706909e-01,-0.000000000000000000e+00,-0.000000000000000000e+00,-0.000000000000000000e+00
-0.000000000000000000e+00,0.000000000000000000e+00,0.000000000000000000e+00,-0.000000000000000000e+00,0.000000000000000000e+00,-0.000000000000000000e+00,-2.330053895711898804e-01,-0.000000000000000000e+00,-0.000000000000000000e+00,1.695338040590286255e-01,-4.904618859291076660e-01,-0.000000000000000000e+00,-0.000000000000000000e+00,-2.047522217035293579e-01,0.000000000000000000e+00,-4.446665942668914795e-01,-0.000000000000000000e+00,-0.000000000000000000e+00,-2.571034133434295654e-01,-0.000000000000000000e+00,1.817685812711715698e-01,1.686087995767593384e-01,0.000000000000000000e+00,0.000000000000000000e+00,-1.864362806081771851e-01,0.000000000000000000e+00,0.000000000000000000e+00,2.197316735982894897e-01,-2.251268327236175537e-01,3.735484182834625244e-01,-0.000000000000000000e+00,0.000000000000000000e+00,0.000000000000000000e+00,-0.000000000000000000e+00,-0.000000000000000000e+00,0.000000000000000000e+00,5.473200082778930664e-01,-0.000000000000000000e+00,0.000000000000000000e+00,-0.000000000000000000e+00,0.000000000000000000e+00,-0.000000000000000000e+00,0.000000000000000000e+00,0.000000000000000000e+00,-0.000000000000000000e+00,-0.000000000000000000e+00,2.098363190889358521e-01,0.000000000000000000e+00,-2.330726683139801025e-01,-0.000000000000000000e+00
0.000000000000000000e+00,3.983008623123168945e+00,-0.000000000000000000e+00,-3.575421094894409180e+00,-0.000000000000000000e+00,-1.716233938932418823e-01,-0.000000000000000000e+00,-0.000000000000000000e+00,2.452658563852310181e-01,-0.000000000000000000e+00,-3.592080116271972656e+00,-0.000000000000000000e+00,0.000000000000000000e+00,-0.000000000000000000e+00,0.000000000000000000e+00,-0.000000000000000000e+00,-0.000000000000000000e+00,0.000000000000000000e+00,-2.504294216632843018e-01,-0.000000000000000000e+00,-0.000000000000000000e+00,0.000000000000000000e+00,0.000000000000000000e+00,4.209335803985595703e+00,0.000000000000000000e+00,-0.000000000000000000e+00,4.046040058135986328e+00,-0.000000000000000000e+00,0.000000000000000000e+00,-0.000000000000000000e+00,2.602956891059875488e-01,0.000000000000000000e+00,0.000000000000000000e+00,-1.821452528238296509e-01,-1.712563931941986084e-01,0.000000000000000000e+00,-0.000000000000000000e+00,0.000000000000000000e+00,0.000000000000000000e+00,4.147497177124023438e+00,0.000000000000000000e+00,-0.000000000000000000e+00,0.000000000000000000e+00,0.000000000000000000e+00,-0.000000000000000000e+00,-2.558305859565734863e-01,0.000000000000000000e+00,-1.709736585617065430e-01,0.000000000000000000e+00,0.000000000000000000e+00
2.013112604618072510e-01,0.000000000000000000e+00,0.000000000000000000e+00,0.000000000000000000e+00,-0.000000000000000000e+00,-2.019380033016204834e-01,0.000000000000000000e+00,-0.000000000000000000e+00,0.000000000000000000e+00,-0.000000000000000000e+00,-0.000000000000000000e+00,0.000000000000000000e+00,1.943527162075042725e-01,-2.689166367053985596e-01,-0.000000000000000000e+00,-0.000000000000000000e+00,-2.458035796880722046e-01,0.000000000000000000e+00,-1.759009212255477905e-01,0.000000000000000000e+00,-0.000000000000000000e+00,-0.000000000000000000e+00,0.000000000000000000e+00,-0.000000000000000000e+00,0.000000000000000000e+00,-0.000000000000000000e+00,0.000000000000000000e+00,0.000000000000000000e+00,0.000000000000000000e+00,-0.000000000000000000e+00,0.000000000000000000e+00,-0.000000000000000000e+00,-0.000000000000000000e+00,-0.000000000000000000e+00,-1.934390068054199219e-01,-0.000000000000000000e+00,0.000000000000000000e+00,-0.000000000000000000e+00,-0.000000000000000000e+00,0.000000000000000000e+00,-0.000000000000000000e+00,7.381832599639892578e-01,0.000000000000000000e+00,0.000000000000000000e+00,-2.382044345140457153e-01,-0.000000000000000000e+00,2.391450852155685425e-01,-0.000000000000000000e+00,0.000000000000000000e+00,0.000000000000000000e+00
0.000000000000000000e+00,-0.000000000000000000e+00,-2.448989748954772949e-01,0.000000000000000000e+00,-0.000000000000000000e+00,-0.000000000000000000e+00,-0.000000000000000000e+00,0.000000000000000000e+00,-0.000000000000000000e+00,-0.000000000000000000e+00,0.000000000000000000e+00,1.922564655542373657e-01,-0.000000000000000000e+00,-0.000000000000000000e+00,-2.339979559183120728e-01,-0.000000000000000000e+00,-0.000000000000000000e+00,0.000000000000000000e+00,1.752745658159255981e-01,-2.171426713466644287e-01,-1.954959332942962646e-01,-0.000000000000000000e+00,0.000000000000000000e+00,-0.000000000000000000e+00,-0.000000000000000000e+00,0.000000000000000000e+00,-1.885241270065307617e-01,-0.000000000000000000e+00,2.090859860181808472e-01,-0.000000000000000000e+00,0.000000000000000000e+00,-0.000000000000000000e+00,0.000000000000000000e+00,0.000000000000000000e+00,0.000000000000000000e+00,-0.000000000000000000e+00,-0.000000000000000000e+00,2.329697161912918091e-01,0.000000000000000000e+00,0.000000000000000000e+00,0.000000000000000000e+00,-0.000000000000000000e+00,-0.000000000000000000e+00,-0.000000000000000000e+00,-2.328492254018783569e-01,0.000000000000000000e+00,-0.000000000000000000e+00,0.000000000000000000e+00,-0.000000000000000000e+00,2.394987493753433228e-01
0.000000000000000000e+00,-0.000000000000000000e+00,1.795594990253448486e-01,0.000000000000000000e+00,-1.927830278873443604e-01,0.000000000000000000e+00,0.000000000000000000e+00,0.000000000000000000e+00,-0.000000000000000000e+00,0.000000000000000000e+00,0.000000000000000000e+00,0.000000000000000000e+00,-0.000000000000000000e+00,0.000000000000000000e+00,-0.000000000000000000e+00,0.000000000000000000e+00,1.937955468893051147e-01,-0.000000000000000000e+00,-1.865243911743164062e-01,2.279326319694519043e-01,-0.000000000000000000e+00,-2.695095241069793701e-01,0.000000000000000000e+00,0.000000000000000000e+00,-2.279114276170730591e-01,-0.000000000000000000e+00,-0.000000000000000000e+00,2.636261284351348877e-01,0.000000000000000000e+00,0.000000000000000000e+00,0.000000000000000000e+00,-0.000000000000000000e+00,0.000000000000000000e+00,-1.680863499641418457e-01,-0.000000000000000000e+00,-0.000000000000000000e+00,-0.000000000000000000e+00,-2.349478453397750854e-01,0.000000000000000000e+00,-7.142813205718994141e-01,-0.000000000000000000e+00,-0.000000000000000000e+00,-2.466384768486022949e-01,0.000000000000000000e+00,-0.000000000000000000e+00,1.858385056257247925e-01,0.000000000000000000e+00,0.000000000000000000e+00,0.000000000000000000e+00,1.927556991577148438e-01
0.000000000000000000e+00,-0.000000000000000000e+00,-0.000000000000000000e+00,0.000000000000000000e+00,0.000000000000000000e+00,0.000000000000000000e+00,-2.103242725133895874e-01,0.000000000000000000e+00,0.000000000000000000e+00,0.000000000000000000e+00,-0.000000000000000000e+00,0.000000000000000000e+00,-0.000000000000000000e+00,-0.000000000000000000e+00,0.000000000000000000e+00,0.000000000000000000e+00,-0.000000000000000000e+00,1.726221591234207153e-01,0.000000000000000000e+00,2.226344347000122070e-01,-0.000000000000000000e+00,2.088724523782730103e-01,0.000000000000000000e+00,-6.017392277717590332e-01,0.000000000000000000e+00,0.000000000000000000e+00,-9.279724955558776855e-01,-0.000000000000000000e+00,-0.000000000000000000e+00,0.000000000000000000e+00,-0.000000000000000000e+00,0.000000000000000000e+00,-7.153165936470031738e-01,-0.000000000000000000e+00,0.000000000000000000e+00,0.000000000000000000e+00,-0.000000000000000000e+00,0.000000000000000000e+00,-0.000000000000000000e+00,0.000000000000000000e+00,-0.000000000000000000e+00,-0.000000000000000000e+00,1.653559356927871704e-01,0.000000000000000000e+00,0.000000000000000000e+00,0.000000000000000000e+00,-0.000000000000000000e+00,0.000000000000000000e+00,-0.000000000000000000e+00,-2.509466409683227539e-01
0.000000000000000000e+00,0.000000000000000000e+00,2.134291529655456543e-01,0.000000000000000000e+00,0.000000000000000000e+00,-2.588369548320770264e-01,-2.273547798395156860e-01,0.000000000000000000e+00,-1.904448419809341431e-01,-1.766428947448730469e-01,0.000000000000000000e+00,-2.425106167793273926e-01,0.000000000000000000e+00,0.000000000000000000e+00,-0.000000000000000000e+00,0.000000000000000000e+00,0.000000000000000000e+00,1.900831907987594604e-01,1.965841501951217651e-01,-0.000000000000000000e+00,-0.000000000000000000e+00,-0.000000000000000000e+00,-0.000000000000000000e+00,-0.000000000000000000e+00,0.000000000000000000e+00,0.000000000000000000e+00,-0.000000000000000000e+00,1.863209158182144165e-01,-2.112740874290466309e-01,0.000000000000000000e+00,0.000000000000000000e+00,-0.000000000000000000e+00,-0.000000000000000000e+00,-2.125002592802047729e-01,0.000000000000000000e+00,0.000000000000000000e+00,-1.737872809171676636e-01,-2.433622330427169800e-01,-0.000000000000000000e+00,-0.000000000000000000e+00,0.000000000000000000e+00,-0.000000000000000000e+00,-0.000000000000000000e+00,1.804378032684326172e-01,0.000000000000000000e+00,-0.000000000000000000e+00,-0.000000000000000000e+00,0.000000000000000000e+00,0.000000000000000000e+00,-1.877386569976806641e-01
-0.000000000000000000e+00,1.846592873334884644e-01,-0.000000000000000000e+00,2.447950392961502075e-01,2.048460096120834351e-01,-0.000000000000000000e+00,2.009624987840652466e-01,0.000000000000000000e+00,-0.000000000000000000e+00,0.000000000000000000e+00,-0.000000000000000000e+00,-0.000000000000000000e+00,-0.000000000000000000e+00,-2.381518632173538208e-01,0.000000000000000000e+00,0.000000000000000000e+00,2.026831954717636108e-01,2.420386523008346558e-01,-1.719137430191040039e-01,-2.399239093065261841e-01,-0.000000000000000000e+00,-1.669363975524902344e-01,2.380202263593673706e-01,-2.269915491342544556e-01,-0.000000000000000000e+00,0.000000000000000000e+00,-0.000000000000000000e+00,0.000000000000000000e+00,-0.000000000000000000e+00,-0.000000000000000000e+00,-0.000000000000000000e+00,-0.000000000000000000e+00,0.000000000000000000e+00,-0.000000000000000000e+00,2.277999371290206909e-01,1.857805103063583374e-01,-0.000000000000000000e+00,0.000000000000000000e+00,-0.000000000000000000e+00,2.018003612756729126e-01,-0.000000000000000000e+00,0.000000000000000000e+00,-0.000000000000000000e+00,-2.005032300949096680e-01,-0.000000000000000000e+00,-0.000000000000000000e+00,2.118286937475204468e-01,0.000000000000000000e+00,0.000000000000000000e+00,0.000000000000000000e+00
-2.385699003934860229e-01,5.005974173545837402e-01,0.000000000000000000e+00,-0.000000000000000000e+00,2.175861746072769165e-01,-0.000000000000000000e+00,-0.000000000000000000e+00,6.358399987220764160e-01,0.000000000000000000e+00,-2.304119467735290527e-01,-5.530284643173217773e-01,-0.000000000000000000e+00,1.969781368970870972e-01,0.000000000000000000e+00,-0.000000000000000000e+00,-6.068355441093444824e-01,-0.000000000000000000e+00,-0.000000000000000000e+00,-2.437599152326583862e-01,-0.000000000000000000e+00,-2.206054031848907471e-01,-0.000000000000000000e+00,0.000000000000000000e+00,0.000000000000000000e+00,1.834711283445358276e-01,0.000000000000000000e+00,0.000000000000000000e+00,-2.262418121099472046e-01,0.000000000000000000e+00,-0.000000000000000000e+00,1.897540539503097534e-01,-0.000000000000000000e+00,-0.000000000000000000e+00,-1.664659678936004639e-01,-2.276274710893630981e-01,-0.000000000000000000e+00,0.000000000000000000e+00,0.000000000000000000e+00,-0.000000000000000000e+00,-0.000000000000000000e+00,-0.000000000000000000e+00,-5.677378177642822266e-01,0.000000000000000000e+00,0.000000000000000000e+00,2.031954973936080933e-01,0.000000000000000000e+00,2.122443467378616333e-01,-0.000000000000000000e+00,-0.000000000000000000e+00,0.000000000000000000e+00
-0.000000000000000000e+00,-2.264050841331481934e-01,0.000000000000000000e+00,-0.000000000000000000e+00,-0.000000000000000000e+00,-0.000000000000000000e+00,0.000000000000000000e+00,-0.000000000000000000e+00,0.000000000000000000e+00,0.000000000000000000e+00,-0.000000000000000000e+00,0.000000000000000000e+00,-0.000000000000000000e+00,0.000000000000000000e+00,0.000000000000000000e+00,0.000000000000000000e+00,-1.729999184608459473e-01,0.000000000000000000e+00,-0.000000000000000000e+00,0.000000000000000000e+00,0.000000000000000000e+00,2.247727364301681519e-01,0.000000000000000000e+00,-1.829936057329177856e-01,2.240176349878311157e-01,-2.188167273998260498e-01,0.000000000000000000e+00,0.000000000000000000e+00,-0.000000000000000000e+00,0.000000000000000000e+00,-0.000000000000000000e+00,-0.000000000000000000e+00,0.000000000000000000e+00,0.000000000000000000e+00,0.000000000000000000e+00,0.000000000000000000e+00,0.000000000000000000e+00,0.000000000000000000e+00,1.906913965940475464e-01,0.000000000000000000e+00,-0.000000000000000000e+00,0.000000000000000000e+00,0.000000000000000000e+00,2.396235615015029907e-01,0.000000000000000000e+00,0.000000000000000000e+00,1.744741350412368774e-01,0.000000000000000000e+00,2.106724530458450317e-01,0.000000000000000000e+00
2.021577060222625732e-01,0.000000000000000000e+00,1.805628091096878052e-01,-0.000000000000000000e+00,2.686412632465362549e-01,1.885032206773757935e-01,-0.000000000000000000e+00,3.116935789585113525e-01,0.000000000000000000e+00,0.000000000000000000e+00,-1.793193370103836060e-01,-0.000000000000000000e+00,-2.489736825227737427e-01,0.000000000000000000e+00,0.000000000000000000e+00,0.000000000000000000e+00,0.000000000000000000e+00,-0.000000000000000000e+00,-2.351810783147811890e-01,2.640556097030639648e-01,0.000000000000000000e+00,-0.000000000000000000e+00,-2.157891839742660522e-01,2.020722329616546631e-01,-0.000000000000000000e+00,0.000000000000000000e+00,0.000000000000000000e+00,0.000000000000000000e+00,-2.271262407302856445e-01,-0.000000000000000000e+00,-0.000000000000000000e+00,0.000000000000000000e+00,-0.000000000000000000e+00,-2.432836741209030151e-01,0.000000000000000000e+00,-0.000000000000000000e+00,0.000000000000000000e+00,-2.203593105077743530e-01,0.000000000000000000e+00,-0.000000000000000000e+00,-1.679276227951049805e-01,0.000000000000000000e+00,-0.000000000000000000e+00,0.000000000000000000e+00,-0.000000000000000000e+00,1.728657335042953491e-01,-0.000000000000000000e+00,1.826558262109756470e-01,2.447171509265899658e-01,2.423758059740066528e-01
-0.000000000000000000e+00,-0.000000000000000000e+00,0.000000000000000000e+00,0.000000000000000000e+00,2.226584404706954956e-01,0.000000000000000000e+00,0.000000000000000000e+00,-0.000000000000000000e+00,-0.000000000000000000e+00,0.000000000000000000e+00,-0.000000000000000000e+00,-0.000000000000000000e+00,-0.000000000000000000e+00,-0.000000000000000000e+00,-3.765422105789184570e-01,-0.000000000000000000e+00,1.675461828708648682e-01,0.000000000000000000e+00,-0.000000000000000000e+00,-2.392013818025588989e-01,-0.000000000000000000e+00,2.306875139474868774e-01,0.000000000000000000e+00,-0.000000000000000000e+00,1.766329407691955566e-01,0.000000000000000000e+00,-0.000000000000000000e+00,-2.193076759576797485e-01,0.000000000000000000e+00,0.000000000000000000e+00,-0.000000000000000000e+00,0.000000000000000000e+00,-0.000000000000000000e+00,-0.000000000000000000e+00,0.000000000000000000e+00,-0.000000000000000000e+00,1.441392183303833008e+00,-0.000000000000000000e+00,-0.000000000000000000e+00,-0.000000000000000000e+00,0.000000000000000000e+00,-0.000000000000000000e+00,1.901634782552719116e-01,8.854046463966369629e-01,2.549962401390075684e-01,-0.000000000000000000e+00,-0.000000000000000000e+00,-1.670566052198410034e-01,1.818656027317047119e-01,2.046126276254653931e-01
1.758794486522674561e-01,0.000000000000000000e+00,-0.000000000000000000e+00,-0.000000000000000000e+00,0.000000000000000000e+00,-0.000000000000000000e+00,-0.000000000000000000e+00,0.000000000000000000e+00,-0.000000000000000000e+00,0.000000000000000000e+00,0.000000000000000000e+00,-2.048900276422500610e-01,0.000000000000000000e+00,0.000000000000000000e+00,1.419607251882553101e-01,8.040500283241271973e-01,-0.000000000000000000e+00,-2.663297355175018311e-01,-0.000000000000000000e+00,-0.000000000000000000e+00,0.000000000000000000e+00,-0.000000000000000000e+00,8.096591234207153320e-01,-0.000000000000000000e+00,0.000000000000000000e+00,0.000000000000000000e+00,0.000000000000000000e+00,-1.906889677047729492e-01,0.000000000000000000e+00,-0.000000000000000000e+00,0.000000000000000000e+00,-0.000000000000000000e+00,-0.000000000000000000e+00,-0.000000000000000000e+00,-0.000000000000000000e+00,-0.000000000000000000e+00,0.000000000000000000e+00,0.000000000000000000e+00,0.000000000000000000e+00,-0.000000000000000000e+00,-0.000000000000000000e+00,0.000000000000000000e+00,-2.222490608692169189e-01,0.000000000000000000e+00,-0.000000000000000000e+00,-0.000000000000000000e+00,-1.896505802869796753e-01,-0.000000000000000000e+00,0.000000000000000000e+00,1.773669570684432983e-01
-1.837693303823471069e-01,0.000000000000000000e+00,0.000000000000000000e+00,-0.000000000000000000e+00,-0.000000000000000000e+00,-0.000000000000000000e+00,2.116996198892593384e-01,3.721634149551391602e-01,0.000000000000000000e+00,-0.000000000000000000e+00,-0.000000000000000000e+00,0.000000000000000000e+00,0.000000000000000000e+00,0.000000000000000000e+00,-1.830799430608749390e-01,0.000000000000000000e+00,-1.849811226129531860e-01,-0.000000000000000000e+00,1.992978751659393311e-01,2.404279857873916626e-01,2.286361604928970337e-01,-1.845454424619674683e-01,0.000000000000000000e+00,0.000000000000000000e+00,2.576454281806945801e-01,0.000000000000000000e+00,3.343545496463775635e-01,1.985439658164978027e-01,-0.000000000000000000e+00,-0.000000000000000000e+00,-0.000000000000000000e+00,0.000000000000000000e+00,-0.000000000000000000e+00,-0.000000000000000000e+00,-2.013299465179443359e-01,0.000000000000000000e+00,-0.000000000000000000e+00,0.000000000000000000e+00,-0.000000000000000000e+00,4.364413321018218994e-01,-0.000000000000000000e+00,0.000000000000000000e+00,-0.000000000000000000e+00,3.430573046207427979e-01,0.000000000000000000e+00,-0.000000000000000000e+00,0.000000000000000000e+00,-0.000000000000000000e+00,0.000000000000000000e+00,-0.000000000000000000e+00
2.016382366418838501e-01,0.000000000000000000e+00,-0.000000000000000000e+00,0.000000000000000000e+00,0.000000000000000000e+00,0.000000000000000000e+00,-2.582489848136901855e-01,-0.000000000000000000e+00,-0.000000000000000000e+00,0.000000000000000000e+00,0.000000000000000000e+00,-0.000000000000000000e+00,0.000000000000000000e+00,-2.571764588356018066e-01,0.000000000000000000e+00,0.000000000000000000e+00,-0.000000000000000000e+00,0.000000000000000000e+00,0.000000000000000000e+00,1.803565770387649536e-01,-0.000000000000000000e+00,-0.000000000000000000e+00,0.000000000000000000e+00,-0.000000000000000000e+00,-0.000000000000000000e+00,0.000000000000000000e+00,-0.000000000000000000e+00,2.494712322950363159e-01,-1.884004771709442139e-01,-0.000000000000000000e+00,1.868109256029129028e-01,0.000000000000000000e+00,7.441613197326660156e+00,-1.672181189060211182e-01,2.355893105268478394e-01,0.000000000000000000e+00,6.452241420745849609e+00,0.000000000000000000e+00,7.343577384948730469e+00,-0.000000000000000000e+00,6.916010379791259766e+00,0.000000000000000000e+00,0.000000000000000000e+00,-0.000000000000000000e+00,0.000000000000000000e+00,0.000000000000000000e+00,0.000000000000000000e+00,0.000000000000000000e+00,-1.782972663640975952e-01,-1.975339651107788086e-01
