-2.587029039859771729e-01,-0.000000000000000000e+00,-1.776238977909088135e-01,-0.000000000000000000e+00,-0.000000000000000000e+00,-0.000000000000000000e+00,-0.000000000000000000e+00,-0.000000000000000000e+00,0.000000000000000000e+00,4.853032827377319336e-01,0.000000000000000000e+00,0.000000000000000000e+00,-0.000000000000000000e+00,-1.198785845190286636e-03,-0.000000000000000000e+00,0.000000000000000000e+00,-0.000000000000000000e+00,-2.743183635175228119e-02,0.000000000000000000e+00,0.000000000000000000e+00,-0.000000000000000000e+00,-0.000000000000000000e+00,-0.000000000000000000e+00,-6.125991940498352051e-01,-0.000000000000000000e+00,0.000000000000000000e+00,-0.000000000000000000e+00,-0.000000000000000000e+00,5.457144379615783691e-01,-0.000000000000000000e+00,0.000000000000000000e+00,-0.000000000000000000e+00,0.000000000000000000e+00,-0.000000000000000000e+00,0.000000000000000000e+00,-0.000000000000000000e+00,0.000000000000000000e+00,-0.000000000000000000e+00,1.278337091207504272e-01,0.000000000000000000e+00,-4.617637954652309418e-03,-0.000000000000000000e+00,-0.000000000000000000e+00,0.000000000000000000e+00,-0.000000000000000000e+00,0.000000000000000000e+00,0.000000000000000000e+00,-0.000000000000000000e+00,0.000000000000000000e+00,-5.056228041648864746e-01
0.000000000000000000e+00,5.495183467864990234e-01,-1.944081038236618042e-01,-0.000000000000000000e+00,0.000000000000000000e+00,-0.000000000000000000e+00,-2.782550454139709473e-01,0.000000000000000000e+00,0.000000000000000000e+00,0.000000000000000000e+00,-0.000000000000000000e+00,-0.000000000000000000e+00,-0.000000000000000000e+00,-0.000000000000000000e+00,-0.000000000000000000e+00,-0.000000000000000000e+00,-0.000000000000000000e+00,-0.000000000000000000e+00,-0.000000000000000000e+00,-0.000000000000000000e+00,0.000000000000000000e+00,0.000000000000000000e+00,0.000000000000000000e+00,-0.000000000000000000e+00,-0.000000000000000000e+00,4.823465645313262939e-01,-0.000000000000000000e+00,-0.000000000000000000e+00,4.031019806861877441e-01,2.196917682886123657e-01,0.000000000000000000e+00,-0.000000000000000000e+00,0.000000000000000000e+00,3.558932244777679443e-01,-0.000000000000000000e+00,0.000000000000000000e+00,0.000000000000000000e+00,-3.466910123825073242e-01,-0.000000000000000000e+00,-0.000000000000000000e+00,0.000000000000000000e+00,0.000000000000000000e+00,-0.000000000000000000e+00,-0.000000000000000000e+00,-1.762785762548446655e-01,-0.000000000000000000e+00,-0.000000000000000000e+00,-0.000000000000000000e+00,0.000000000000000000e+00,0.000000000000000000e+00
-0.000000000000000000e+00,-0.000000000000000000e+00,-0.000000000000000000e+00,-0.000000000000000000e+00,-0.000000000000000000e+00,-6.140431761741638184e-01,0.000000000000000000e+00,0.000000000000000000e+00,-9.930544495582580566e-01,-0.000000000000000000e+00,-0.000000000000000000e+00,0.000000000000000000e+00,0.000000000000000000e+00,-0.000000000000000000e+00,0.000000000000000000e+00,0.000000000000000000e+00,-2.451769411563873291e-01,0.000000000000000000e+00,0.000000000000000000e+00,-0.000000000000000000e+00,1.595554351806640625e-01,-1.162983775138854980e-01,-0.000000000000000000e+00,0.000000000000000000e+00,0.000000000000000000e+00,-0.000000000000000000e+00,-0.000000000000000000e+00,0.000000000000000000e+00,-0.000000000000000000e+00,2.053971737623214722e-01,5.890688896179199219e-01,-0.000000000000000000e+00,-0.000000000000000000e+00,-0.000000000000000000e+00,-0.000000000000000000e+00,-0.000000000000000000e+00,-0.000000000000000000e+00,-0.000000000000000000e+00,-0.000000000000000000e+00,0.000000000000000000e+00,-4.061347842216491699e-01,-1.744438260793685913e-01,4.326515197753906250e-01,0.000000000000000000e+00,-0.000000000000000000e+00,1.742039769887924194e-01,-0.000000000000000000e+00,-0.000000000000000000e+00,4.778405427932739258e-01,0.000000000000000000e+00
-0.000000000000000000e+00,-0.000000000000000000e+00,1.524510532617568970e-01,-1.684114634990692139e-01,2.139110416173934937e-01,-0.000000000000000000e+00,2.004230320453643799e-01,0.000000000000000000e+00,-0.000000000000000000e+00,-2.580882608890533447e-01,-1.827464252710342407e-01,-0.000000000000000000e+00,-0.000000000000000000e+00,0.000000000000000000e+00,1.544337421655654907e-01,1.992639005184173584e-01,0.000000000000000000e+00,-0.000000000000000000e+00,1.991185545921325684e-01,2.042336165904998779e-01,0.000000000000000000e+00,-1.605617105960845947e-01,0.000000000000000000e+00,0.000000000000000000e+00,-2.073920220136642456e-01,-0.000000000000000000e+00,0.000000000000000000e+00,-0.000000000000000000e+00,0.000000000000000000e+00,0.000000000000000000e+00,0.000000000000000000e+00,0.000000000000000000e+00,-2.000898569822311401e-01,0.000000000000000000e+00,-0.000000000000000000e+00,-1.656760573387145996e-01,-0.000000000000000000e+00,-2.349488437175750732e-01,-2.131135165691375732e-01,0.000000000000000000e+00,-0.000000000000000000e+00,-0.000000000000000000e+00,1.869856715202331543e-01,-1.567213982343673706e-01,1.910248994827270508e-01,0.000000000000000000e+00,-0.000000000000000000e+00,-0.000000000000000000e+00,-0.000000000000000000e+00,0.000000000000000000e+00
-0.000000000000000000e+00,1.725017875432968140e-01,0.000000000000000000e+00,0.000000000000000000e+00,0.000000000000000000e+00,2.528719305992126465e-01,0.000000000000000000e+00,-0.000000000000000000e+00,-0.000000000000000000e+00,0.000000000000000000e+00,0.000000000000000000e+00,-0.000000000000000000e+00,0.000000000000000000e+00,2.397076785564422607e-01,1.915307193994522095e-01,-0.000000000000000000e+00,-1.844815760850906372e-01,-0.000000000000000000e+00,-0.000000000000000000e+00,-0.000000000000000000e+00,2.051603794097900391e-01,0.000000000000000000e+00,-0.000000000000000000e+00,-1.628013551235198975e-01,1.749273687601089478e-01,0.000000000000000000e+00,-0.000000000000000000e+00,-0.000000000000000000e+00,-0.000000000000000000e+00,0.000000000000000000e+00,0.000000000000000000e+00,-1.787844598293304443e-01,0.000000000000000000e+00,-1.774178445339202881e-01,0.000000000000000000e+00,-0.000000000000000000e+00,-0.000000000000000000e+00,-2.640437483787536621e-01,2.013820409774780273e-01,-1.548042595386505127e-01,-2.035165131092071533e-01,-2.320656627416610718e-01,2.673965990543365479e-01,1.623517572879791260e-01,0.000000000000000000e+00,-2.352116703987121582e-01,0.000000000000000000e+00,-1.709281355142593384e-01,2.163449674844741821e-01,-0.000000000000000000e+00
2.126940339803695679e-01,-2.037310749292373657e-01,0.000000000000000000e+00,-2.150875627994537354e-01,-2.445675879716873169e-01,0.000000000000000000e+00,0.000000000000000000e+00,0.000000000000000000e+00,-0.000000000000000000e+00,0.000000000000000000e+00,0.000000000000000000e+00,-0.000000000000000000e+00,-0.000000000000000000e+00,-0.000000000000000000e+00,-1.946561336517333984e-01,0.000000000000000000e+00,-1.651554554700851440e-01,1.592042446136474609e-01,-0.000000000000000000e+00,0.000000000000000000e+00,-1.697936207056045532e-01,-0.000000000000000000e+00,-0.000000000000000000e+00,0.000000000000000000e+00,-0.000000000000000000e+00,-2.299802750349044800e-01,-0.000000000000000000e+00,0.000000000000000000e+00,-0.000000000000000000e+00,-1.856509596109390259e-01,-0.000000000000000000e+00,-1.811254471540451050e-01,-1.837906241416931152e-01,1.536166965961456299e-01,-0.000000000000000000e+00,-2.357284277677536011e-01,-0.000000000000000000e+00,-2.225167155265808105e-01,0.000000000000000000e+00,2.361825853586196899e-01,0.000000000000000000e+00,0.000000000000000000e+00,-0.000000000000000000e+00,0.000000000000000000e+00,1.496980488300323486e-01,-2.392795830965042114e-01,1.982569396495819092e-01,-0.000000000000000000e+00,2.452150881290435791e-01,2.238764166831970215e-01
-0.000000000000000000e+00,2.691306769847869873e-01,-0.000000000000000000e+00,-0.000000000000000000e+00,-0.000000000000000000e+00,-0.000000000000000000e+00,-0.000000000000000000e+00,-0.000000000000000000e+00,-0.000000000000000000e+00,0.000000000000000000e+00,0.000000000000000000e+00,-0.000000000000000000e+00,0.000000000000000000e+00,0.000000000000000000e+00,-0.000000000000000000e+00,-0.000000000000000000e+00,-0.000000000000000000e+00,2.466984242200851440e-01,0.000000000000000000e+00,-2.094696760177612305e-01,-0.000000000000000000e+00,-0.000000000000000000e+00,3.205328583717346191e-01,0.000000000000000000e+00,0.000000000000000000e+00,0.000000000000000000e+00,0.000000000000000000e+00,-0.000000000000000000e+00,1.745866537094116211e-01,-2.619869410991668701e-01,-0.000000000000000000e+00,0.000000000000000000e+00,2.886577248573303223e-01,0.000000000000000000e+00,-0.000000000000000000e+00,0.000000000000000000e+00,-0.000000000000000000e+00,-0.000000000000000000e+00,-0.000000000000000000e+00,0.000000000000000000e+00,-0.000000000000000000e+00,-0.000000000000000000e+00,-0.000000000000000000e+00,-0.000000000000000000e+00,-0.000000000000000000e+00,-2.174014449119567871e-01,-2.458567023277282715e-01,3.223502635955810547e-01,-0.000000000000000000e+00,-0.000000000000000000e+00
-0.000000000000000000e+00,0.000000000000000000e+00,-1.895820200443267822e-01,2.015980482101440430e-01,-1.974197626113891602e-01,0.000000000000000000e+00,-0.000000000000000000e+00,1.761940866708755493e-01,-0.000000000000000000e+00,0.000000000000000000e+00,-0.000000000000000000e+00,-0.000000000000000000e+00,2.307017743587493896e-01,0.000000000000000000e+00,-0.000000000000000000e+00,0.000000000000000000e+00,0.000000000000000000e+00,2.009779661893844604e-01,-0.000000000000000000e+00,-0.000000000000000000e+00,-0.000000000000000000e+00,2.069970667362213135e-01,-1.664510667324066162e-01,-2.276469767093658447e-01,-1.580258309841156006e-01,-0.000000000000000000e+00,-0.000000000000000000e+00,2.276353091001510620e-01,2.076633125543594360e-01,-1.847091019153594971e-01,-2.516090869903564453e-01,-0.000000000000000000e+00,-0.000000000000000000e+00,-1.674656569957733154e-01,0.000000000000000000e+00,0.000000000000000000e+00,-0.000000000000000000e+00,-2.350938320159912109e-01,0.000000000000000000e+00,-1.532874703407287598e-01,-2.019459456205368042e-01,0.000000000000000000e+00,0.000000000000000000e+00,-0.000000000000000000e+00,-0.000000000000000000e+00,0.000000000000000000e+00,-0.000000000000000000e+00,2.125841230154037476e-01,0.000000000000000000e+00,-0.000000000000000000e+00
-0.000000000000000000e+00,1.724346578121185303e-01,-0.000000000000000000e+00,0.000000000000000000e+00,-2.343532741069793701e-01,1.837427914142608643e-01,2.352709323167800903e-01,0.000000000000000000e+00,1.985265463590621948e-01,-0.000000000000000000e+00,1.929259002208709717e-01,-0.000000000000000000e+00,0.000000000000000000e+00,0.000000000000000000e+00,0.000000000000000000e+00,0.000000000000000000e+00,-0.000000000000000000e+00,1.629783660173416138e-01,2.590645551681518555e-01,0.000000000000000000e+00,0.000000000000000000e+00,0.000000000000000000e+00,-0.000000000000000000e+00,-0.000000000000000000e+00,0.000000000000000000e+00,1.522478908300399780e-01,-0.000000000000000000e+00,-0.000000000000000000e+00,-2.115900069475173950e-01,1.539810150861740112e-01,-1.632966250181198120e-01,0.000000000000000000e+00,2.033672332763671875e-01,2.092774957418441772e-01,-2.017603665590286255e-01,-1.518653631210327148e-01,-0.000000000000000000e+00,1.823169440031051636e-01,0.000000000000000000e+00,-1.902798116207122803e-01,-2.590786218643188477e-01,-0.000000000000000000e+00,0.000000000000000000e+00,1.828420311212539673e-01,-0.000000000000000000e+00,1.630709618330001831e-01,-0.000000000000000000e+00,-2.143107801675796509e-01,-0.000000000000000000e+00,-0.000000000000000000e+00
-2.320170253515243530e-01,0.000000000000000000e+00,-1.638813018798828125e-01,0.000000000000000000e+00,5.449110642075538635e-02,0.000000000000000000e+00,-0.000000000000000000e+00,-0.000000000000000000e+00,-0.000000000000000000e+00,5.524138808250427246e-01,0.000000000000000000e+00,-0.000000000000000000e+00,-0.000000000000000000e+00,-5.322340726852416992e-01,0.000000000000000000e+00,0.000000000000000000e+00,-0.000000000000000000e+00,-0.000000000000000000e+00,5.254300236701965332e-01,-0.000000000000000000e+00,-0.000000000000000000e+00,-0.000000000000000000e+00,0.000000000000000000e+00,1.703501492738723755e-02,0.000000000000000000e+00,0.000000000000000000e+00,0.000000000000000000e+00,-0.000000000000000000e+00,0.000000000000000000e+00,1.882741153240203857e-01,4.957025945186614990e-01,4.096571505069732666e-01,-0.000000000000000000e+00,3.444653376936912537e-02,4.613001346588134766e-01,-0.000000000000000000e+00,-2.523986995220184326e-01,-0.000000000000000000e+00,0.000000000000000000e+00,5.650017857551574707e-01,0.000000000000000000e+00,0.000000000000000000e+00,-0.000000000000000000e+00,0.000000000000000000e+00,0.000000000000000000e+00,0.000000000000000000e+00,2.082373797893524170e-01,0.000000000000000000e+00,-0.000000000000000000e+00,0.000000000000000000e+00
-2.918636202812194824e-01,5.042175203561782837e-02,-0.000000000000000000e+00,0.000000000000000000e+00,0.000000000000000000e+00,-0.000000000000000000e+00,-1.216063052415847778e-01,0.000000000000000000e+00,-0.000000000000000000e+00,0.000000000000000000e+00,-5.809149146080017090e-01,1.678313761949539185e-01,0.000000000000000000e+00,-0.000000000000000000e+00,0.000000000000000000e+00,4.003705978393554688e-01,0.000000000000000000e+00,-0.000000000000000000e+00,4.760826826095581055e-01,1.520501524209976196e-01,-2.657152712345123291e-01,-5.748015642166137695e-01,-4.406778812408447266e-01,-1.958905309438705444e-01,-0.000000000000000000e+00,0.000000000000000000e+00,1.581026464700698853e-01,-0.000000000000000000e+00,-0.000000000000000000e+00,0.000000000000000000e+00,-0.000000000000000000e+00,0.000000000000000000e+00,0.000000000000000000e+00,0.000000000000000000e+00,0.000000000000000000e+00,-0.000000000000000000e+00,-0.000000000000000000e+00,-0.000000000000000000e+00,-3.176744580268859863e-01,0.000000000000000000e+00,0.000000000000000000e+00,-0.000000000000000000e+00,-0.000000000000000000e+00,-0.000000000000000000e+00,0.000000000000000000e+00,-0.000000000000000000e+00,-1.634885072708129883e-01,0.000000000000000000e+00,-0.000000000000000000e+00,0.000000000000000000e+00
-2.513293623924255371e-01,-2.398629039525985718e-01,-0.000000000000000000e+00,0.000000000000000000e+00,-1.584650576114654541e-01,0.000000000000000000e+00,0.000000000000000000e+00,-0.000000000000000000e+00,-0.000000000000000000e+00,-0.000000000000000000e+00,-0.000000000000000000e+00,-0.000000000000000000e+00,-0.000000000000000000e+00,-0.000000000000000000e+00,-0.000000000000000000e+00,0.000000000000000000e+00,0.000000000000000000e+00,-0.000000000000000000e+00,0.000000000000000000e+00,1.833438277244567871e-01,-0.000000000000000000e+00,-0.000000000000000000e+00,0.000000000000000000e+00,-0.000000000000000000e+00,0.000000000000000000e+00,-1.622036248445510864e-01,1.922242790460586548e-01,0.000000000000000000e+00,0.000000000000000000e+00,2.027967870235443115e-01,0.000000000000000000e+00,0.000000000000000000e+00,1.853663474321365356e-01,0.000000000000000000e+00,-0.000000000000000000e+00,-0.000000000000000000e+00,0.000000000000000000e+00,-1.790562570095062256e-01,0.000000000000000000e+00,-2.110229432582855225e-01,-0.000000000000000000e+00,-0.000000000000000000e+00,1.816229075193405151e-01,0.000000000000000000e+00,-0.000000000000000000e+00,-2.381772696971893311e-01,-0.000000000000000000e+00,-0.000000000000000000e+00,0.000000000000000000e+00,-0.000000000000000000e+00
-0.000000000000000000e+00,-0.000000000000000000e+00,-0.000000000000000000e+00,2.731941640377044678e-01,0.000000000000000000e+00,0.000000000000000000e+00,2.140818983316421509e-01,-0.000000000000000000e+00,2.358231395483016968e-01,-0.000000000000000000e+00,-1.525680720806121826e-01,-2.287750393152236938e-01,-0.000000000000000000e+00,0.000000000000000000e+00,-0.000000000000000000e+00,-1.708974093198776245e-01,-0.000000000000000000e+00,0.000000000000000000e+00,2.210534363985061646e-01,-0.000000000000000000e+00,-2.011229246854782104e-01,0.000000000000000000e+00,0.000000000000000000e+00,0.000000000000000000e+00,-1.893054842948913574e-01,0.000000000000000000e+00,-0.000000000000000000e+00,-0.000000000000000000e+00,-1.947513967752456665e-01,-1.532049179077148438e-01,-0.000000000000000000e+00,-1.903433948755264282e-01,-0.000000000000000000e+00,1.997407525777816772e-01,0.000000000000000000e+00,1.727814078330993652e-01,-0.000000000000000000e+00,2.387381941080093384e-01,0.000000000000000000e+00,-0.000000000000000000e+00,0.000000000000000000e+00,0.000000000000000000e+00,0.000000000000000000e+00,-0.000000000000000000e+00,-0.000000000000000000e+00,0.000000000000000000e+00,-0.000000000000000000e+00,0.000000000000000000e+00,-0.000000000000000000e+00,-1.579779237508773804e-01
0.000000000000000000e+00,0.000000000000000000e+00,0.000000000000000000e+00,-7.832244038581848145e-02,0.000000000000000000e+00,0.000000000000000000e+00,0.000000000000000000e+00,0.000000000000000000e+00,0.000000000000000000e+00,4.566662609577178955e-01,0.000000000000000000e+00,-0.000000000000000000e+00,-4.421689212322235107e-01,0.000000000000000000e+00,0.000000000000000000e+00,-0.000000000000000000e+00,-0.000000000000000000e+00,-0.000000000000000000e+00,-0.000000000000000000e+00,1.895078271627426147e-01,-2.347017675638198853e-01,0.000000000000000000e+00,2.134848944842815399e-02,-3.602553009986877441e-01,-3.689292371273040771e-01,0.000000000000000000e+00,-0.000000000000000000e+00,-0.000000000000000000e+00,0.000000000000000000e+00,0.000000000000000000e+00,-0.000000000000000000e+00,-0.000000000000000000e+00,0.000000000000000000e+00,-0.000000000000000000e+00,4.443290829658508301e-01,0.000000000000000000e+00,-2.314416319131851196e-01,-0.000000000000000000e+00,-0.000000000000000000e+00,-0.000000000000000000e+00,-2.454646825790405273e-01,-0.000000000000000000e+00,4.186505973339080811e-01,5.023179948329925537e-02,0.000000000000000000e+00,0.000000000000000000e+00,-0.000000000000000000e+00,-0.000000000000000000e+00,0.000000000000000000e+00,0.000000000000000000e+00
-0.000000000000000000e+00,-4.791472554206848145e-01,-0.000000000000000000e+00,0.000000000000000000e+00,-0.000000000000000000e+00,-0.000000000000000000e+00,0.000000000000000000e+00,-0.000000000000000000e+00,0.000000000000000000e+00,4.533904492855072021e-01,-2.622951567173004150e-02,-2.152489870786666870e-01,-0.000000000000000000e+00,9.436787106096744537e-03,-1.074415296316146851e-01,0.000000000000000000e+00,0.000000000000000000e+00,-0.000000000000000000e+00,0.000000000000000000e+00,0.000000000000000000e+00,0.000000000000000000e+00,-5.129008889198303223e-01,0.000000000000000000e+00,0.000000000000000000e+00,4.574268460273742676e-01,0.000000000000000000e+00,0.000000000000000000e+00,1.953127831220626831e-01,0.000000000000000000e+00,-0.000000000000000000e+00,-0.000000000000000000e+00,-0.000000000000000000e+00,0.000000000000000000e+00,-0.000000000000000000e+00,-0.000000000000000000e+00,-2.576501071453094482e-01,-0.000000000000000000e+00,3.012772798538208008e-01,1.842295974493026733e-01,-1.989454263821244240e-03,0.000000000000000000e+00,-0.000000000000000000e+00,-0.000000000000000000e+00,-0.000000000000000000e+00,-0.000000000000000000e+00,0.000000000000000000e+00,1.811690330505371094e-01,-6.104961037635803223e-01,-0.000000000000000000e+00,-0.000000000000000000e+00
1.508051753044128418e-01,-0.000000000000000000e+00,0.000000000000000000e+00,0.000000000000000000e+00,0.000000000000000000e+00,0.000000000000000000e+00,0.000000000000000000e+00,0.000000000000000000e+00,0.000000000000000000e+00,0.000000000000000000e+00,-6.296210885047912598e-01,-0.000000000000000000e+00,-0.000000000000000000e+00,-0.000000000000000000e+00,-0.000000000000000000e+00,0.000000000000000000e+00,-1.923431456089019775e-01,0.000000000000000000e+00,0.000000000000000000e+00,-0.000000000000000000e+00,-0.000000000000000000e+00,0.000000000000000000e+00,0.000000000000000000e+00,-0.000000000000000000e+00,-4.810609817504882812e-01,-0.000000000000000000e+00,-0.000000000000000000e+00,-0.000000000000000000e+00,0.000000000000000000e+00,0.000000000000000000e+00,-0.000000000000000000e+00,5.687577128410339355e-01,-0.000000000000000000e+00,-5.337781906127929688e-01,0.000000000000000000e+00,-1.854219287633895874e-01,-0.000000000000000000e+00,-0.000000000000000000e+00,0.000000000000000000e+00,6.119548082351684570e-01,0.000000000000000000e+00,-0.000000000000000000e+00,6.145622730255126953e-01,-6.092426776885986328e-01,0.000000000000000000e+00,-0.000000000000000000e+00,0.000000000000000000e+00,2.386745214462280273e-01,-0.000000000000000000e+00,-0.000000000000000000e+00
0.000000000000000000e+00,-2.520397901535034180e-01,-2.014254927635192871e-01,0.000000000000000000e+00,-2.326894700527191162e-01,2.693986892700195312e-01,-0.000000000000000000e+00,1.582830995321273804e-01,-1.563297510147094727e-01,0.000000000000000000e+00,-2.209992706775665283e-01,-0.000000000000000000e+00,2.718943655490875244e-01,2.512155175209045410e-01,-0.000000000000000000e+00,-0.000000000000000000e+00,-0.000000000000000000e+00,1.983231157064437866e-01,-0.000000000000000000e+00,1.969959437847137451e-01,-2.402480840682983398e-01,-0.000000000000000000e+00,-0.000000000000000000e+00,-0.000000000000000000e+00,-0.000000000000000000e+00,1.820735186338424683e-01,-1.789758056402206421e-01,2.208216637372970581e-01,0.000000000000000000e+00,0.000000000000000000e+00,1.531459242105484009e-01,0.000000000000000000e+00,0.000000000000000000e+00,0.000000000000000000e+00,0.000000000000000000e+00,0.000000000000000000e+00,-1.536386460065841675e-01,0.000000000000000000e+00,-0.000000000000000000e+00,-0.000000000000000000e+00,0.000000000000000000e+00,0.000000000000000000e+00,0.000000000000000000e+00,0.000000000000000000e+00,-2.491492927074432373e-01,1.578392088413238525e-01,0.000000000000000000e+00,2.742899060249328613e-01,0.000000000000000000e+00,2.216109186410903931e-01
-0.000000000000000000e+00,0.000000000000000000e+00,-0.000000000000000000e+00,0.000000000000000000e+00,-0.000000000000000000e+00,0.000000000000000000e+00,-8.944153785705566406e-02,-0.000000000000000000e+00,-6.271984577178955078e-01,0.000000000000000000e+00,0.000000000000000000e+00,-0.000000000000000000e+00,-0.000000000000000000e+00,-0.000000000000000000e+00,-0.000000000000000000e+00,4.173762165009975433e-03,0.000000000000000000e+00,-0.000000000000000000e+00,0.000000000000000000e+00,-1.496839076280593872e-01,-0.000000000000000000e+00,0.000000000000000000e+00,-0.000000000000000000e+00,-4.990884363651275635e-01,-0.000000000000000000e+00,-2.670354247093200684e-01,0.000000000000000000e+00,-0.000000000000000000e+00,0.000000000000000000e+00,0.000000000000000000e+00,5.018556118011474609e-01,0.000000000000000000e+00,-0.000000000000000000e+00,0.000000000000000000e+00,0.000000000000000000e+00,0.000000000000000000e+00,-0.000000000000000000e+00,2.109020948410034180e-01,0.000000000000000000e+00,0.000000000000000000e+00,-3.563840985298156738e-01,-5.668688416481018066e-01,-0.000000000000000000e+00,0.000000000000000000e+00,-0.000000000000000000e+00,0.000000000000000000e+00,-2.187110632658004761e-01,-0.000000000000000000e+00,-0.000000000000000000e+00,-0.000000000000000000e+00
0.000000000000000000e+00,-0.000000000000000000e+00,-2.016243487596511841e-01,-0.000000000000000000e+00,-0.000000000000000000e+00,-0.000000000000000000e+00,-0.000000000000000000e+00,-0.000000000000000000e+00,-1.863127946853637695e-01,0.000000000000000000e+00,8.431798815727233887e-01,0.000000000000000000e+00,-0.000000000000000000e+00,-0.000000000000000000e+00,0.000000000000000000e+00,-5.721806883811950684e-01,-0.000000000000000000e+00,0.000000000000000000e+00,-6.873714923858642578e-01,-2.681751549243927002e-01,-0.000000000000000000e+00,-0.000000000000000000e+00,-0.000000000000000000e+00,-0.000000000000000000e+00,-0.000000000000000000e+00,-0.000000000000000000e+00,-0.000000000000000000e+00,-0.000000000000000000e+00,0.000000000000000000e+00,-0.000000000000000000e+00,0.000000000000000000e+00,0.000000000000000000e+00,0.000000000000000000e+00,8.217142820358276367e-01,0.000000000000000000e+00,-0.000000000000000000e+00,0.000000000000000000e+00,0.000000000000000000e+00,0.000000000000000000e+00,-0.000000000000000000e+00,-0.000000000000000000e+00,8.919286131858825684e-01,0.000000000000000000e+00,6.723409891128540039e-01,-1.516316384077072144e-01,0.000000000000000000e+00,0.000000000000000000e+00,7.315117120742797852e-01,-0.000000000000000000e+00,0.000000000000000000e+00
2.459996193647384644e-01,-0.000000000000000000e+00,-0.000000000000000000e+00,-0.000000000000000000e+00,0.000000000000000000e+00,-0.000000000000000000e+00,2.660736083984375000e+00,2.527450561523437500e+00,0.000000000000000000e+00,-2.395176887512207031e+00,2.243088006973266602e+00,-0.000000000000000000e+00,-0.000000000000000000e+00,2.879940986633300781e+00,-0.000000000000000000e+00,0.000000000000000000e+00,0.000000000000000000e+00,0.000000000000000000e+00,0.000000000000000000e+00,-0.000000000000000000e+00,0.000000000000000000e+00,2.388159751892089844e+00,-0.000000000000000000e+00,0.000000000000000000e+00,0.000000000000000000e+00,-1.735536605119705200e-01,0.000000000000000000e+00,0.000000000000000000e+00,0.000000000000000000e+00,-2.773426473140716553e-01,-0.000000000000000000e+00,0.000000000000000000e+00,2.665944337844848633e+00,0.000000000000000000e+00,-0.000000000000000000e+00,-0.000000000000000000e+00,0.000000000000000000e+00,3.347179174423217773e+00,-0.000000000000000000e+00,-0.000000000000000000e+00,-0.000000000000000000e+00,2.590543508529663086e+00,-0.000000000000000000e+00,0.000000000000000000e+00,0.000000000000000000e+00,-0.000000000000000000e+00,0.000000000000000000e+00,0.000000000000000000e+00,3.086457014083862305e+00,2.357559680938720703e+00
-0.000000000000000000e+00,-0.000000000000000000e+00,0.000000000000000000e+00,-3.281187117099761963e-01,0.000000000000000000e+00,-3.273223042488098145e-01,-0.000000000000000000e+00,-3.933517634868621826e-01,0.000000000000000000e+00,-0.000000000000000000e+00,6.393120437860488892e-02,-0.000000000000000000e+00,1.598590910434722900e-01,-0.000000000000000000e+00,-0.000000000000000000e+00,0.000000000000000000e+00,0.000000000000000000e+00,0.000000000000000000e+00,0.000000000000000000e+00,0.000000000000000000e+00,0.000000000000000000e+00,0.000000000000000000e+00,-0.000000000000000000e+00,0.000000000000000000e+00,2.121671885251998901e-01,-0.000000000000000000e+00,-0.000000000000000000e+00,-0.000000000000000000e+00,-0.000000000000000000e+00,-0.000000000000000000e+00,0.000000000000000000e+00,3.523333966732025146e-01,2.774371504783630371e-01,-0.000000000000000000e+00,0.000000000000000000e+00,-2.674629688262939453e-01,0.000000000000000000e+00,-0.000000000000000000e+00,0.000000000000000000e+00,0.000000000000000000e+00,8.144485950469970703e-02,0.000000000000000000e+00,2.152848392724990845e-01,-0.000000000000000000e+00,0.000000000000000000e+00,0.000000000000000000e+00,-2.450697422027587891e-01,-0.000000000000000000e+00,-0.000000000000000000e+00,-0.000000000000000000e+00
0.000000000000000000e+00,-0.000000000000000000e+00,0.000000000000000000e+00,0.000000000000000000e+00,0.000000000000000000e+00,0.000000000000000000e+00,0.000000000000000000e+00,-0.000000000000000000e+00,0.000000000000000000e+00,-6.677940487861633301e-02,9.937277436256408691e-02,-0.000000000000000000e+00,1.167749986052513123e-01,0.000000000000000000e+00,-4.154599010944366455e-01,-0.000000000000000000e+00,0.000000000000000000e+00,0.000000000000000000e+00,-8.035193383693695068e-02,-2.183964848518371582e-01,-1.745561361312866211e-01,-2.560855448246002197e-02,-0.000000000000000000e+00,0.000000000000000000e+00,-0.000000000000000000e+00,-0.000000000000000000e+00,0.000000000000000000e+00,0.000000000000000000e+00,-0.000000000000000000e+00,0.000000000000000000e+00,3.576369881629943848e-01,0.000000000000000000e+00,-0.000000000000000000e+00,-0.000000000000000000e+00,-0.000000000000000000e+00,-1.584221422672271729e-01,-2.078372538089752197e-01,0.000000000000000000e+00,0.000000000000000000e+00,0.000000000000000000e+00,0.000000000000000000e+00,-0.000000000000000000e+00,-0.000000000000000000e+00,-0.000000000000000000e+00,0.000000000000000000e+00,-0.000000000000000000e+00,-0.000000000000000000e+00,-4.410754442214965820e-01,8.600351214408874512e-02,0.000000000000000000e+00
0.000000000000000000e+00,0.000000000000000000e+00,-0.000000000000000000e+00,0.000000000000000000e+00,-0.000000000000000000e+00,-0.000000000000000000e+00,0.000000000000000000e+00,-0.000000000000000000e+00,2.208474129438400269e-01,-2.794333100318908691e-01,-1.275509595870971680e-01,0.000000000000000000e+00,3.827733397483825684e-01,-0.000000000000000000e+00,0.000000000000000000e+00,-0.000000000000000000e+00,-0.000000000000000000e+00,0.000000000000000000e+00,-0.000000000000000000e+00,-2.242184430360794067e-01,1.956627964973449707e-01,-0.000000000000000000e+00,-0.000000000000000000e+00,0.000000000000000000e+00,-0.000000000000000000e+00,-1.755819916725158691e-01,-1.648655235767364502e-01,-0.000000000000000000e+00,1.725382506847381592e-01,-0.000000000000000000e+00,-0.000000000000000000e+00,0.000000000000000000e+00,-0.000000000000000000e+00,0.000000000000000000e+00,9.804241359233856201e-02,-2.494588494300842285e-01,0.000000000000000000e+00,-0.000000000000000000e+00,0.000000000000000000e+00,0.000000000000000000e+00,-0.000000000000000000e+00,-0.000000000000000000e+00,0.000000000000000000e+00,3.406063914299011230e-01,-0.000000000000000000e+00,0.000000000000000000e+00,-0.000000000000000000e+00,-0.000000000000000000e+00,3.547647893428802490e-01,0.000000000000000000e+00
0.000000000000000000e+00,-0.000000000000000000e+00,-0.000000000000000000e+00,0.000000000000000000e+00,-0.000000000000000000e+00,-0.000000000000000000e+00,-7.886417210102081299e-02,0.000000000000000000e+00,0.000000000000000000e+00,-0.000000000000000000e+00,-3.334738314151763916e-01,0.000000000000000000e+00,0.000000000000000000e+00,0.000000000000000000e+00,0.000000000000000000e+00,9.864214807748794556e-04,0.000000000000000000e+00,-0.000000000000000000e+00,0.000000000000000000e+00,0.000000000000000000e+00,-2.021020352840423584e-01,0.000000000000000000e+00,0.000000000000000000e+00,-4.162295907735824585e-02,0.000000000000000000e+00,2.085644155740737915e-01,-0.000000000000000000e+00,-0.000000000000000000e+00,5.851296186447143555e-01,0.000000000000000000e+00,1.309217661619186401e-01,-0.000000000000000000e+00,-0.000000000000000000e+00,1.533888131380081177e-01,-0.000000000000000000e+00,-0.000000000000000000e+00,-0.000000000000000000e+00,0.000000000000000000e+00,0.000000000000000000e+00,-0.000000000000000000e+00,6.946524977684020996e-02,0.000000000000000000e+00,0.000000000000000000e+00,2.894518077373504639e-01,-2.339306920766830444e-01,-2.187559604644775391e-01,1.745878309011459351e-01,0.000000000000000000e+00,-0.000000000000000000e+00,-0.000000000000000000e+00
0.000000000000000000e+00,0.000000000000000000e+00,-0.000000000000000000e+00,0.000000000000000000e+00,0.000000000000000000e+00,0.000000000000000000e+00,0.000000000000000000e+00,-0.000000000000000000e+00,-0.000000000000000000e+00,0.000000000000000000e+00,-0.000000000000000000e+00,-0.000000000000000000e+00,-5.730935931205749512e-01,0.000000000000000000e+00,0.000000000000000000e+00,-0.000000000000000000e+00,-0.000000000000000000e+00,-6.023256853222846985e-02,5.438075661659240723e-01,1.828135401010513306e-01,0.000000000000000000e+00,0.000000000000000000e+00,0.000000000000000000e+00,0.000000000000000000e+00,0.000000000000000000e+00,1.893084943294525146e-01,-1.644019335508346558e-01,0.000000000000000000e+00,0.000000000000000000e+00,-1.621949970722198486e-01,5.393702387809753418e-01,0.000000000000000000e+00,0.000000000000000000e+00,-0.000000000000000000e+00,-0.000000000000000000e+00,0.000000000000000000e+00,-1.964922100305557251e-01,-5.845417976379394531e-01,-4.585537612438201904e-01,5.633667707443237305e-01,0.000000000000000000e+00,-0.000000000000000000e+00,5.657229423522949219e-01,-4.292860925197601318e-01,-0.000000000000000000e+00,-2.533010840415954590e-01,1.749456077814102173e-01,0.000000000000000000e+00,-0.000000000000000000e+00,0.000000000000000000e+00
-0.000000000000000000e+00,0.000000000000000000e+00,-2.228642255067825317e-01,-0.000000000000000000e+00,0.000000000000000000e+00,2.759520709514617920e-01,-0.000000000000000000e+00,-0.000000000000000000e+00,-0.000000000000000000e+00,-0.000000000000000000e+00,-0.000000000000000000e+00,-2.427335530519485474e-01,-0.000000000000000000e+00,-0.000000000000000000e+00,2.622473239898681641e-01,0.000000000000000000e+00,-3.015661835670471191e-01,7.404099404811859131e-02,-0.000000000000000000e+00,2.617386281490325928e-01,-1.902127414941787720e-01,2.444198429584503174e-01,-0.000000000000000000e+00,0.000000000000000000e+00,0.000000000000000000e+00,3.785672187805175781e-01,-1.590967774391174316e-01,-0.000000000000000000e+00,0.000000000000000000e+00,0.000000000000000000e+00,-3.348117768764495850e-01,-2.987337410449981689e-01,-0.000000000000000000e+00,5.244620442390441895e-01,-0.000000000000000000e+00,-0.000000000000000000e+00,-0.000000000000000000e+00,0.000000000000000000e+00,6.345705986022949219e-01,-0.000000000000000000e+00,-0.000000000000000000e+00,3.706777989864349365e-01,-4.060838818550109863e-01,-0.000000000000000000e+00,-2.103689461946487427e-01,-0.000000000000000000e+00,0.000000000000000000e+00,2.870366573333740234e-01,-0.000000000000000000e+00,2.648858726024627686e-01
0.000000000000000000e+00,0.000000000000000000e+00,2.402829974889755249e-01,-7.180718183517456055e-01,0.000000000000000000e+00,0.000000000000000000e+00,0.000000000000000000e+00,-0.000000000000000000e+00,0.000000000000000000e+00,-0.000000000000000000e+00,0.000000000000000000e+00,-2.257802039384841919e-01,0.000000000000000000e+00,-0.000000000000000000e+00,0.000000000000000000e+00,-0.000000000000000000e+00,0.000000000000000000e+00,-4.816769063472747803e-01,0.000000000000000000e+00,0.000000000000000000e+00,-0.000000000000000000e+00,-0.000000000000000000e+00,-0.000000000000000000e+00,-0.000000000000000000e+00,-5.494133234024047852e-01,-0.000000000000000000e+00,-2.647405266761779785e-01,0.000000000000000000e+00,0.000000000000000000e+00,-0.000000000000000000e+00,-0.000000000000000000e+00,6.865847706794738770e-01,-0.000000000000000000e+00,0.000000000000000000e+00,-0.000000000000000000e+00,0.000000000000000000e+00,-0.000000000000000000e+00,0.000000000000000000e+00,-6.165367960929870605e-01,7.277164459228515625e-01,0.000000000000000000e+00,-0.000000000000000000e+00,6.503320932388305664e-01,-0.000000000000000000e+00,-0.000000000000000000e+00,-2.253661453723907471e-01,-2.073701620101928711e-01,-5.464311242103576660e-01,-7.157402038574218750e-01,0.000000000000000000e+00
0.000000000000000000e+00,-0.000000000000000000e+00,-0.000000000000000000e+00,0.000000000000000000e+00,-0.000000000000000000e+00,0.000000000000000000e+00,-0.000000000000000000e+00,0.000000000000000000e+00,3.613875806331634521e-01,4.595677852630615234e-01,0.000000000000000000e+00,-0.000000000000000000e+00,0.000000000000000000e+00,-4.822589159011840820e-01,-0.000000000000000000e+00,3.349840641021728516e-01,0.000000000000000000e+00,0.000000000000000000e+00,0.000000000000000000e+00,-2.599045634269714355e-01,0.000000000000000000e+00,0.000000000000000000e+00,-0.000000000000000000e+00,2.397359907627105713e-01,0.000000000000000000e+00,-2.435674369335174561e-01,-2.640430927276611328e-01,-4.073860049247741699e-01,4.621972739696502686e-01,-0.000000000000000000e+00,4.321930408477783203e-01,0.000000000000000000e+00,0.000000000000000000e+00,-3.992068171501159668e-01,-0.000000000000000000e+00,1.509441882371902466e-01,0.000000000000000000e+00,0.000000000000000000e+00,0.000000000000000000e+00,0.000000000000000000e+00,0.000000000000000000e+00,0.000000000000000000e+00,0.000000000000000000e+00,-0.000000000000000000e+00,-2.454433739185333252e-01,-2.293049544095993042e-01,0.000000000000000000e+00,-0.000000000000000000e+00,-0.000000000000000000e+00,0.000000000000000000e+00
-0.000000000000000000e+00,0.000000000000000000e+00,2.357477098703384399e-01,-0.000000000000000000e+00,-1.853405088186264038e-01,-1.748849749565124512e-01,-0.000000000000000000e+00,0.000000000000000000e+00,-2.017383575439453125e-01,-0.000000000000000000e+00,-0.000000000000000000e+00,0.000000000000000000e+00,2.154649645090103149e-01,0.000000000000000000e+00,0.000000000000000000e+00,-0.000000000000000000e+00,-0.000000000000000000e+00,-0.000000000000000000e+00,1.531786173582077026e-01,1.718373447656631470e-01,-2.381663471460342407e-01,-2.029263377189636230e-01,-0.000000000000000000e+00,0.000000000000000000e+00,-1.512252241373062134e-01,1.839597970247268677e-01,-0.000000000000000000e+00,-0.000000000000000000e+00,0.000000000000000000e+00,2.253797501325607300e-01,-0.000000000000000000e+00,-0.000000000000000000e+00,2.441349178552627563e-01,0.000000000000000000e+00,0.000000000000000000e+00,-0.000000000000000000e+00,0.000000000000000000e+00,-0.000000000000000000e+00,-2.387460917234420776e-01,-0.000000000000000000e+00,2.412562519311904907e-01,2.441144734621047974e-01,0.000000000000000000e+00,2.305751293897628784e-01,2.424705773591995239e-01,0.000000000000000000e+00,0.000000000000000000e+00,-0.000000000000000000e+00,0.000000000000000000e+00,0.000000000000000000e+00
0.000000000000000000e+00,-0.000000000000000000e+00,-0.000000000000000000e+00,2.442057877779006958e-01,-0.000000000000000000e+00,0.000000000000000000e+00,-0.000000000000000000e+00,0.000000000000000000e+00,-0.000000000000000000e+00,-0.000000000000000000e+00,0.000000000000000000e+00,0.000000000000000000e+00,-0.000000000000000000e+00,0.000000000000000000e+00,-0.000000000000000000e+00,0.000000000000000000e+00,0.000000000000000000e+00,0.000000000000000000e+00,0.000000000000000000e+00,1.658469438552856445e-01,0.000000000000000000e+00,2.953230738639831543e-01,3.269072771072387695e-01,0.000000000000000000e+00,-0.000000000000000000e+00,0.000000000000000000e+00,1.687960475683212280e-01,3.910887837409973145e-01,1.860305815935134888e-01,0.000000000000000000e+00,-0.000000000000000000e+00,0.000000000000000000e+00,0.000000000000000000e+00,0.000000000000000000e+00,-0.000000000000000000e+00,0.000000000000000000e+00,-2.265360355377197266e-01,0.000000000000000000e+00,0.000000000000000000e+00,-0.000000000000000000e+00,3.675806820392608643e-01,-0.000000000000000000e+00,0.000000000000000000e+00,3.010258078575134277e-01,0.000000000000000000e+00,0.000000000000000000e+00,-2.951631247997283936e-01,2.257458865642547607e-01,0.000000000000000000e+00,-0.000000000000000000e+00
-0.000000000000000000e+00,-0.000000000000000000e+00,-1.886831820011138916e-01,0.000000000000000000e+00,-6.054942011833190918e-01,0.000000000000000000e+00,-7.852813005447387695e-01,-0.000000000000000000e+00,0.000000000000000000e+00,-0.000000000000000000e+00,0.000000000000000000e+00,2.159344404935836792e-01,0.000000000000000000e+00,0.000000000000000000e+00,-0.000000000000000000e+00,0.000000000000000000e+00,-0.000000000000000000e+00,0.000000000000000000e+00,-0.000000000000000000e+00,-1.894512772560119629e-01,-2.165838927030563354e-01,-0.000000000000000000e+00,-7.030626535415649414e-01,0.000000000000000000e+00,-0.000000000000000000e+00,-0.000000000000000000e+00,-2.734041213989257812e-01,-5.947008728981018066e-01,-0.000000000000000000e+00,-0.000000000000000000e+00,0.000000000000000000e+00,0.000000000000000000e+00,0.000000000000000000e+00,0.000000000000000000e+00,-0.000000000000000000e+00,-0.000000000000000000e+00,-1.811337769031524658e-01,-8.167765736579895020e-01,0.000000000000000000e+00,0.000000000000000000e+00,1.282575279474258423e-01,0.000000000000000000e+00,-0.000000000000000000e+00,0.000000000000000000e+00,0.000000000000000000e+00,2.017304003238677979e-01,0.000000000000000000e+00,0.000000000000000000e+00,-6.356439590454101562e-01,-0.000000000000000000e+00
2.516199946403503418e-01,-0.000000000000000000e+00,-0.000000000000000000e+00,0.000000000000000000e+00,0.000000000000000000e+00,-0.000000000000000000e+00,1.897189915180206299e-01,-0.000000000000000000e+00,-0.000000000000000000e+00,0.000000000000000000e+00,0.000000000000000000e+00,-2.433059960603713989e-01,-0.000000000000000000e+00,0.000000000000000000e+00,1.533915549516677856e-01,7.575318217277526855e-02,0.000000000000000000e+00,-0.000000000000000000e+00,-0.000000000000000000e+00,-1.761424541473388672e-01,2.247233241796493530e-01,3.865509033203125000e-01,0.000000000000000000e+00,-0.000000000000000000e+00,-0.000000000000000000e+00,0.000000000000000000e+00,-0.000000000000000000e+00,4.425966441631317139e-01,-3.605806827545166016e-01,0.000000000000000000e+00,0.000000000000000000e+00,0.000000000000000000e+00,0.000000000000000000e+00,0.000000000000000000e+00,0.000000000000000000e+00,0.000000000000000000e+00,0.000000000000000000e+00,0.000000000000000000e+00,4.156077206134796143e-01,-0.000000000000000000e+00,0.000000000000000000e+00,-0.000000000000000000e+00,-0.000000000000000000e+00,-0.000000000000000000e+00,-0.000000000000000000e+00,-0.000000000000000000e+00,-0.000000000000000000e+00,-0.000000000000000000e+00,0.000000000000000000e+00,-0.000000000000000000e+00
0.000000000000000000e+00,2.151106446981430054e-01,-1.626258492469787598e-01,-0.000000000000000000e+00,-2.151353359222412109e-01,-2.152559906244277954e-01,-2.402494847774505615e-01,-0.000000000000000000e+00,2.325930148363113403e-01,-0.000000000000000000e+00,-2.102403938770294189e-01,-0.000000000000000000e+00,0.000000000000000000e+00,-0.000000000000000000e+00,-1.695168018341064453e-01,-2.352469116449356079e-01,-2.076075375080108643e-01,0.000000000000000000e+00,1.988118439912796021e-01,0.000000000000000000e+00,0.000000000000000000e+00,-0.000000000000000000e+00,-0.000000000000000000e+00,2.316040247678756714e-01,0.000000000000000000e+00,-0.000000000000000000e+00,2.266681939363479614e-01,2.273559719324111938e-01,0.000000000000000000e+00,-0.000000000000000000e+00,-0.000000000000000000e+00,1.887934952974319458e-01,2.140814512968063354e-01,1.677167266607284546e-01,-1.531219482421875000e-01,0.000000000000000000e+00,-0.000000000000000000e+00,-1.626006960868835449e-01,0.000000000000000000e+00,1.649679392576217651e-01,-0.000000000000000000e+00,1.689846068620681763e-01,-0.000000000000000000e+00,-0.000000000000000000e+00,-0.000000000000000000e+00,-2.383007258176803589e-01,2.436255663633346558e-01,-0.000000000000000000e+00,1.741182953119277954e-01,0.000000000000000000e+00
-0.000000000000000000e+00,-0.000000000000000000e+00,-1.574531644582748413e-01,2.139718532562255859e-01,-0.000000000000000000e+00,0.000000000000000000e+00,2.122692912817001343e-01,-0.000000000000000000e+00,0.000000000000000000e+00,0.000000000000000000e+00,-0.000000000000000000e+00,2.325390130281448364e-01,2.184797078371047974e-01,-0.000000000000000000e+00,-2.110415399074554443e-01,-0.000000000000000000e+00,-0.000000000000000000e+00,-0.000000000000000000e+00,-0.000000000000000000e+00,1.999449580907821655e-01,-0.000000000000000000e+00,-0.000000000000000000e+00,0.000000000000000000e+00,-0.000000000000000000e+00,-1.830868422985076904e-01,1.938624531030654907e-01,2.315181642770767212e-01,2.317435592412948608e-01,1.586768776178359985e-01,-2.531414926052093506e-01,0.000000000000000000e+00,-2.507360875606536865e-01,-0.000000000000000000e+00,-0.000000000000000000e+00,0.000000000000000000e+00,1.897270083427429199e-01,0.000000000000000000e+00,-0.000000000000000000e+00,-1.964169889688491821e-01,-2.036994844675064087e-01,0.000000000000000000e+00,-2.210881859064102173e-01,0.000000000000000000e+00,-0.000000000000000000e+00,0.000000000000000000e+00,-0.000000000000000000e+00,-0.000000000000000000e+00,0.000000000000000000e+00,-2.277894169092178345e-01,-0.000000000000000000e+00
-0.000000000000000000e+00,0.000000000000000000e+00,0.000000000000000000e+00,-0.000000000000000000e+00,-0.000000000000000000e+00,-1.948691457509994507e-01,0.000000000000000000e+00,-0.000000000000000000e+00,0.000000000000000000e+00,0.000000000000000000e+00,4.695509374141693115e-01,-2.368297427892684937e-01,5.282104611396789551e-01,3.904356658458709717e-01,0.000000000000000000e+00,0.000000000000000000e+00,0.000000000000000000e+00,-0.000000000000000000e+00,-4.899794459342956543e-01,0.000000000000000000e+00,-1.886755526065826416e-01,-0.000000000000000000e+00,-0.000000000000000000e+00,-0.000000000000000000e+00,-0.000000000000000000e+00,0.000000000000000000e+00,-0.000000000000000000e+00,-0.000000000000000000e+00,0.000000000000000000e+00,-4.774869680404663086e-01,-3.969051837921142578e-01,-0.000000000000000000e+00,-0.000000000000000000e+00,0.000000000000000000e+00,0.000000000000000000e+00,0.000000000000000000e+00,-0.000000000000000000e+00,0.000000000000000000e+00,-0.000000000000000000e+00,0.000000000000000000e+00,5.116696953773498535e-01,0.000000000000000000e+00,-0.000000000000000000e+00,-0.000000000000000000e+00,-2.170203477144241333e-01,-0.000000000000000000e+00,-0.000000000000000000e+00,3.420035243034362793e-01,-0.000000000000000000e+00,3.260456919670104980e-01
-0.000000000000000000e+00,0.000000000000000000e+00,0.000000000000000000e+00,-0.000000000000000000e+00,-0.000000000000000000e+00,0.000000000000000000e+00,0.000000000000000000e+00,0.000000000000000000e+00,0.000000000000000000e+00,6.165975928306579590e-01,-7.045910358428955078e-01,-0.000000000000000000e+00,-0.000000000000000000e+00,-0.000000000000000000e+00,-0.000000000000000000e+00,-0.000000000000000000e+00,-0.000000000000000000e+00,-0.000000000000000000e+00,1.297943741083145142e-01,-0.000000000000000000e+00,-0.000000000000000000e+00,0.000000000000000000e+00,-0.000000000000000000e+00,-0.000000000000000000e+00,-0.000000000000000000e+00,0.000000000000000000e+00,0.000000000000000000e+00,-0.000000000000000000e+00,0.000000000000000000e+00,1.828189045190811157e-01,5.649209022521972656e-01,-0.000000000000000000e+00,-0.000000000000000000e+00,0.000000000000000000e+00,0.000000000000000000e+00,0.000000000000000000e+00,0.000000000000000000e+00,-0.000000000000000000e+00,-0.000000000000000000e+00,-0.000000000000000000e+00,0.000000000000000000e+00,0.000000000000000000e+00,5.051907896995544434e-01,-0.000000000000000000e+00,1.869657933712005615e-01,-0.000000000000000000e+00,-0.000000000000000000e+00,0.000000000000000000e+00,0.000000000000000000e+00,-1.740688830614089966e-01
-0.000000000000000000e+00,0.000000000000000000e+00,-1.772462725639343262e-01,0.000000000000000000e+00,1.516937613487243652e-01,-0.000000000000000000e+00,0.000000000000000000e+00,-0.000000000000000000e+00,-0.000000000000000000e+00,0.000000000000000000e+00,-0.000000000000000000e+00,-1.802839636802673340e-01,0.000000000000000000e+00,-0.000000000000000000e+00,0.000000000000000000e+00,-0.000000000000000000e+00,0.000000000000000000e+00,-1.546206474304199219e-01,-3.226074874401092529e-01,-2.050293236970901489e-01,-0.000000000000000000e+00,0.000000000000000000e+00,0.000000000000000000e+00,0.000000000000000000e+00,-1.866191476583480835e-01,-0.000000000000000000e+00,-0.000000000000000000e+00,0.000000000000000000e+00,-1.918279081583023071e-01,-3.507727980613708496e-01,-2.231564968824386597e-01,-2.712273001670837402e-01,1.539417356252670288e-01,0.000000000000000000e+00,-0.000000000000000000e+00,0.000000000000000000e+00,0.000000000000000000e+00,1.852685362100601196e-01,0.000000000000000000e+00,0.000000000000000000e+00,-0.000000000000000000e+00,0.000000000000000000e+00,-0.000000000000000000e+00,-0.000000000000000000e+00,-2.082930505275726318e-01,-0.000000000000000000e+00,-2.258775085210800171e-01,0.000000000000000000e+00,-0.000000000000000000e+00,-0.000000000000000000e+00
0.000000000000000000e+00,0.000000000000000000e+00,-1.915745139122009277e-01,-0.000000000000000000e+00,-0.000000000000000000e+00,-0.000000000000000000e+00,-0.000000000000000000e+00,-0.000000000000000000e+00,0.000000000000000000e+00,4.226432144641876221e-01,1.725463382899761200e-02,-0.000000000000000000e+00,0.000000000000000000e+00,0.000000000000000000e+00,-0.000000000000000000e+00,2.836511433124542236e-01,0.000000000000000000e+00,-5.462431311607360840e-01,4.365001022815704346e-01,-2.300480455160140991e-01,-0.000000000000000000e+00,-0.000000000000000000e+00,0.000000000000000000e+00,0.000000000000000000e+00,-0.000000000000000000e+00,-0.000000000000000000e+00,-1.614953428506851196e-01,0.000000000000000000e+00,4.391154646873474121e-01,0.000000000000000000e+00,0.000000000000000000e+00,-0.000000000000000000e+00,-0.000000000000000000e+00,0.000000000000000000e+00,-0.000000000000000000e+00,0.000000000000000000e+00,1.614187359809875488e-01,0.000000000000000000e+00,0.000000000000000000e+00,0.000000000000000000e+00,-0.000000000000000000e+00,0.000000000000000000e+00,4.701370596885681152e-01,0.000000000000000000e+00,-0.000000000000000000e+00,-0.000000000000000000e+00,0.000000000000000000e+00,0.000000000000000000e+00,-2.752695381641387939e-01,0.000000000000000000e+00
2.532224357128143311e-02,-0.000000000000000000e+00,0.000000000000000000e+00,0.000000000000000000e+00,0.000000000000000000e+00,1.682683229446411133e+00,0.000000000000000000e+00,0.000000000000000000e+00,0.000000000000000000e+00,0.000000000000000000e+00,1.780979990959167480e+00,0.000000000000000000e+00,-0.000000000000000000e+00,1.557646989822387695e+00,-0.000000000000000000e+00,-1.881646633148193359e+00,0.000000000000000000e+00,-0.000000000000000000e+00,-1.816181540489196777e+00,-0.000000000000000000e+00,-1.905118674039840698e-01,1.631946325302124023e+00,0.000000000000000000e+00,-0.000000000000000000e+00,1.859244585037231445e+00,0.000000000000000000e+00,0.000000000000000000e+00,-0.000000000000000000e+00,0.000000000000000000e+00,0.000000000000000000e+00,0.000000000000000000e+00,-0.000000000000000000e+00,-0.000000000000000000e+00,1.456120610237121582e+00,-1.759650230407714844e+00,0.000000000000000000e+00,0.000000000000000000e+00,4.011875092983245850e-01,0.000000000000000000e+00,0.000000000000000000e+00,-0.000000000000000000e+00,1.733031868934631348e+00,-1.536125183105468750e+00,0.000000000000000000e+00,0.000000000000000000e+00,-0.000000000000000000e+00,-0.000000000000000000e+00,0.000000000000000000e+00,-0.000000000000000000e+00,-0.000000000000000000e+00
-0.000000000000000000e+00,0.000000000000000000e+00,0.000000000000000000e+00,-0.000000000000000000e+00,-0.000000000000000000e+00,-0.000000000000000000e+00,2.327758669853210449e-01,0.000000000000000000e+00,-0.000000000000000000e+00,1.635556221008300781e-01,-1.660273671150207520e-01,-2.260837107896804810e-01,-0.000000000000000000e+00,-2.237603664398193359e-01,-0.000000000000000000e+00,2.132612764835357666e-01,-1.855881661176681519e-01,-0.000000000000000000e+00,-1.735281199216842651e-01,-1.719072759151458740e-01,-1.808246374130249023e-01,0.000000000000000000e+00,-1.819591224193572998e-01,0.000000000000000000e+00,-2.086761295795440674e-01,0.000000000000000000e+00,-0.000000000000000000e+00,-0.000000000000000000e+00,0.000000000000000000e+00,0.000000000000000000e+00,1.659795492887496948e-01,2.110026478767395020e-01,0.000000000000000000e+00,2.393117398023605347e-01,0.000000000000000000e+00,-0.000000000000000000e+00,-1.742123812437057495e-01,-0.000000000000000000e+00,-0.000000000000000000e+00,-0.000000000000000000e+00,1.723083555698394775e-01,0.000000000000000000e+00,0.000000000000000000e+00,2.293059974908828735e-01,2.055411487817764282e-01,-0.000000000000000000e+00,-0.000000000000000000e+00,-1.826828867197036743e-01,0.000000000000000000e+00,0.000000000000000000e+00
-0.000000000000000000e+00,0.000000000000000000e+00,-0.000000000000000000e+00,2.313302457332611084e-01,0.000000000000000000e+00,3.321269750595092773e-01,3.115176260471343994e-01,-0.000000000000000000e+00,-0.000000000000000000e+00,-0.000000000000000000e+00,0.000000000000000000e+00,-2.101114988327026367e-01,4.164708256721496582e-01,0.000000000000000000e+00,-0.000000000000000000e+00,-0.000000000000000000e+00,1.673713326454162598e-01,-0.000000000000000000e+00,-0.000000000000000000e+00,-0.000000000000000000e+00,-0.000000000000000000e+00,3.688213229179382324e-01,5.188471078872680664e-01,-0.000000000000000000e+00,-0.000000000000000000e+00,0.000000000000000000e+00,0.000000000000000000e+00,0.000000000000000000e+00,9.841902554035186768e-02,0.000000000000000000e+00,-0.000000000000000000e+00,-3.708292245864868164e-01,-0.000000000000000000e+00,-0.000000000000000000e+00,1.210635229945182800e-01,-0.000000000000000000e+00,-0.000000000000000000e+00,4.576902091503143311e-01,0.000000000000000000e+00,-0.000000000000000000e+00,4.217772483825683594e-01,-0.000000000000000000e+00,-4.100416004657745361e-01,0.000000000000000000e+00,-0.000000000000000000e+00,-0.000000000000000000e+00,1.990593373775482178e-01,0.000000000000000000e+00,-0.000000000000000000e+00,0.000000000000000000e+00
0.000000000000000000e+00,0.000000000000000000e+00,-1.824003458023071289e-01,-0.000000000000000000e+00,-0.000000000000000000e+00,6.690067648887634277e-01,6.816179156303405762e-01,-0.000000000000000000e+00,-0.000000000000000000e+00,-5.440130233764648438e-01,6.759440898895263672e-01,-0.000000000000000000e+00,0.000000000000000000e+00,6.336275339126586914e-01,0.000000000000000000e+00,0.000000000000000000e+00,0.000000000000000000e+00,-0.000000000000000000e+00,0.000000000000000000e+00,-0.000000000000000000e+00,0.000000000000000000e+00,0.000000000000000000e+00,-0.000000000000000000e+00,-0.000000000000000000e+00,-0.000000000000000000e+00,-0.000000000000000000e+00,0.000000000000000000e+00,-0.000000000000000000e+00,0.000000000000000000e+00,-0.000000000000000000e+00,-0.000000000000000000e+00,-3.187344074249267578e-01,0.000000000000000000e+00,0.000000000000000000e+00,-0.000000000000000000e+00,-0.000000000000000000e+00,-2.726844549179077148e-01,0.000000000000000000e+00,0.000000000000000000e+00,0.000000000000000000e+00,0.000000000000000000e+00,-0.000000000000000000e+00,-0.000000000000000000e+00,-0.000000000000000000e+00,0.000000000000000000e+00,-2.443212121725082397e-01,0.000000000000000000e+00,3.565109074115753174e-01,-0.000000000000000000e+00,0.000000000000000000e+00
1.814087182283401489e-01,-0.000000000000000000e+00,0.000000000000000000e+00,0.000000000000000000e+00,-0.000000000000000000e+00,-0.000000000000000000e+00,-1.719678342342376709e-01,2.323326170444488525e-01,0.000000000000000000e+00,-0.000000000000000000e+00,1.572824865579605103e-01,0.000000000000000000e+00,-0.000000000000000000e+00,-0.000000000000000000e+00,0.000000000000000000e+00,2.363917082548141479e-01,-1.715140193700790405e-01,2.052664309740066528e-01,-0.000000000000000000e+00,-0.000000000000000000e+00,2.029485851526260376e-01,0.000000000000000000e+00,2.794165015220642090e-01,-0.000000000000000000e+00,2.045578062534332275e-01,0.000000000000000000e+00,-0.000000000000000000e+00,0.000000000000000000e+00,0.000000000000000000e+00,2.178413122892379761e-01,1.738523840904235840e-01,1.590950340032577515e-01,0.000000000000000000e+00,1.534969359636306763e-01,-0.000000000000000000e+00,-0.000000000000000000e+00,1.871074289083480835e-01,-2.036319822072982788e-01,-0.000000000000000000e+00,-2.594229876995086670e-01,-0.000000000000000000e+00,-1.550267934799194336e-01,-0.000000000000000000e+00,0.000000000000000000e+00,-0.000000000000000000e+00,-0.000000000000000000e+00,1.777926534414291382e-01,-0.000000000000000000e+00,-1.760768145322799683e-01,2.426661252975463867e-01
-0.000000000000000000e+00,-0.000000000000000000e+00,-0.000000000000000000e+00,-0.000000000000000000e+00,-2.331731170415878296e-01,0.000000000000000000e+00,0.000000000000000000e+00,0.000000000000000000e+00,-2.094632089138031006e-01,-1.534242928028106689e-01,0.000000000000000000e+00,0.000000000000000000e+00,0.000000000000000000e+00,-0.000000000000000000e+00,-0.000000000000000000e+00,2.431955486536026001e-01,-0.000000000000000000e+00,2.139467746019363403e-01,1.604153960943222046e-01,-0.000000000000000000e+00,0.000000000000000000e+00,-0.000000000000000000e+00,0.000000000000000000e+00,0.000000000000000000e+00,-1.781295239925384521e-01,0.000000000000000000e+00,-0.000000000000000000e+00,-0.000000000000000000e+00,-2.447523325681686401e-01,1.711552292108535767e-01,-1.813466846942901611e-01,2.158206552267074585e-01,-0.000000000000000000e+00,-0.000000000000000000e+00,-0.000000000000000000e+00,1.698174029588699341e-01,2.109187096357345581e-01,-1.672595143318176270e-01,0.000000000000000000e+00,-0.000000000000000000e+00,0.000000000000000000e+00,0.000000000000000000e+00,-0.000000000000000000e+00,-0.000000000000000000e+00,-0.000000000000000000e+00,1.905174106359481812e-01,2.388375550508499146e-01,1.947311908006668091e-01,-0.000000000000000000e+00,1.695322245359420776e-01
3.057925701141357422e-01,0.000000000000000000e+00,-1.928743422031402588e-01,0.000000000000000000e+00,-0.000000000000000000e+00,0.000000000000000000e+00,6.949709653854370117e-01,6.042200922966003418e-01,-0.000000000000000000e+00,0.000000000000000000e+00,6.575183272361755371e-01,-0.000000000000000000e+00,0.000000000000000000e+00,0.000000000000000000e+00,-0.000000000000000000e+00,0.000000000000000000e+00,0.000000000000000000e+00,-0.000000000000000000e+00,-5.465444326400756836e-01,3.015657663345336914e-01,-0.000000000000000000e+00,-0.000000000000000000e+00,-0.000000000000000000e+00,-0.000000000000000000e+00,6.392545104026794434e-01,0.000000000000000000e+00,0.000000000000000000e+00,-0.000000000000000000e+00,0.000000000000000000e+00,-0.000000000000000000e+00,0.000000000000000000e+00,0.000000000000000000e+00,6.776486635208129883e-01,0.000000000000000000e+00,0.000000000000000000e+00,1.792096644639968872e-01,1.660185009241104126e-01,-0.000000000000000000e+00,-0.000000000000000000e+00,0.000000000000000000e+00,0.000000000000000000e+00,6.521000862121582031e-01,0.000000000000000000e+00,0.000000000000000000e+00,1.665038615465164185e-01,1.496093869209289551e-01,0.000000000000000000e+00,-0.000000000000000000e+00,4.477203488349914551e-01,4.387024343013763428e-01
1.648271232843399048e-01,-0.000000000000000000e+00,2.169145494699478149e-01,0.000000000000000000e+00,-1.670450121164321899e-01,2.102033793926239014e-01,2.708443105220794678e-01,-2.183311283588409424e-01,0.000000000000000000e+00,-1.730069965124130249e-01,-1.553472429513931274e-01,1.542288213968276978e-01,0.000000000000000000e+00,-1.787641048431396484e-01,0.000000000000000000e+00,-1.592414826154708862e-01,0.000000000000000000e+00,-0.000000000000000000e+00,-2.622313499450683594e-01,0.000000000000000000e+00,1.807745248079299927e-01,-1.540548652410507202e-01,-1.545954644680023193e-01,-0.000000000000000000e+00,-0.000000000000000000e+00,-1.676141321659088135e-01,0.000000000000000000e+00,0.000000000000000000e+00,0.000000000000000000e+00,-1.538604199886322021e-01,0.000000000000000000e+00,-0.000000000000000000e+00,-2.003579735755920410e-01,-1.709101945161819458e-01,1.646825820207595825e-01,-0.000000000000000000e+00,1.624311059713363647e-01,0.000000000000000000e+00,-1.588719338178634644e-01,1.822934448719024658e-01,0.000000000000000000e+00,1.671625673770904541e-01,-0.000000000000000000e+00,0.000000000000000000e+00,2.456803172826766968e-01,0.000000000000000000e+00,-0.000000000000000000e+00,-1.566879153251647949e-01,-0.000000000000000000e+00,2.296550720930099487e-01
0.000000000000000000e+00,-0.000000000000000000e+00,0.000000000000000000e+00,1.638763189315795898e+00,1.630001068115234375e+00,1.762459039688110352e+00,1.732470989227294922e+00,-0.000000000000000000e+00,0.000000000000000000e+00,-1.660938978195190430e+00,0.000000000000000000e+00,-0.000000000000000000e+00,-0.000000000000000000e+00,-0.000000000000000000e+00,0.000000000000000000e+00,-0.000000000000000000e+00,1.508303880691528320e-01,-0.000000000000000000e+00,-0.000000000000000000e+00,0.000000000000000000e+00,-2.589874863624572754e-01,0.000000000000000000e+00,-0.000000000000000000e+00,0.000000000000000000e+00,0.000000000000000000e+00,0.000000000000000000e+00,-2.828066647052764893e-01,0.000000000000000000e+00,-0.000000000000000000e+00,0.000000000000000000e+00,0.000000000000000000e+00,0.000000000000000000e+00,1.765500426292419434e+00,-0.000000000000000000e+00,-0.000000000000000000e+00,-1.562081873416900635e-01,-2.338593304157257080e-01,-0.000000000000000000e+00,-0.000000000000000000e+00,-1.723460197448730469e+00,-0.000000000000000000e+00,1.761903047561645508e+00,-1.750466942787170410e+00,-0.000000000000000000e+00,-0.000000000000000000e+00,0.000000000000000000e+00,1.727889031171798706e-01,-0.000000000000000000e+00,0.000000000000000000e+00,0.000000000000000000e+00
1.899005472660064697e-01,-0.000000000000000000e+00,-0.000000000000000000e+00,0.000000000000000000e+00,-0.000000000000000000e+00,0.000000000000000000e+00,-1.927689760923385620e-01,0.000000000000000000e+00,-0.000000000000000000e+00,0.000000000000000000e+00,-0.000000000000000000e+00,0.000000000000000000e+00,0.000000000000000000e+00,2.667836248874664307e-01,-0.000000000000000000e+00,0.000000000000000000e+00,-0.000000000000000000e+00,-2.611736059188842773e-01,-2.313470691442489624e-01,-0.000000000000000000e+00,-0.000000000000000000e+00,0.000000000000000000e+00,-0.000000000000000000e+00,-2.294053435325622559e-01,-0.000000000000000000e+00,-0.000000000000000000e+00,0.000000000000000000e+00,-0.000000000000000000e+00,-0.000000000000000000e+00,-0.000000000000000000e+00,1.767096370458602905e-01,0.000000000000000000e+00,-0.000000000000000000e+00,-0.000000000000000000e+00,-0.000000000000000000e+00,-0.000000000000000000e+00,1.734712570905685425e-01,-0.000000000000000000e+00,-0.000000000000000000e+00,1.692855656147003174e-01,0.000000000000000000e+00,-0.000000000000000000e+00,-0.000000000000000000e+00,-2.178820222616195679e-01,-0.000000000000000000e+00,0.000000000000000000e+00,0.000000000000000000e+00,0.000000000000000000e+00,0.000000000000000000e+00,-2.065241485834121704e-01
1.414750665426254272e-01,-0.000000000000000000e+00,-0.000000000000000000e+00,0.000000000000000000e+00,2.388781905174255371e-01,0.000000000000000000e+00,-2.958863675594329834e-01,-0.000000000000000000e+00,-2.031540125608444214e-01,2.356312274932861328e-01,-0.000000000000000000e+00,-0.000000000000000000e+00,1.957464069128036499e-01,0.000000000000000000e+00,-0.000000000000000000e+00,1.558497846126556396e-01,0.000000000000000000e+00,0.000000000000000000e+00,2.050842493772506714e-01,0.000000000000000000e+00,-0.000000000000000000e+00,1.506288051605224609e-01,-0.000000000000000000e+00,-0.000000000000000000e+00,0.000000000000000000e+00,0.000000000000000000e+00,-2.337780594825744629e-01,1.714066267013549805e-01,0.000000000000000000e+00,0.000000000000000000e+00,0.000000000000000000e+00,2.542029321193695068e-01,-0.000000000000000000e+00,-1.628106832504272461e-01,0.000000000000000000e+00,0.000000000000000000e+00,-0.000000000000000000e+00,0.000000000000000000e+00,-0.000000000000000000e+00,3.464846909046173096e-01,0.000000000000000000e+00,-0.000000000000000000e+00,0.000000000000000000e+00,-0.000000000000000000e+00,2.113073915243148804e-01,0.000000000000000000e+00,-2.489005029201507568e-01,-0.000000000000000000e+00,0.000000000000000000e+00,0.000000000000000000e+00
2.034982591867446899e-01,0.000000000000000000e+00,-2.327864468097686768e-01,0.000000000000000000e+00,4.519455879926681519e-02,-0.000000000000000000e+00,-0.000000000000000000e+00,6.753534078598022461e-03,0.000000000000000000e+00,-0.000000000000000000e+00,-0.000000000000000000e+00,-0.000000000000000000e+00,-0.000000000000000000e+00,0.000000000000000000e+00,0.000000000000000000e+00,0.000000000000000000e+00,0.000000000000000000e+00,0.000000000000000000e+00,-0.000000000000000000e+00,-0.000000000000000000e+00,0.000000000000000000e+00,-0.000000000000000000e+00,0.000000000000000000e+00,0.000000000000000000e+00,-0.000000000000000000e+00,0.000000000000000000e+00,-0.000000000000000000e+00,3.087507095187902451e-03,0.000000000000000000e+00,0.000000000000000000e+00,0.000000000000000000e+00,0.000000000000000000e+00,-0.000000000000000000e+00,0.000000000000000000e+00,-0.000000000000000000e+00,-0.000000000000000000e+00,0.000000000000000000e+00,-0.000000000000000000e+00,-0.000000000000000000e+00,0.000000000000000000e+00,-0.000000000000000000e+00,0.000000000000000000e+00,0.000000000000000000e+00,-0.000000000000000000e+00,-2.431175261735916138e-01,2.354744523763656616e-01,-2.263072431087493896e-01,0.000000000000000000e+00,0.000000000000000000e+00,-0.000000000000000000e+00
