-2.906378507614135742e-01,5.691563338041305542e-02,-2.061418257653713226e-02,2.723994553089141846e-01,-1.408826708793640137e-01,-2.306404858827590942e-01,2.825107574462890625e-01,2.637970745563507080e-01,7.213217765092849731e-02,-1.873674392700195312e-01,2.434639632701873779e-01,-2.439906597137451172e-01,4.762719199061393738e-02,8.667807094752788544e-03,1.873455345630645752e-01,1.840328983962535858e-02,2.704620659351348877e-01,1.228565350174903870e-01,-2.254147976636886597e-01,2.614533603191375732e-01,1.317386776208877563e-01,3.153357803821563721e-01,-1.939348280429840088e-01,-6.912388652563095093e-02,1.091455146670341492e-01,-1.983264684677124023e-01,6.668180972337722778e-02,-8.554358780384063721e-02,1.908891052007675171e-01,-1.559452861547470093e-01,-2.102605700492858887e-01,-5.006235092878341675e-02,-3.776447474956512451e-02,6.790433824062347412e-02,-1.441073864698410034e-01,1.915795803070068359e-01,-9.500543028116226196e-02,9.598975069820880890e-03,-1.033179461956024170e-01,-1.027193199843168259e-02,2.649269066751003265e-02,8.290354907512664795e-02,1.525415629148483276e-01,-9.917151927947998047e-02,2.275105863809585571e-01,-2.275861799716949463e-01,-1.374814212322235107e-01,9.569635987281799316e-02,2.019789963960647583e-01,2.788500487804412842e-01
4.923692718148231506e-02,2.425073832273483276e-02,1.867244541645050049e-01,-9.803370386362075806e-02,1.846586763858795166e-01,2.800475656986236572e-01,1.692676693201065063e-01,-2.296900600194931030e-01,1.149950474500656128e-01,2.626641392707824707e-01,1.247845217585563660e-01,2.945875525474548340e-01,-1.524588316679000854e-01,7.240138482302427292e-03,3.021575883030891418e-02,1.489295065402984619e-01,-6.403524428606033325e-02,-5.083652585744857788e-02,2.669733390212059021e-02,-1.025791168212890625e-01,-1.814392209053039551e-02,1.022013719193637371e-03,-6.538212299346923828e-03,2.369714900851249695e-03,8.670097216963768005e-03,7.952078431844711304e-02,2.489049732685089111e-01,2.503566741943359375e-01,3.067479655146598816e-02,4.895699396729469299e-02,1.248517781496047974e-01,-1.074639856815338135e-01,-1.616641879081726074e-01,1.690131127834320068e-01,4.612685739994049072e-02,-2.359722852706909180e-01,2.621107101440429688e-01,1.548917740583419800e-01,1.124602332711219788e-01,-9.721781313419342041e-02,2.086551934480667114e-01,-1.903649792075157166e-02,-1.614217162132263184e-01,-1.131672319024801254e-02,2.136109396815299988e-02,-4.586118459701538086e-02,1.888944506645202637e-01,-2.947994321584701538e-02,-2.534248121082782745e-02,3.240543231368064880e-02
-1.312456727027893066e-01,-1.916687190532684326e-01,2.534338533878326416e-01,1.540085524320602417e-01,6.591194123029708862e-02,1.769860684871673584e-01,-1.127104158513247967e-03,6.179665774106979370e-02,-2.946053072810173035e-02,-9.162355214357376099e-02,-2.533098217099905014e-03,1.244332417845726013e-01,1.130029857158660889e-01,2.057643681764602661e-01,1.997213214635848999e-01,1.202799379825592041e-02,2.339076548814773560e-01,2.894912362098693848e-01,-2.599757611751556396e-01,1.923946738243103027e-01,2.420210279524326324e-02,1.037133205682039261e-02,-2.376159280538558960e-01,1.493721753358840942e-01,-2.133326530456542969e-01,-1.229486316442489624e-01,-2.100102603435516357e-01,2.931667566299438477e-01,5.177157372236251831e-02,-1.785925179719924927e-01,-2.296005487442016602e-01,-1.087621226906776428e-01,1.277160495519638062e-01,-1.061297506093978882e-01,-2.957320213317871094e-02,2.307103723287582397e-01,1.898527741432189941e-01,2.536443769931793213e-01,-2.022673487663269043e-01,-1.425401568412780762e-01,-2.315093278884887695e-01,2.992882728576660156e-01,1.321823298931121826e-01,1.048111617565155029e-01,2.532584369182586670e-01,1.945750266313552856e-01,1.192995086312294006e-01,-6.629997864365577698e-03,-1.256844401359558105e-02,1.701119840145111084e-01
-2.504480481147766113e-01,-2.768430858850479126e-02,4.778756946325302124e-02,2.953849732875823975e-01,-4.783890210092067719e-03,-1.430412679910659790e-01,1.701041162014007568e-01,2.588505446910858154e-01,-1.017280295491218567e-01,-1.384137719869613647e-01,1.149907782673835754e-01,1.436582356691360474e-01,-1.001470237970352173e-01,-1.154796704649925232e-01,-1.941171139478683472e-01,2.032352089881896973e-01,-1.340683549642562866e-01,1.867283731698989868e-01,-1.894846260547637939e-01,1.588694006204605103e-01,-2.075708210468292236e-01,-4.186992347240447998e-02,-2.146039009094238281e-01,1.347372382879257202e-01,-2.635032534599304199e-01,1.222725808620452881e-01,-3.052114844322204590e-01,-9.988674521446228027e-02,3.021197207272052765e-02,-2.215488106012344360e-01,-1.602078378200531006e-01,2.247396111488342285e-01,9.176587313413619995e-02,2.928664088249206543e-01,-1.070744246244430542e-01,1.105763316154479980e-01,-9.438167512416839600e-02,-1.077649369835853577e-01,7.069043815135955811e-02,-1.156174391508102417e-01,8.220598846673965454e-02,6.651957333087921143e-02,3.340680599212646484e-01,-1.549473702907562256e-01,-9.775739163160324097e-02,-3.461524844169616699e-02,-6.359274033457040787e-03,-8.089878410100936890e-02,-9.273832663893699646e-03,-4.587398096919059753e-02
1.443477272987365723e-01,-2.882310422137379646e-03,1.741066388785839081e-02,1.943716108798980713e-01,4.422466456890106201e-02,7.764543592929840088e-02,6.745358556509017944e-02,4.910985007882118225e-02,-8.034084737300872803e-02,1.704556345939636230e-01,-1.787995100021362305e-01,1.622893959283828735e-01,-1.846900582313537598e-01,4.316033422946929932e-02,-2.247254252433776855e-01,2.038552463054656982e-01,1.751168817281723022e-01,-2.235670238733291626e-01,2.180821299552917480e-01,-5.643524602055549622e-02,3.299696370959281921e-02,-1.117456927895545959e-01,8.694814145565032959e-02,-2.491885125637054443e-01,2.738865017890930176e-01,-5.542625859379768372e-02,1.895063742995262146e-02,6.319212913513183594e-02,-6.814057473093271255e-03,-2.090915665030479431e-02,-5.781948193907737732e-02,-7.326065003871917725e-02,-2.060995697975158691e-01,-3.191683813929557800e-02,7.851825654506683350e-02,1.117041148245334625e-02,2.540821135044097900e-01,-1.092425435781478882e-01,-2.161515951156616211e-01,2.187375724315643311e-01,1.294009201228618622e-02,-6.223640590906143188e-02,-1.430338770151138306e-01,-1.183495000004768372e-01,8.713487535715103149e-02,-2.191621065139770508e-01,2.359030544757843018e-01,-1.087972670793533325e-01,1.013078987598419189e-01,1.062326412647962570e-02
-2.961873114109039307e-01,-1.860865503549575806e-01,1.121467631310224533e-02,2.719491422176361084e-01,-1.171579584479331970e-01,-4.944992437958717346e-02,9.340674430131912231e-02,-8.132383972406387329e-02,-1.704603582620620728e-01,1.405757069587707520e-01,1.895447969436645508e-01,-9.484447538852691650e-02,-3.675516694784164429e-02,-1.629560291767120361e-01,8.540298044681549072e-02,-1.799726672470569611e-02,1.143060252070426941e-01,2.619167566299438477e-01,9.613765869289636612e-04,1.229196339845657349e-01,-2.162206172943115234e-01,-1.467043906450271606e-02,-1.792892813682556152e-03,9.373445808887481689e-02,1.074340343475341797e-01,-2.657098174095153809e-01,-2.290851473808288574e-01,1.373407393693923950e-01,8.239475637674331665e-02,1.216253638267517090e-01,-3.401385247707366943e-02,3.935623914003372192e-02,2.875550687313079834e-01,1.612622886896133423e-01,-1.759150326251983643e-01,2.595035433769226074e-01,1.451332569122314453e-01,3.616583049297332764e-01,1.022413745522499084e-01,-1.517078429460525513e-01,1.699693799018859863e-01,3.149299621582031250e-01,-7.876520045101642609e-03,1.062227264046669006e-01,2.906139492988586426e-01,-9.883196651935577393e-02,1.025295108556747437e-01,-2.467845529317855835e-01,1.673852205276489258e-01,-5.418784543871879578e-02
2.093385308980941772e-01,-1.742522120475769043e-01,2.708813175559043884e-02,-1.787423789501190186e-01,-5.491992086172103882e-02,6.559405475854873657e-02,8.480689674615859985e-02,-1.886304467916488647e-01,1.888389289379119873e-01,-2.203643321990966797e-02,-1.186060234904289246e-01,-7.198882102966308594e-02,4.786750301718711853e-02,-9.756195545196533203e-02,-1.537412703037261963e-01,7.048635929822921753e-02,-7.759194076061248779e-02,-1.007879301905632019e-01,-3.495643381029367447e-03,8.730522543191909790e-02,1.536006629467010498e-01,9.021849930286407471e-02,2.034355252981185913e-01,1.250957846641540527e-01,2.841995656490325928e-01,8.448477834463119507e-02,2.614949345588684082e-01,-4.096180573105812073e-02,-7.233858108520507812e-03,-4.861440137028694153e-02,1.812583506107330322e-01,-1.908431053161621094e-01,1.081366837024688721e-01,-4.554118588566780090e-02,-1.059913784265518188e-01,-9.621302038431167603e-02,1.679899841547012329e-01,-1.421674489974975586e-01,1.684298962354660034e-01,-1.842951774597167969e-01,2.925385534763336182e-01,-1.544063091278076172e-01,8.206223696470260620e-02,-7.157646119594573975e-02,-1.582515835762023926e-01,1.447126418352127075e-01,1.617606878280639648e-01,-2.329786866903305054e-02,1.598179042339324951e-01,-2.225301563739776611e-01
-8.460716344416141510e-03,-1.520975232124328613e-01,5.147559940814971924e-02,9.543853998184204102e-02,-2.359849959611892700e-01,-1.497499048709869385e-01,6.899534910917282104e-02,-1.490518152713775635e-01,-1.872254312038421631e-01,-2.700389027595520020e-01,4.859848320484161377e-02,1.578475087881088257e-01,1.951877921819686890e-01,1.821887195110321045e-01,1.516544967889785767e-01,1.800577342510223389e-01,2.138698548078536987e-01,2.667320147156715393e-02,5.398154258728027344e-02,2.102851718664169312e-01,1.525142192840576172e-01,-3.435648977756500244e-02,7.398560643196105957e-03,2.931988537311553955e-01,-1.379392892122268677e-01,-1.625266820192337036e-01,-2.331857532262802124e-01,2.472454905509948730e-01,-3.705045953392982483e-02,-2.092225253582000732e-01,-1.483489125967025757e-01,-1.519671976566314697e-01,1.658877823501825333e-03,-3.706324473023414612e-02,-1.100079268217086792e-01,7.166171818971633911e-02,2.192959375679492950e-02,-1.650585047900676727e-02,-1.367509365081787109e-01,-2.508169412612915039e-01,-1.585593670606613159e-01,3.768280614167451859e-03,2.408970892429351807e-01,-1.138488668948411942e-02,2.345400005578994751e-01,1.191071718931198120e-01,-1.603617519140243530e-01,9.408918023109436035e-02,1.907431893050670624e-02,1.879775337874889374e-02
-2.992463409900665283e-01,-1.217763051390647888e-01,-1.223351880908012390e-01,-1.237819865345954895e-01,1.320477295666933060e-02,5.979508161544799805e-02,5.489017441868782043e-02,2.919801175594329834e-01,-6.872346997261047363e-02,-3.294769823551177979e-01,2.138315886259078979e-01,-2.981011271476745605e-01,1.964827440679073334e-02,-3.160297870635986328e-02,6.904338300228118896e-02,-7.265454530715942383e-02,3.158894479274749756e-01,-3.571147471666336060e-02,-5.682725831866264343e-02,1.308280825614929199e-01,-2.312205284833908081e-01,1.733631826937198639e-02,1.366778761148452759e-01,2.878671586513519287e-01,-1.596526801586151123e-01,-8.124263584613800049e-02,-2.895776927471160889e-01,1.464801877737045288e-01,-6.087553128600120544e-02,1.148682013154029846e-01,-2.102243006229400635e-01,-1.736224591732025146e-01,2.920944690704345703e-01,2.432337254285812378e-01,-1.074573397636413574e-02,1.559172719717025757e-01,-9.406481683254241943e-02,-2.343475446105003357e-02,5.807189643383026123e-02,-1.669625341892242432e-01,-1.417786329984664917e-01,1.705339103937149048e-01,-1.246754750609397888e-01,2.325115054845809937e-01,2.994579970836639404e-01,1.563798934221267700e-01,1.304367631673812866e-01,-1.310995072126388550e-01,-1.253245472908020020e-01,-1.037276536226272583e-01
-4.424478858709335327e-02,9.102015942335128784e-02,-2.369611412286758423e-01,8.764518052339553833e-02,1.353094875812530518e-01,2.382078766822814941e-02,6.157115846872329712e-02,-2.915755286812782288e-02,1.148781031370162964e-01,-1.807759143412113190e-02,1.604823172092437744e-01,2.196569740772247314e-01,2.438580384477972984e-03,-2.774863131344318390e-02,-1.233722362667322159e-02,2.624403685331344604e-02,-1.788234710693359375e-02,-2.085599303245544434e-01,-1.996729895472526550e-02,1.009481847286224365e-01,1.607491225004196167e-01,1.911239475011825562e-01,-1.713435649871826172e-01,-3.949073143303394318e-04,1.432754993438720703e-01,1.772512942552566528e-01,1.932630240917205811e-01,-1.865699142217636108e-01,-1.691467761993408203e-01,5.023142322897911072e-02,-1.085930913686752319e-01,-1.622428596019744873e-01,-1.641386374831199646e-02,-8.795889467000961304e-02,-2.372033298015594482e-01,-6.145364046096801758e-02,2.181481570005416870e-01,5.392210185527801514e-02,-1.672202907502651215e-02,6.227432936429977417e-02,2.349531203508377075e-01,1.752698123455047607e-01,2.287447005510330200e-01,-1.840765215456485748e-02,-5.455681681632995605e-02,8.912412822246551514e-02,1.998182982206344604e-01,-2.237799018621444702e-02,-1.073339283466339111e-01,1.233949288725852966e-01
8.439739048480987549e-02,5.479837208986282349e-02,-1.220059543848037720e-01,6.633464246988296509e-02,1.006590947508811951e-01,-1.922490745782852173e-01,2.496434375643730164e-03,6.819378584623336792e-02,1.695886999368667603e-01,2.315792292356491089e-01,-1.387891471385955811e-01,1.316775232553482056e-01,1.913245022296905518e-01,1.976938247680664062e-01,1.370103061199188232e-01,2.481593489646911621e-01,1.929351091384887695e-01,-1.051945015788078308e-01,1.862901896238327026e-01,1.158918887376785278e-01,3.309955820441246033e-02,2.443305253982543945e-01,2.290139049291610718e-01,-1.472164243459701538e-01,-1.402756422758102417e-01,2.373859286308288574e-01,-1.631867438554763794e-01,1.018062233924865723e-02,2.721285521984100342e-01,2.540877759456634521e-01,1.650989353656768799e-01,1.947193890810012817e-01,-5.204968526959419250e-02,-4.366151243448257446e-02,-7.732999324798583984e-02,9.961597621440887451e-02,-1.139206811785697937e-01,-4.537073895335197449e-02,1.199822276830673218e-01,-1.331216096878051758e-01,-1.259689331054687500e-01,8.160909637808799744e-03,-6.863504648208618164e-02,2.334953099489212036e-01,-1.100455969572067261e-01,2.223213762044906616e-01,1.163683235645294189e-01,-1.331408470869064331e-01,2.358585298061370850e-01,2.038126140832901001e-01
1.129322052001953125e-01,-1.855919808149337769e-01,4.247915744781494141e-02,1.516522914171218872e-01,-1.822829693555831909e-01,-1.604085266590118408e-01,2.234548479318618774e-01,3.480087816715240479e-01,2.829271852970123291e-01,-3.069559037685394287e-01,3.244348168373107910e-01,1.342570967972278595e-02,2.147650122642517090e-01,1.183418706059455872e-01,1.784079819917678833e-01,1.179528757929801941e-01,4.213227331638336182e-02,-1.228814870119094849e-01,-3.559499084949493408e-01,2.575113773345947266e-01,1.007195338606834412e-01,3.588168695569038391e-02,7.153223454952239990e-02,7.795818895101547241e-02,-2.489196695387363434e-02,-2.821471393108367920e-01,-2.438418567180633545e-01,-1.266590207815170288e-01,1.594989150762557983e-01,-2.798983752727508545e-01,-1.956985592842102051e-01,-1.907152086496353149e-01,1.421086117625236511e-02,8.247569948434829712e-02,1.484404504299163818e-02,-1.187552660703659058e-01,9.835071861743927002e-02,1.003965735435485840e-01,-2.156928181648254395e-01,1.098914667963981628e-01,1.612081825733184814e-01,2.968313694000244141e-01,1.339615732431411743e-01,-3.465297445654869080e-02,1.674406975507736206e-01,2.351200133562088013e-01,-1.805475652217864990e-01,5.486212670803070068e-02,-3.785295120906084776e-04,3.123970031738281250e-01
-2.425385564565658569e-01,-1.531376093626022339e-01,1.334436088800430298e-01,9.915557689964771271e-03,1.331766396760940552e-01,1.805529743432998657e-01,-1.175313815474510193e-01,2.616156637668609619e-01,1.131169274449348450e-01,-2.363180071115493774e-01,6.399419903755187988e-02,1.559832394123077393e-01,6.445640325546264648e-02,-9.067654609680175781e-02,7.813591510057449341e-02,6.758832186460494995e-02,-1.192808523774147034e-01,5.751953274011611938e-02,2.353193983435630798e-02,-2.021522372961044312e-01,-1.490107923746109009e-01,-2.057796567678451538e-01,2.123095840215682983e-01,-2.178341150283813477e-01,2.219808697700500488e-01,4.657477885484695435e-02,-5.954504013061523438e-04,2.749412134289741516e-02,-6.348956376314163208e-02,-2.371847927570343018e-01,-6.707399338483810425e-02,-1.618977189064025879e-01,4.295600578188896179e-02,4.942489787936210632e-02,1.076992005109786987e-01,6.726049631834030151e-02,-2.249702662229537964e-01,-1.964467912912368774e-01,1.837321072816848755e-01,2.025098651647567749e-01,-1.496605575084686279e-01,-8.482064306735992432e-02,1.553135514259338379e-01,7.882179319858551025e-02,3.950257226824760437e-02,-8.137837052345275879e-02,2.084146589040756226e-01,-2.000468969345092773e-01,-1.798804998397827148e-01,-1.587267667055130005e-01
-1.626769006252288818e-01,1.797824949026107788e-01,2.506761252880096436e-01,1.729898005723953247e-01,1.935845762491226196e-01,-6.919805705547332764e-02,3.139426112174987793e-01,2.709549069404602051e-01,-1.030385121703147888e-01,5.235728621482849121e-02,-2.381715894443914294e-04,-7.961717993021011353e-02,1.281274408102035522e-01,1.955844014883041382e-01,-3.977796435356140137e-02,1.175989024341106415e-02,1.484436690807342529e-01,2.754499018192291260e-01,-9.277477115392684937e-02,1.474031955003738403e-01,-2.957970201969146729e-01,1.449628621339797974e-01,-1.484019160270690918e-01,1.954478025436401367e-01,1.588222831487655640e-01,-8.529365062713623047e-02,-4.127908498048782349e-02,1.424403637647628784e-01,2.529052793979644775e-01,-2.361272573471069336e-01,-2.256468832492828369e-01,1.973222345113754272e-01,8.955222368240356445e-02,2.966240644454956055e-01,-5.294223129749298096e-02,1.201522722840309143e-01,-2.267414480447769165e-01,1.961814053356647491e-02,-7.509907335042953491e-02,1.151400506496429443e-01,1.486167460680007935e-01,9.490517526865005493e-02,3.034800589084625244e-01,-1.212645918130874634e-01,-1.206749752163887024e-01,1.258114129304885864e-01,2.354164272546768188e-01,1.701067835092544556e-01,-2.115404047071933746e-02,7.310562580823898315e-02
2.368289679288864136e-01,-1.288751661777496338e-01,-1.883817613124847412e-01,8.577100932598114014e-02,-2.090400904417037964e-01,1.194898933172225952e-01,-1.609042286872863770e-01,1.451573073863983154e-01,1.182854697108268738e-01,1.612948924303054810e-01,2.649138309061527252e-02,-1.803345680236816406e-01,6.398431211709976196e-02,-7.848329842090606689e-02,1.109450533986091614e-01,1.567419320344924927e-01,1.747413128614425659e-01,-2.419896274805068970e-01,-2.893815049901604652e-03,3.914305940270423889e-02,1.243700534105300903e-01,1.617273986339569092e-01,-4.354216158390045166e-02,2.822933718562126160e-02,-1.475792080163955688e-01,1.807587891817092896e-01,-2.211855538189411163e-02,-5.644504725933074951e-02,-9.141790121793746948e-02,-7.268986105918884277e-02,2.644338905811309814e-01,1.235732808709144592e-01,2.232513576745986938e-01,-9.133567661046981812e-02,3.151027858257293701e-02,-7.275030016899108887e-02,2.099505998194217682e-02,2.985271811485290527e-02,-2.466134130954742432e-01,2.165228426456451416e-01,6.861775368452072144e-02,-1.720649152994155884e-01,9.889534860849380493e-02,4.419045150279998779e-02,-1.714498102664947510e-01,-2.231977432966232300e-01,2.461225837469100952e-01,-1.795827746391296387e-01,-2.290392294526100159e-03,-2.116530090570449829e-01
-3.816215395927429199e-01,-2.091690897941589355e-01,3.108531534671783447e-01,-3.282724320888519287e-02,3.151109069585800171e-02,-2.179791331291198730e-01,-9.040507487952709198e-03,3.845326304435729980e-01,-3.823836147785186768e-02,-3.367954790592193604e-01,-1.694774255156517029e-02,-3.307418823242187500e-01,-3.404309228062629700e-02,1.404143720865249634e-01,-1.020138040184974670e-01,-7.411987334489822388e-02,3.556393831968307495e-02,2.924287021160125732e-01,5.498368665575981140e-02,1.423553079366683960e-01,-5.865150596946477890e-03,3.690362274646759033e-01,-7.591372728347778320e-02,3.103905916213989258e-01,1.057747751474380493e-01,1.232778769917786121e-03,-1.918335855007171631e-01,3.015756607055664062e-01,3.144941329956054688e-01,-3.596366047859191895e-01,-3.669644892215728760e-01,1.705696731805801392e-01,2.243040502071380615e-01,2.322233468294143677e-01,2.164644747972488403e-01,1.875833421945571899e-01,-8.843890577554702759e-02,3.997435569763183594e-01,1.461706757545471191e-01,-1.621565073728561401e-01,-3.503476381301879883e-01,2.452132403850555420e-01,-5.366301536560058594e-02,1.892170459032058716e-01,-2.472937107086181641e-02,9.675477445125579834e-02,1.643275022506713867e-01,-1.309880763292312622e-01,-6.778412312269210815e-02,2.519550621509552002e-01
-9.264703094959259033e-02,1.782726347446441650e-01,6.045308709144592285e-02,2.892960309982299805e-01,2.142154872417449951e-01,1.011883318424224854e-01,1.199637278914451599e-01,-2.169178985059261322e-02,-3.146869828924536705e-03,-2.034843116998672485e-01,3.036086820065975189e-02,-1.192296296358108521e-01,2.046327739953994751e-01,1.935889886226505041e-04,1.721895635128021240e-01,2.590576112270355225e-01,2.302834689617156982e-01,1.550915092229843140e-01,6.291873008012771606e-02,2.308454364538192749e-01,-1.758172065019607544e-01,1.528189331293106079e-01,-1.823132634162902832e-01,1.303942501544952393e-01,-1.260514259338378906e-01,1.828137189149856567e-01,-3.069477677345275879e-01,5.372731015086174011e-02,-1.148393079638481140e-01,-1.506853550672531128e-01,-2.141114175319671631e-01,-1.645048558712005615e-01,1.344385147094726562e-01,3.621908426284790039e-01,1.574245542287826538e-01,1.680911630392074585e-01,-8.409305661916732788e-02,-6.684363633394241333e-02,-2.255220264196395874e-01,-2.807548046112060547e-01,-9.933222085237503052e-02,2.459834814071655273e-01,2.011657506227493286e-01,4.290124028921127319e-02,1.289544552564620972e-01,1.388491690158843994e-02,1.093077659606933594e-01,-1.701763272285461426e-01,-3.579398244619369507e-02,1.215356513857841492e-01
-3.554522409103810787e-04,9.016380459070205688e-02,1.538909785449504852e-02,-3.683266416192054749e-02,-2.128620743751525879e-01,8.852363377809524536e-02,-1.169367283582687378e-01,-7.301567494869232178e-02,6.591619551181793213e-02,2.255503982305526733e-01,2.036960124969482422e-01,-1.015277653932571411e-01,1.551133990287780762e-01,5.148898437619209290e-02,5.588368978351354599e-03,1.091226860880851746e-01,1.755829155445098877e-01,5.343687161803245544e-02,6.698264181613922119e-02,-1.013556644320487976e-01,-9.316392987966537476e-02,9.794056415557861328e-02,-1.105065494775772095e-01,-8.618935197591781616e-02,-2.244664132595062256e-01,-1.807760298252105713e-01,-1.750622540712356567e-01,1.533278077840805054e-01,-1.580275744199752808e-01,2.554408311843872070e-01,1.609413772821426392e-01,-1.056940760463476181e-02,3.760731965303421021e-02,2.930150926113128662e-01,-3.014066815376281738e-02,-1.599697768688201904e-01,5.910646542906761169e-02,-6.923349201679229736e-02,-1.009663790464401245e-01,9.338267892599105835e-02,-1.025555506348609924e-01,1.955559104681015015e-01,2.477966994047164917e-02,-1.569505222141742706e-02,1.251648068428039551e-01,-1.868690252304077148e-01,2.260544151067733765e-01,5.745730549097061157e-02,1.467890441417694092e-01,5.949065089225769043e-02
-1.046432480216026306e-01,-2.349636703729629517e-01,-2.070433795452117920e-01,-1.087223216891288757e-01,-3.503499925136566162e-02,-8.385456167161464691e-03,-1.812073439359664917e-01,-1.817656755447387695e-01,3.410902246832847595e-02,2.731383442878723145e-01,1.665858030319213867e-01,-1.900103390216827393e-01,-1.771414875984191895e-01,-2.501261830329895020e-01,-1.119193434715270996e-01,1.903393268585205078e-01,8.544140309095382690e-02,-3.298678994178771973e-02,5.495840683579444885e-03,2.449093908071517944e-01,-5.205183476209640503e-02,-2.115930169820785522e-01,1.930494606494903564e-02,-1.868124455213546753e-01,2.482670992612838745e-01,2.620629072189331055e-01,-1.283669918775558472e-01,-3.875820338726043701e-02,3.478071466088294983e-02,1.569418162107467651e-01,1.941615641117095947e-01,-2.204361408948898315e-01,-1.409751474857330322e-01,-1.647460013628005981e-01,-2.043672502040863037e-01,2.767150998115539551e-01,1.974226981401443481e-01,5.063691642135381699e-03,-1.377049237489700317e-01,-1.980899721384048462e-01,-7.726416736841201782e-02,2.360219508409500122e-02,6.462199985980987549e-02,2.594763040542602539e-01,1.177607104182243347e-01,-9.990115463733673096e-02,1.421599090099334717e-01,2.158923745155334473e-01,-5.868206173181533813e-02,1.433018296957015991e-01
-1.292969435453414917e-01,2.085165381431579590e-01,2.514346539974212646e-01,1.272183470427989960e-02,1.237622201442718506e-01,-2.780319936573505402e-02,1.450911723077297211e-02,1.546795070171356201e-01,-2.467868030071258545e-01,-1.767429411411285400e-01,3.283599019050598145e-02,2.318268269300460815e-02,-2.409753948450088501e-01,-1.243518143892288208e-01,-1.222731247544288635e-01,2.621207833290100098e-01,-4.816248640418052673e-02,2.715733647346496582e-01,-2.857614867389202118e-02,1.203722134232521057e-01,1.605603843927383423e-01,-1.564603596925735474e-01,1.570056825876235962e-01,-3.559511154890060425e-02,1.044617742300033569e-01,-2.951962687075138092e-02,8.833422511816024780e-02,-1.132134422659873962e-01,7.829610258340835571e-02,-3.272810578346252441e-02,-3.221445716917514801e-03,-6.982564181089401245e-02,8.338686823844909668e-02,5.841638892889022827e-02,2.336909621953964233e-01,1.485529690980911255e-01,-7.722955942153930664e-02,1.822965890169143677e-01,7.328956574201583862e-02,2.575522661209106445e-01,1.991418600082397461e-01,2.698941528797149658e-01,1.967818662524223328e-02,-1.643664538860321045e-01,7.534752786159515381e-02,5.523233115673065186e-02,2.752116918563842773e-01,-2.007007002830505371e-01,9.126598387956619263e-02,7.153443992137908936e-02
-3.116959035396575928e-01,-1.039264649152755737e-01,1.391388475894927979e-01,-1.350383181124925613e-02,-7.888554781675338745e-02,9.748232364654541016e-02,2.110110074281692505e-01,2.323233336210250854e-01,3.003917634487152100e-01,-3.838549554347991943e-01,2.817635051906108856e-02,-3.589173778891563416e-03,3.729399293661117554e-02,-2.283046841621398926e-01,-2.012053281068801880e-01,2.050054073333740234e-01,3.079051077365875244e-01,2.870703041553497314e-01,2.910153754055500031e-02,1.027792766690254211e-01,-1.943358778953552246e-01,1.606163084506988525e-01,-2.274104505777359009e-01,2.635078430175781250e-01,-7.550188153982162476e-02,-3.563971221446990967e-01,-3.672616928815841675e-02,1.388407647609710693e-01,1.165139824151992798e-01,-1.818052083253860474e-01,8.751062676310539246e-03,5.911191925406455994e-03,5.539190769195556641e-02,2.455613464117050171e-01,-2.133279591798782349e-01,-2.645962685346603394e-02,9.541425108909606934e-02,3.435255289077758789e-01,-2.443817257881164551e-01,-1.888864338397979736e-01,7.142306864261627197e-02,1.530948430299758911e-01,1.921548247337341309e-01,1.573889143764972687e-02,2.242566347122192383e-01,-2.392323911190032959e-01,-3.783993795514106750e-02,-1.879107207059860229e-01,1.730094552040100098e-01,2.550235092639923096e-01
-1.393668949604034424e-01,-1.045782212167978287e-02,1.622630655765533447e-01,1.606910973787307739e-01,-9.539287537336349487e-03,-1.699836552143096924e-01,2.988225221633911133e-01,-5.491138622164726257e-02,7.798743247985839844e-02,1.368918567895889282e-01,3.537809103727340698e-02,9.845369309186935425e-02,-1.914445683360099792e-02,-4.058935120701789856e-02,1.873555034399032593e-01,-7.271236181259155273e-02,6.667728722095489502e-02,2.232796400785446167e-01,-1.063118800520896912e-01,-1.524392608553171158e-02,-5.737226083874702454e-02,1.307598948478698730e-01,-2.927371859550476074e-02,8.406259119510650635e-03,-3.642120957374572754e-02,-1.514761149883270264e-01,1.176863685250282288e-01,2.155628800392150879e-01,3.881276119500398636e-03,-8.683668822050094604e-02,1.074015349149703979e-01,7.274074107408523560e-02,-1.118068248033523560e-01,1.953666806221008301e-01,3.440722823143005371e-03,2.083989977836608887e-01,-1.557140350341796875e-01,-1.246071681380271912e-01,9.486351162195205688e-03,-5.124905332922935486e-02,1.495944857597351074e-01,2.246519476175308228e-01,-7.162579149007797241e-02,1.268332600593566895e-01,2.105754986405372620e-02,-1.472710520029067993e-01,-2.031011432409286499e-01,6.701499223709106445e-02,2.141795754432678223e-01,1.212029531598091125e-01
2.156382352113723755e-01,-4.465168714523315430e-02,-8.115632459521293640e-03,-8.587063848972320557e-02,-1.073360741138458252e-01,4.302775487303733826e-02,1.545216143131256104e-01,4.101426154375076294e-02,-2.188203483819961548e-02,1.242041960358619690e-01,-6.684520840644836426e-02,-1.367222815752029419e-01,-1.031835228204727173e-01,1.689699888229370117e-01,-1.346174925565719604e-01,-1.602518856525421143e-01,-1.141515560448169708e-02,2.511720061302185059e-01,8.208798617124557495e-02,-5.690522491931915283e-03,1.679860651493072510e-01,-2.481922060251235962e-01,-1.988801658153533936e-01,-2.268598377704620361e-01,-1.959380209445953369e-01,1.716171652078628540e-01,-8.314067870378494263e-02,1.824422776699066162e-01,5.119252577424049377e-02,-4.881668835878372192e-02,-5.642212554812431335e-02,-1.057780161499977112e-01,-4.908999428153038025e-02,-6.360191106796264648e-02,-6.214150786399841309e-02,9.558189660310745239e-02,-1.153119802474975586e-01,1.840089410543441772e-01,-3.428339958190917969e-02,-9.820159524679183960e-02,2.117256373167037964e-01,-1.740249991416931152e-02,4.637812450528144836e-02,2.562249004840850830e-01,-9.455493837594985962e-02,-8.000893890857696533e-02,-5.254893004894256592e-02,-3.698271885514259338e-02,5.437372997403144836e-02,9.170147031545639038e-02
-1.066867634654045105e-01,-8.483566343784332275e-02,1.935608536005020142e-01,3.047856688499450684e-01,-5.205920338630676270e-02,-9.214481338858604431e-03,3.092639446258544922e-01,2.802459895610809326e-01,1.848841458559036255e-01,-3.060185015201568604e-01,-7.675715535879135132e-02,-2.250472307205200195e-01,4.891072958707809448e-02,-1.929068267345428467e-01,1.890208013355731964e-02,-1.422967854887247086e-02,8.790218830108642578e-02,-1.419062316417694092e-01,-4.039360210299491882e-02,2.876986861228942871e-01,-3.088451623916625977e-01,-3.430648148059844971e-02,1.635730415582656860e-01,2.133382260799407959e-01,-1.689455285668373108e-02,3.124023228883743286e-02,-1.237496361136436462e-01,-7.717721164226531982e-02,3.533561825752258301e-01,5.187639966607093811e-02,-4.368988424539566040e-02,-2.464224584400653839e-02,4.464640095829963684e-02,3.245709240436553955e-01,-1.036238372325897217e-01,3.299857378005981445e-01,-5.020185932517051697e-02,6.580046564340591431e-02,-2.459277212619781494e-01,-2.953391969203948975e-01,-1.831017136573791504e-01,2.871884107589721680e-01,1.300982385873794556e-01,1.198841072618961334e-02,2.304719835519790649e-01,-9.173193573951721191e-02,9.780082106590270996e-02,-1.184095144271850586e-01,1.080976724624633789e-01,-8.487317711114883423e-03
-2.411240339279174805e-01,1.157385408878326416e-01,-7.610181719064712524e-02,-1.036778688430786133e-01,1.007328927516937256e-01,-2.220719158649444580e-01,1.215954273939132690e-01,2.211872637271881104e-01,2.522246241569519043e-01,4.454866051673889160e-03,6.078287959098815918e-02,-1.611204147338867188e-01,-8.112474530935287476e-02,1.541360020637512207e-01,-1.641000509262084961e-01,2.778207361698150635e-01,8.061362057924270630e-02,-1.024750098586082458e-01,-1.140610724687576294e-01,3.097825348377227783e-01,9.615156799554824829e-02,1.938232034444808960e-01,5.872696638107299805e-04,1.404694020748138428e-01,-2.874516546726226807e-01,-1.006399244070053101e-01,-1.552776694297790527e-01,-4.521468281745910645e-02,3.115862011909484863e-01,-1.896139383316040039e-01,-4.446965083479881287e-02,-2.261001765727996826e-01,1.197282522916793823e-01,1.007366031408309937e-01,1.098104268312454224e-01,-3.195219486951828003e-02,1.576422750949859619e-01,2.760683298110961914e-01,6.114950031042098999e-02,-2.045609205961227417e-01,-1.675847768783569336e-01,-9.964857995510101318e-02,3.631911054253578186e-02,-1.523382961750030518e-01,4.633748158812522888e-02,-1.019693464040756226e-01,8.870515227317810059e-02,2.454839646816253662e-03,2.150679677724838257e-01,7.047973573207855225e-02
9.439618140459060669e-02,-8.387678861618041992e-02,1.995190083980560303e-01,5.986848101019859314e-02,-1.134055703878402710e-01,-1.589654833078384399e-01,-8.790598809719085693e-02,2.615969255566596985e-02,-1.902909427881240845e-01,-1.000986769795417786e-01,-2.211842499673366547e-02,-2.119041085243225098e-01,-2.232111245393753052e-01,2.117603123188018799e-01,1.382527500391006470e-01,6.365027278661727905e-02,-2.251989394426345825e-01,-1.184746250510215759e-01,1.175047382712364197e-01,-7.921620272099971771e-03,9.438157081604003906e-02,1.680997461080551147e-01,4.280431568622589111e-02,-6.433496624231338501e-02,2.007231414318084717e-01,-4.049806855618953705e-03,-1.085738092660903931e-01,2.809844724833965302e-02,1.360536552965641022e-03,-3.013330698013305664e-02,1.640550345182418823e-01,-1.556034684181213379e-01,-4.842782765626907349e-02,1.430260539054870605e-01,1.293385177850723267e-01,-1.671331673860549927e-01,-1.964637339115142822e-01,8.973904699087142944e-02,2.318611592054367065e-01,2.048658877611160278e-01,2.266269475221633911e-01,-1.655313372611999512e-01,1.856791228055953979e-01,1.942838132381439209e-01,-1.762134730815887451e-01,-1.121859699487686157e-01,-2.050130814313888550e-01,-1.375256031751632690e-01,1.586468704044818878e-02,1.388783603906631470e-01
-2.103614062070846558e-01,-2.427485585212707520e-01,1.197166964411735535e-01,9.379272162914276123e-02,1.866813600063323975e-01,-2.732363641262054443e-01,1.885651350021362305e-01,1.201266050338745117e-01,9.580313414335250854e-02,1.734305471181869507e-01,1.479430049657821655e-01,-2.680806219577789307e-01,-9.283003956079483032e-02,1.505804061889648438e-01,-2.125817723572254181e-02,1.107113882899284363e-01,3.008266687393188477e-01,1.780513972043991089e-01,7.093993574380874634e-02,2.942452430725097656e-01,-1.860571093857288361e-02,1.570812910795211792e-01,1.494874060153961182e-02,1.488865017890930176e-01,1.044873222708702087e-01,8.909803628921508789e-02,-3.290831148624420166e-01,2.555378079414367676e-01,6.394508481025695801e-02,8.187943696975708008e-02,-4.983051866292953491e-02,2.099212259054183960e-01,2.799849808216094971e-01,-6.300958991050720215e-02,-8.390167355537414551e-02,1.608793139457702637e-01,-4.483775049448013306e-02,5.402609333395957947e-02,-7.212565839290618896e-02,-2.904165089130401611e-01,1.434795856475830078e-01,7.331705838441848755e-02,-1.332669854164123535e-01,-1.478954218327999115e-02,1.222689598798751831e-01,-2.262518554925918579e-01,-4.705448076128959656e-02,-2.494526654481887817e-01,2.207301706075668335e-01,2.308749854564666748e-01
-3.469830006361007690e-02,1.583039313554763794e-01,-4.627800360321998596e-02,-9.803232550621032715e-02,9.989715367555618286e-02,1.467720884829759598e-02,2.682453393936157227e-01,1.624170243740081787e-01,3.122527599334716797e-01,1.548662781715393066e-01,2.965394854545593262e-01,-8.791152387857437134e-02,-1.240594312548637390e-01,1.064429953694343567e-01,-5.940994620323181152e-02,-1.003408581018447876e-01,-2.470024337526410818e-04,-9.562073647975921631e-02,-1.780361831188201904e-01,4.163607954978942871e-02,-1.290258020162582397e-01,4.804622381925582886e-03,2.229870408773422241e-01,1.975547373294830322e-01,-2.216902524232864380e-01,1.644038408994674683e-01,-2.862142324447631836e-01,2.735747098922729492e-01,-6.878864765167236328e-02,-8.234158903360366821e-02,-5.098871886730194092e-02,-6.998086720705032349e-02,1.000653728842735291e-01,-2.747766301035881042e-02,3.035096824169158936e-02,-7.460917532444000244e-02,4.457721486687660217e-03,2.328210510313510895e-02,1.473368853330612183e-01,1.641469299793243408e-01,1.003104969859123230e-01,1.799513548612594604e-01,1.117447391152381897e-01,3.080066144466400146e-01,1.189276725053787231e-01,-3.319928050041198730e-02,1.570529192686080933e-01,6.314578652381896973e-02,1.965566873550415039e-01,1.323662400245666504e-01
-2.038307636976242065e-01,1.573738008737564087e-01,5.671799182891845703e-02,-4.244862496852874756e-02,-1.605894416570663452e-01,-3.565548658370971680e-01,1.671412028372287750e-02,3.706387579441070557e-01,1.706407405436038971e-02,-1.193767562508583069e-01,-3.752885013818740845e-02,-3.276299312710762024e-02,1.419226080179214478e-01,-5.807361751794815063e-02,-2.205061912536621094e-01,3.870992958545684814e-01,3.040235042572021484e-01,2.229260355234146118e-01,-2.210476547479629517e-01,2.217448353767395020e-01,-3.512005805969238281e-01,3.651497066020965576e-01,-5.585740506649017334e-02,4.368385672569274902e-01,-4.935402050614356995e-02,-2.556165456771850586e-01,-8.472090959548950195e-02,1.816957443952560425e-01,3.063509166240692139e-01,-9.564988315105438232e-02,-1.044746115803718567e-01,-2.294643968343734741e-01,2.275407612323760986e-01,3.092795014381408691e-01,1.208199560642242432e-02,2.044328004121780396e-01,1.409701108932495117e-01,3.383632600307464600e-01,2.191439867019653320e-01,-1.331000924110412598e-01,1.638305038213729858e-01,1.411638110876083374e-01,1.250651031732559204e-01,2.615255415439605713e-01,1.873502284288406372e-01,2.437948733568191528e-01,2.273756116628646851e-01,1.958041638135910034e-01,3.996424078941345215e-01,1.895758062601089478e-01
1.225515976548194885e-01,-1.123993694782257080e-01,-3.230677917599678040e-02,1.839764267206192017e-01,-2.206387668848037720e-01,-2.171996533870697021e-01,1.579033285379409790e-01,3.512623608112335205e-01,1.948195993900299072e-01,-3.015848100185394287e-01,-9.978124499320983887e-02,-1.002482771873474121e-01,1.180545985698699951e-02,-1.820651888847351074e-01,-2.098199427127838135e-01,3.442542850971221924e-01,4.057470709085464478e-02,2.064387649297714233e-01,-3.600053489208221436e-01,3.418420553207397461e-01,-1.453622877597808838e-01,3.215558230876922607e-01,2.076620608568191528e-01,1.117465645074844360e-01,3.383715078234672546e-02,-1.403404921293258667e-01,-5.412507057189941406e-02,1.098899766802787781e-01,3.092582225799560547e-01,-3.694650828838348389e-01,-3.067944198846817017e-02,-1.157748997211456299e-01,3.259099423885345459e-01,-3.505606576800346375e-02,7.868166267871856689e-02,-6.053987517952919006e-02,-1.766833215951919556e-01,-5.873715505003929138e-02,1.547793000936508179e-01,-7.393012754619121552e-03,6.173560768365859985e-02,1.875466704368591309e-01,2.225692570209503174e-01,2.823200821876525879e-02,-5.169858410954475403e-02,-1.976968646049499512e-01,-1.212935671210289001e-01,-8.812889456748962402e-02,2.433930188417434692e-01,4.983187839388847351e-02
-2.314854115247726440e-01,-9.349733591079711914e-03,1.367278248071670532e-01,6.199248135089874268e-02,7.239479571580886841e-02,-2.524555325508117676e-01,-1.823099097236990929e-03,-5.588928237557411194e-02,2.911725938320159912e-01,-3.291216120123863220e-02,1.934076249599456787e-01,-2.157944254577159882e-02,-2.598143517971038818e-01,-8.302363008260726929e-02,7.569538056850433350e-02,8.521646261215209961e-02,3.354176580905914307e-01,5.587684456259012222e-03,-3.914339002221822739e-03,2.696985900402069092e-01,-2.203913033008575439e-01,1.744295097887516022e-02,-7.207576930522918701e-02,3.914789557456970215e-01,-1.077610850334167480e-01,-2.990372478961944580e-01,-9.973132610321044922e-02,1.567623615264892578e-01,-5.331995338201522827e-02,-5.563626438379287720e-02,-3.874975144863128662e-01,1.700272262096405029e-01,4.067680239677429199e-01,1.722200810909271240e-01,4.613099992275238037e-02,3.516351878643035889e-01,-2.018502503633499146e-01,3.563651144504547119e-01,1.068387776613235474e-01,1.424833238124847412e-01,-1.996502876281738281e-01,1.510810405015945435e-01,2.796227931976318359e-01,-7.536769658327102661e-02,5.655204132199287415e-02,-7.270602881908416748e-02,2.762238979339599609e-01,1.852745413780212402e-01,3.169388473033905029e-01,8.734538406133651733e-02
-1.578970998525619507e-01,1.575994044542312622e-01,1.798862665891647339e-01,-1.619329154491424561e-01,-7.469002902507781982e-02,1.085757911205291748e-01,-5.137196183204650879e-02,-2.970881573855876923e-02,2.036772966384887695e-01,-1.113113835453987122e-01,2.582882642745971680e-01,2.326199412345886230e-01,7.467496395111083984e-02,-2.273040413856506348e-01,-6.603278964757919312e-02,2.814470417797565460e-02,2.631131708621978760e-01,7.287617027759552002e-02,1.603751778602600098e-01,1.493592560291290283e-02,4.557644575834274292e-02,4.849847778677940369e-02,7.600195705890655518e-02,1.848936527967453003e-01,1.854090094566345215e-01,2.346386015415191650e-01,2.511819303035736084e-01,2.774043381214141846e-01,-1.074188873171806335e-01,1.702391207218170166e-01,5.343437660485506058e-03,-1.699988991022109985e-01,-1.582660228013992310e-01,-9.104836732149124146e-02,-1.375455856323242188e-01,-7.281132787466049194e-02,2.525862157344818115e-01,-1.915931403636932373e-01,1.917165070772171021e-01,1.763209402561187744e-01,1.942912191152572632e-01,-2.686189301311969757e-02,-6.813172250986099243e-02,2.586356699466705322e-01,2.185469679534435272e-02,-1.741421222686767578e-01,4.470673948526382446e-02,-5.902570486068725586e-02,-3.932274132966995239e-02,1.523984968662261963e-02
2.002397477626800537e-01,-3.760358691215515137e-02,2.628590762615203857e-01,3.112174756824970245e-02,1.310397963970899582e-02,6.317752599716186523e-02,-1.228591706603765488e-02,2.244414687156677246e-01,4.566412046551704407e-02,-1.046053916215896606e-01,3.972782194614410400e-02,-1.352536380290985107e-01,-1.099436134099960327e-01,1.055000498890876770e-01,2.513389661908149719e-02,2.873916327953338623e-01,1.810584217309951782e-01,1.287302672863006592e-01,-7.173884660005569458e-02,1.422771066427230835e-01,-2.093207538127899170e-01,8.917701244354248047e-02,1.083814054727554321e-01,2.455438524484634399e-01,2.000310570001602173e-01,2.712002098560333252e-01,1.993450373411178589e-01,2.858142256736755371e-01,2.244424670934677124e-01,2.854661643505096436e-01,-8.330636471509933472e-02,1.508247554302215576e-01,2.440171986818313599e-01,-6.730266660451889038e-02,-2.237471193075180054e-01,-6.192206591367721558e-02,6.794691830873489380e-02,1.593375056982040405e-01,3.407345153391361237e-03,6.022576242685317993e-03,2.784692645072937012e-01,-1.247639674693346024e-02,2.648027241230010986e-01,2.376383356750011444e-02,2.229083329439163208e-01,3.871507942676544189e-02,1.339039951562881470e-01,-1.444200724363327026e-01,-2.367081344127655029e-01,-1.287656128406524658e-01
1.693958193063735962e-01,-9.205366671085357666e-02,2.923409640789031982e-01,-1.156042441725730896e-01,1.548956707119941711e-02,-3.296231031417846680e-01,1.321720331907272339e-01,-7.701040059328079224e-02,-3.963300585746765137e-02,1.018468439579010010e-01,3.418553173542022705e-01,8.378732204437255859e-02,6.147485971450805664e-02,-2.636713981628417969e-01,-1.240060627460479736e-01,1.005782634019851685e-01,2.626933455467224121e-01,4.227250069379806519e-02,-2.473883181810379028e-01,2.138613015413284302e-01,-3.129418194293975830e-02,1.306216418743133545e-01,-2.104341983795166016e-03,-2.144516259431838989e-02,-1.922639310359954834e-01,-1.915789395570755005e-01,-1.627703942358493805e-02,2.080522924661636353e-01,-3.511961176991462708e-02,-2.038124203681945801e-01,-3.489161133766174316e-01,7.035887986421585083e-02,3.156934082508087158e-01,8.607165515422821045e-02,4.645903408527374268e-02,-3.102252632379531860e-02,2.623698115348815918e-01,1.590849012136459351e-01,-2.557059824466705322e-01,1.492021977901458740e-01,-1.737490296363830566e-02,-2.372295409440994263e-02,1.152294203639030457e-01,-4.837883170694112778e-03,1.903589069843292236e-02,-1.090137809514999390e-01,-4.829148575663566589e-02,1.780177801847457886e-01,1.690872758626937866e-01,-1.008418798446655273e-01
-2.853199839591979980e-01,-7.048179209232330322e-02,3.728369772434234619e-01,2.665227651596069336e-01,1.235142052173614502e-01,-1.424910873174667358e-01,1.381140500307083130e-01,-2.084011025726795197e-02,1.389124691486358643e-01,-3.102154433727264404e-01,-5.715427547693252563e-02,1.124617382884025574e-01,4.710353165864944458e-02,-1.343461126089096069e-01,-1.769565790891647339e-02,1.863716840744018555e-01,2.829735875129699707e-01,3.046342730522155762e-01,-1.435513142496347427e-02,4.134731367230415344e-03,-6.660192459821701050e-02,-2.811820432543754578e-02,-2.681255340576171875e-02,-5.138269811868667603e-02,-1.732994318008422852e-01,-3.899473324418067932e-02,-6.521884351968765259e-02,2.397412508726119995e-01,1.548831164836883545e-02,-1.879443973302841187e-01,-6.908699870109558105e-02,1.610393971204757690e-01,2.447621971368789673e-01,-8.508568257093429565e-02,1.033349335193634033e-02,5.401873588562011719e-02,1.632436662912368774e-01,1.615771204233169556e-01,-5.128687247633934021e-02,-1.892508268356323242e-01,-2.838537693023681641e-01,2.088982313871383667e-01,-1.266047209501266479e-01,1.410500109195709229e-01,3.356633186340332031e-01,1.569546759128570557e-02,1.248378530144691467e-01,-1.479864567518234253e-01,2.989765107631683350e-01,9.005441516637802124e-02
1.252443194389343262e-01,-2.203711541369557381e-03,-2.420440614223480225e-01,-1.191438436508178711e-01,-6.389211118221282959e-02,-4.313008114695549011e-02,-3.377078101038932800e-02,-2.911456115543842316e-02,7.778818160295486450e-02,1.869818866252899170e-01,-2.032051086425781250e-01,2.691182494163513184e-01,-1.090451925992965698e-01,1.468341797590255737e-01,-8.739472925662994385e-02,7.650042325258255005e-02,1.809807866811752319e-01,-6.534579396247863770e-02,-1.328628063201904297e-01,-1.229775920510292053e-01,2.905262410640716553e-01,1.073437482118606567e-01,-2.342122942209243774e-01,2.386375963687896729e-01,-1.215301379561424255e-01,9.502191841602325439e-02,4.257370531558990479e-02,-1.702143996953964233e-01,-5.261319875717163086e-02,2.013754546642303467e-01,1.760743856430053711e-01,-9.279461577534675598e-03,7.444346696138381958e-02,-1.658257544040679932e-01,-4.247879981994628906e-02,7.404121570289134979e-03,-1.241657286882400513e-01,5.522887036204338074e-02,-1.185929402709007263e-01,2.771973907947540283e-01,-1.147812306880950928e-01,1.183163672685623169e-01,-2.701860666275024414e-02,2.361981421709060669e-01,7.537866476923227310e-03,1.904411464929580688e-01,-6.484480947256088257e-02,-2.369838804006576538e-01,1.566524207592010498e-01,-8.308458328247070312e-02
-4.201817512512207031e-02,-2.217070460319519043e-01,-5.059343203902244568e-02,4.404499381780624390e-02,1.884275972843170166e-01,-1.984477043151855469e-01,-1.175291836261749268e-02,-7.431662082672119141e-02,6.184857338666915894e-02,-1.131168082356452942e-01,-1.554945558309555054e-01,-1.060877889394760132e-01,-5.222209915518760681e-02,2.283252477645874023e-01,-1.617760360240936279e-01,1.636128127574920654e-01,8.314163982868194580e-02,-8.515202254056930542e-02,-2.623196840286254883e-01,1.935876756906509399e-01,1.227039750665426254e-02,3.000963628292083740e-01,-2.197267115116119385e-01,5.758515000343322754e-02,-1.525836139917373657e-01,-5.303376168012619019e-02,-2.055917233228683472e-01,-1.123085394501686096e-01,3.345758616924285889e-01,-3.889127448201179504e-02,1.408030688762664795e-01,1.912505775690078735e-01,-1.347803026437759399e-01,2.742086648941040039e-01,-2.016181647777557373e-01,3.116454482078552246e-01,1.597515195608139038e-01,2.733050584793090820e-01,7.309117168188095093e-02,-2.243677526712417603e-01,-6.922613829374313354e-02,1.785970628261566162e-01,-4.893510602414608002e-03,-3.306896239519119263e-02,-1.256882250308990479e-01,5.060224235057830811e-02,-5.000786483287811279e-02,-1.510740518569946289e-01,1.553867012262344360e-01,1.950144618749618530e-01
-4.072537645697593689e-02,-2.225144654512405396e-01,-9.719426184892654419e-02,2.403817176818847656e-01,7.861259579658508301e-02,-1.849035322666168213e-01,2.612596452236175537e-01,6.969533115625381470e-02,5.736554414033889771e-02,-1.161578968167304993e-01,3.875779360532760620e-02,1.239014714956283569e-01,1.748461127281188965e-01,1.259628981351852417e-01,-4.553370643407106400e-03,2.020187973976135254e-01,-6.604263093322515488e-03,1.115068867802619934e-01,-8.410766720771789551e-02,2.937464416027069092e-01,-1.974940448999404907e-01,-8.948101848363876343e-02,-1.623315215110778809e-01,1.989692598581314087e-01,1.073392182588577271e-01,-8.946136385202407837e-02,9.434704482555389404e-02,9.009706228971481323e-02,1.454357504844665527e-01,4.009008407592773438e-02,-3.322513997554779053e-01,2.267203330993652344e-01,3.145412206649780273e-01,2.309130728244781494e-01,-4.632820188999176025e-02,1.853398419916629791e-02,-1.851413026452064514e-02,2.169717401266098022e-01,1.653705388307571411e-01,-2.661541402339935303e-01,-2.092271149158477783e-01,-1.074950918555259705e-01,2.364599257707595825e-01,5.040699988603591919e-02,-1.633035205304622650e-02,-1.070860475301742554e-01,-2.494913898408412933e-02,-1.756552904844284058e-01,2.121028304100036621e-01,8.507938124239444733e-03
2.886786311864852905e-02,-3.153005242347717285e-02,-1.658513098955154419e-01,-1.499897390604019165e-01,1.809065490961074829e-01,2.415415793657302856e-01,-3.637777641415596008e-02,-2.260985672473907471e-01,3.126780688762664795e-02,1.201905086636543274e-01,7.860404253005981445e-02,1.339121311902999878e-01,-2.189666479825973511e-01,1.308592408895492554e-01,1.149586066603660583e-01,2.566145658493041992e-01,2.015759497880935669e-01,1.457516252994537354e-01,-6.969148665666580200e-02,-2.312083989381790161e-01,1.314084529876708984e-01,-6.126672402024269104e-02,-2.258907556533813477e-01,-5.443730577826499939e-02,1.785670071840286255e-01,-4.959024116396903992e-02,-1.574317067861557007e-01,9.611409157514572144e-02,1.724027246236801147e-01,1.365195363759994507e-01,-3.706658631563186646e-02,-1.034792512655258179e-01,4.370004683732986450e-02,1.134852841496467590e-01,-1.420111656188964844e-01,1.245905160903930664e-01,-1.254993677139282227e-02,-1.910587190650403500e-03,-1.643665879964828491e-02,2.451332211494445801e-01,1.409564167261123657e-01,-1.157030165195465088e-01,-2.512550652027130127e-01,2.332698553800582886e-03,-1.102838814258575439e-01,-5.464091897010803223e-02,-8.389212191104888916e-02,-2.448175102472305298e-01,-1.255287043750286102e-02,2.314916253089904785e-01
-1.497287899255752563e-01,3.907372057437896729e-02,2.849766314029693604e-01,1.122465282678604126e-01,2.399778552353382111e-02,-8.548859506845474243e-02,4.267780184745788574e-01,4.147418439388275146e-01,1.690243780612945557e-01,-1.981267631053924561e-01,7.945148646831512451e-02,-3.197498619556427002e-01,-1.523855775594711304e-01,1.905198991298675537e-01,-5.147241055965423584e-02,3.638001978397369385e-01,2.950945794582366943e-01,3.679119348526000977e-01,-2.465420961380004883e-01,3.287510573863983154e-01,-8.524231612682342529e-02,2.038475722074508667e-01,-2.071021944284439087e-01,2.494051493704319000e-02,1.647025928832590580e-03,4.677054472267627716e-03,8.634730428457260132e-02,1.361440420150756836e-01,4.177046120166778564e-01,2.482949569821357727e-02,6.743863970041275024e-02,7.264682650566101074e-02,2.380173802375793457e-01,1.388414502143859863e-01,2.073416858911514282e-01,2.675863802433013916e-01,5.875015631318092346e-02,6.550987064838409424e-02,1.783410906791687012e-01,8.367366343736648560e-02,7.164178788661956787e-02,8.110942691564559937e-02,2.300453744828701019e-02,2.336664684116840363e-02,4.488960504531860352e-01,-1.951444745063781738e-01,1.157784461975097656e-01,-2.270795702934265137e-01,7.199797779321670532e-02,2.050215005874633789e-01
-1.335618346929550171e-01,3.579510375857353210e-02,-2.869072370231151581e-02,-8.433608710765838623e-02,-8.569322526454925537e-02,-9.270419180393218994e-02,2.860713005065917969e-01,-9.867170453071594238e-02,3.975130617618560791e-03,-1.308436393737792969e-01,2.528751492500305176e-01,2.258480899035930634e-02,1.232919171452522278e-01,3.709605336189270020e-02,-3.563428763300180435e-03,2.608560025691986084e-01,-8.797013759613037109e-02,-1.330108046531677246e-01,-3.095329403877258301e-01,-2.706115692853927612e-02,-1.696799248456954956e-01,3.348221629858016968e-02,1.699681431055068970e-01,8.645366877317428589e-02,2.926753088831901550e-02,-7.128675282001495361e-02,9.631985798478126526e-03,2.520420849323272705e-01,1.921677589416503906e-01,-2.996050417423248291e-01,4.445002973079681396e-02,1.218466833233833313e-02,2.029581367969512939e-01,3.859904110431671143e-01,-2.977474033832550049e-02,1.289292871952056885e-01,9.302833676338195801e-02,1.904267668724060059e-01,-1.227889582514762878e-01,3.092968277633190155e-02,-1.843317449092864990e-01,1.214178930968046188e-02,1.950729489326477051e-01,1.572205871343612671e-01,-9.334827214479446411e-02,1.666118055582046509e-01,1.622562408447265625e-01,-8.813242614269256592e-02,1.406804919242858887e-01,6.623053550720214844e-02
1.929383538663387299e-02,5.092231929302215576e-02,-1.600210219621658325e-01,1.992647647857666016e-01,2.063747942447662354e-01,-1.451309174299240112e-01,2.650780379772186279e-01,6.887254118919372559e-02,-5.259477347135543823e-02,-2.753480970859527588e-01,1.018264889717102051e-01,-2.965853214263916016e-01,1.047638505697250366e-01,-3.329393640160560608e-02,-1.644199937582015991e-01,3.015439510345458984e-01,-1.904382407665252686e-01,2.691433206200599670e-02,-2.166230529546737671e-01,8.795765042304992676e-02,-3.487506508827209473e-02,-1.025239098817110062e-02,-1.898868083953857422e-01,2.113847732543945312e-01,-2.555618584156036377e-01,-1.557590514421463013e-01,-1.655434370040893555e-01,-2.779402211308479309e-02,6.962424516677856445e-02,-1.907569766044616699e-01,-2.010651826858520508e-01,-7.251419872045516968e-02,1.803933680057525635e-01,-2.776583470404148102e-02,-1.659235507249832153e-01,-1.388207972049713135e-01,1.629085391759872437e-01,2.382294088602066040e-01,-1.368314921855926514e-01,5.762325972318649292e-02,-2.593978941440582275e-01,-1.429369151592254639e-01,3.068232238292694092e-01,-2.279229089617729187e-02,-3.350953012704849243e-02,-2.175068557262420654e-01,1.471985727548599243e-01,-1.005982458591461182e-01,6.966517120599746704e-02,1.506579071283340454e-01
-2.080544084310531616e-01,-1.257357448339462280e-01,2.392759621143341064e-01,-1.897785812616348267e-02,1.337919980287551880e-01,-3.432455062866210938e-01,1.339181363582611084e-01,2.014782726764678955e-01,3.091951608657836914e-01,-3.351401090621948242e-01,1.137615218758583069e-01,-2.691344618797302246e-01,-1.874265968799591064e-01,1.379079520702362061e-01,2.064615339040756226e-01,-9.530104696750640869e-02,9.190968424081802368e-02,-5.875739082694053650e-02,-1.211162954568862915e-01,2.652581334114074707e-01,-2.796699404716491699e-01,2.183868885040283203e-01,-1.481491029262542725e-01,6.544285267591476440e-02,4.020992666482925415e-03,6.051980331540107727e-02,-2.149661332368850708e-01,3.421698808670043945e-01,3.404393792152404785e-01,-3.180770576000213623e-01,-1.342895925045013428e-01,-2.369205057621002197e-01,1.163545995950698853e-01,2.409407496452331543e-02,2.827079594135284424e-02,2.809127867221832275e-01,-7.373660802841186523e-02,3.241236805915832520e-01,-9.023756533861160278e-02,-2.984791994094848633e-01,-7.106216996908187866e-02,3.489860892295837402e-01,2.685736119747161865e-01,-1.309563815593719482e-01,5.437206104397773743e-02,-7.583646476268768311e-02,1.448021531105041504e-01,3.142341598868370056e-02,-1.513579161837697029e-03,2.340025305747985840e-01
2.212264686822891235e-01,-1.739919185638427734e-01,2.216748893260955811e-01,2.026837766170501709e-01,-9.539824724197387695e-02,2.164200246334075928e-01,-8.808956481516361237e-04,1.249390468001365662e-01,9.530699253082275391e-02,4.873049631714820862e-02,1.570854038000106812e-01,-4.592601954936981201e-02,1.773807257413864136e-01,-1.082106158137321472e-01,2.870671451091766357e-02,1.071813032031059265e-01,1.515988111495971680e-01,2.638843357563018799e-01,5.590151250362396240e-02,1.180181000381708145e-02,-1.771483868360519409e-01,-1.483333855867385864e-01,2.320602536201477051e-03,-9.753158688545227051e-02,-1.454664766788482666e-01,2.286309003829956055e-01,-2.262005954980850220e-01,2.004942148923873901e-01,-6.247205659747123718e-02,-1.632261425256729126e-01,-2.092999815940856934e-01,9.488064795732498169e-02,2.690789103507995605e-01,1.666085422039031982e-01,-2.194346636533737183e-01,1.090378090739250183e-01,2.936418354511260986e-02,2.250389605760574341e-01,1.268634200096130371e-01,7.182320952415466309e-02,-1.965691447257995605e-01,-2.423317432403564453e-01,1.336283087730407715e-01,8.457893505692481995e-03,1.638320684432983398e-01,1.371236294507980347e-01,2.569447755813598633e-01,1.950294524431228638e-01,-1.424940675497055054e-01,-1.031003817915916443e-01
-2.546038031578063965e-01,-4.991188645362854004e-02,-5.768555775284767151e-02,-7.606370002031326294e-02,9.643895924091339111e-02,-1.337326690554618835e-02,3.031159639358520508e-01,1.492425352334976196e-01,2.195272743701934814e-01,-1.391014754772186279e-01,6.120084598660469055e-02,-2.692058980464935303e-01,2.184351533651351929e-01,-2.182477563619613647e-01,-4.399155080318450928e-02,-7.589037716388702393e-02,1.741428375244140625e-01,3.144169449806213379e-01,-1.259296387434005737e-01,2.717438042163848877e-01,9.833328425884246826e-02,-5.068248882889747620e-02,-1.134424507617950439e-01,-1.549941599369049072e-01,-2.839187979698181152e-01,6.842511147260665894e-02,-2.489072382450103760e-01,3.024499118328094482e-01,1.080953404307365417e-01,-1.976431608200073242e-01,-2.890027463436126709e-01,2.861913852393627167e-02,-1.062823366373777390e-02,2.464699372649192810e-02,-1.795035004615783691e-01,3.100984394550323486e-01,-2.124945670366287231e-01,1.947398632764816284e-01,-1.245555132627487183e-01,5.923715233802795410e-02,1.774053722620010376e-01,5.979765579104423523e-02,2.780670523643493652e-01,1.490112096071243286e-01,8.776821196079254150e-02,-2.324625551700592041e-01,1.962621957063674927e-01,1.783397346735000610e-01,2.734789848327636719e-01,1.752860397100448608e-01
2.244952768087387085e-01,4.298619925975799561e-02,1.516156345605850220e-01,1.474333554506301880e-01,-1.575223058462142944e-01,7.821902632713317871e-03,-1.337096095085144043e-01,-2.214547842741012573e-01,7.466955482959747314e-02,-6.415528059005737305e-02,1.178888827562332153e-01,2.022850960493087769e-01,2.311842888593673706e-01,1.880654245615005493e-01,-2.318091690540313721e-01,-9.115388989448547363e-02,-2.108067572116851807e-01,-2.424249649047851562e-01,1.907799392938613892e-01,7.743142545223236084e-02,2.431081384420394897e-01,-1.115928590297698975e-01,-1.507440060377120972e-01,2.378012239933013916e-02,1.501599997282028198e-01,-1.775204092264175415e-01,-9.398706257343292236e-02,-4.846566915512084961e-02,-1.402778923511505127e-01,8.494295179843902588e-02,1.474783867597579956e-01,-1.537177562713623047e-01,3.220956027507781982e-02,-3.691436350345611572e-02,-7.399019598960876465e-02,-1.945025920867919922e-01,-2.177949249744415283e-02,1.600984185934066772e-01,2.334666997194290161e-01,-5.307181179523468018e-02,-1.512949168682098389e-02,1.742854267358779907e-01,2.064037770032882690e-01,7.044072449207305908e-02,1.485843509435653687e-01,2.583859860897064209e-02,8.870363235473632812e-04,-1.063906699419021606e-01,-1.361968219280242920e-01,1.088537275791168213e-02
-2.066607773303985596e-01,-2.281852215528488159e-01,-2.698524855077266693e-02,-1.369440555572509766e-01,-2.108125388622283936e-01,3.149591758847236633e-02,1.469781398773193359e-01,1.153844371438026428e-01,1.175346896052360535e-01,-2.053668648004531860e-01,2.950772829353809357e-02,6.059280037879943848e-02,-1.364202052354812622e-01,1.370622664690017700e-01,-3.388854861259460449e-02,2.890713512897491455e-01,-5.817161127924919128e-02,2.077175974845886230e-01,-4.600771353580057621e-04,2.987129390239715576e-01,-4.149415343999862671e-02,2.075141817331314087e-01,-4.658073186874389648e-02,1.401651799678802490e-01,-1.475329399108886719e-01,-2.474172562360763550e-01,2.884709462523460388e-02,-1.371897906064987183e-01,-5.869901552796363831e-02,-9.247338026762008667e-02,7.490376383066177368e-02,1.292178779840469360e-01,1.706314980983734131e-01,7.565122097730636597e-02,-9.001462161540985107e-02,1.238806843757629395e-01,-4.480496980249881744e-03,1.162843331694602966e-01,5.071527883410453796e-02,-2.209690362215042114e-01,-9.803751111030578613e-02,2.403280138969421387e-01,1.881324797868728638e-01,2.913168072700500488e-01,-7.847285270690917969e-02,-1.352319866418838501e-01,1.157259475439786911e-02,2.259581089019775391e-01,1.932799220085144043e-01,9.722387045621871948e-02
-2.913036048412322998e-01,-1.287856400012969971e-01,2.066665291786193848e-01,-1.032129749655723572e-01,-2.118068635463714600e-01,-1.342618614435195923e-01,4.420902952551841736e-02,3.678263351321220398e-02,2.672690749168395996e-01,1.058947667479515076e-01,2.258817851543426514e-01,-3.539364412426948547e-02,1.156299784779548645e-01,-1.389842480421066284e-01,4.488671571016311646e-02,2.980673313140869141e-01,1.161772012710571289e-01,-1.092624366283416748e-01,-8.677927404642105103e-02,3.871908038854598999e-02,1.310032159090042114e-01,-5.814940854907035828e-02,-3.464497625827789307e-02,-6.893038004636764526e-02,-3.406483829021453857e-01,-2.401281446218490601e-01,-1.665644943714141846e-01,3.003359735012054443e-01,-3.368698805570602417e-02,-3.045268356800079346e-01,-1.844106009230017662e-03,-2.358016073703765869e-01,3.068078458309173584e-01,1.293103247880935669e-01,4.618005454540252686e-02,-5.213781446218490601e-02,1.577208340167999268e-01,2.947174906730651855e-01,-1.787826567888259888e-01,-2.993991672992706299e-01,-2.096243202686309814e-01,2.299597710371017456e-01,2.206118255853652954e-01,1.780087351799011230e-01,3.618914866819977760e-03,1.251854002475738525e-02,3.234655857086181641e-01,-1.738632619380950928e-01,6.929212063550949097e-02,3.103988468647003174e-01
3.503515198826789856e-02,-2.488981187343597412e-01,1.313160806894302368e-01,2.390189915895462036e-01,-2.249069660902023315e-01,7.047706097364425659e-02,-1.635906519368290901e-03,5.618569254875183105e-02,6.598254293203353882e-02,1.624348759651184082e-01,-1.203265264630317688e-01,-3.158630803227424622e-02,1.439757794141769409e-01,-7.117713242769241333e-02,-4.176074266433715820e-02,-5.337158218026161194e-02,1.372789442539215088e-01,1.406998485326766968e-01,7.181816548109054565e-02,-2.130967080593109131e-01,-1.058084443211555481e-01,-1.801028400659561157e-01,2.695299685001373291e-02,2.380635738372802734e-01,2.716634273529052734e-01,1.704995632171630859e-01,6.041211262345314026e-02,1.115069463849067688e-01,-1.345854550600051880e-01,1.065675751306116581e-03,-1.122535765171051025e-01,5.375242908485233784e-04,-1.999483443796634674e-02,2.745666205883026123e-01,-2.726678550243377686e-02,-1.235797107219696045e-01,1.156596839427947998e-01,-1.802398711442947388e-01,3.917216882109642029e-02,-1.446305215358734131e-01,-1.103340461850166321e-01,-2.076804079115390778e-02,2.337928162887692451e-03,1.064393669366836548e-01,-2.098110318183898926e-01,-6.154133379459381104e-02,-1.841259002685546875e-01,8.435424417257308960e-02,-1.089228913187980652e-01,-2.315886616706848145e-01
4.076429083943367004e-02,-1.460162103176116943e-01,2.273560166358947754e-01,2.031917124986648560e-02,4.348164051771163940e-02,-1.465390902012586594e-02,-4.521099105477333069e-02,1.297193318605422974e-01,2.085975855588912964e-01,-2.498368918895721436e-01,1.248543858528137207e-01,-2.791435420513153076e-01,1.624088850803673267e-03,1.613092124462127686e-01,1.026216298341751099e-01,1.653509438037872314e-01,-1.143152490258216858e-01,-2.944358251988887787e-02,1.002991497516632080e-01,-1.096343342214822769e-02,-1.326406449079513550e-01,2.217734307050704956e-01,2.296631038188934326e-02,2.899323105812072754e-01,-1.837516576051712036e-01,-1.747659742832183838e-01,-6.755165010690689087e-02,2.700309157371520996e-01,-3.877015039324760437e-02,-1.255278587341308594e-01,-2.082938849925994873e-01,-1.191148534417152405e-01,2.291737943887710571e-01,2.523732781410217285e-01,2.141572535037994385e-02,2.264709025621414185e-01,-7.968347519636154175e-02,-1.209335178136825562e-01,2.422744221985340118e-02,1.569410413503646851e-01,1.052816212177276611e-01,-2.590651251375675201e-02,-3.014999069273471832e-02,8.432716876268386841e-02,7.374306768178939819e-02,-4.084236919879913330e-02,6.806690990924835205e-02,5.446234345436096191e-02,1.992307752370834351e-01,1.643898040056228638e-01
