-0.000000000000000000e+00,0.000000000000000000e+00,-0.000000000000000000e+00,0.000000000000000000e+00,-0.000000000000000000e+00,-0.000000000000000000e+00,-0.000000000000000000e+00,0.000000000000000000e+00,0.000000000000000000e+00,-0.000000000000000000e+00,-0.000000000000000000e+00,0.000000000000000000e+00,-6.884931921958923340e-01,-0.000000000000000000e+00,-5.292978286743164062e-01,0.000000000000000000e+00,-0.000000000000000000e+00,0.000000000000000000e+00,-0.000000000000000000e+00,-0.000000000000000000e+00,1.805457025766372681e-01,0.000000000000000000e+00,0.000000000000000000e+00,0.000000000000000000e+00,-5.216911435127258301e-01,0.000000000000000000e+00,1.665913313627243042e-01,-2.592996358871459961e-01,-0.000000000000000000e+00,-3.965846002101898193e-01,1.377070546150207520e-01,-0.000000000000000000e+00,-0.000000000000000000e+00,0.000000000000000000e+00,-0.000000000000000000e+00,0.000000000000000000e+00,-0.000000000000000000e+00,-2.193285077810287476e-01,-0.000000000000000000e+00,-3.783802688121795654e-01,0.000000000000000000e+00,-2.993474006652832031e-01,-0.000000000000000000e+00,-0.000000000000000000e+00,0.000000000000000000e+00,0.000000000000000000e+00,-0.000000000000000000e+00,0.000000000000000000e+00,0.000000000000000000e+00,-2.452685087919235229e-01
0.000000000000000000e+00,-0.000000000000000000e+00,-2.327521741390228271e-01,0.000000000000000000e+00,-0.000000000000000000e+00,1.335528790950775146e-01,0.000000000000000000e+00,0.000000000000000000e+00,-0.000000000000000000e+00,0.000000000000000000e+00,1.534836888313293457e-01,-0.000000000000000000e+00,-0.000000000000000000e+00,-2.894499301910400391e-01,2.261442989110946655e-01,2.630260884761810303e-01,0.000000000000000000e+00,0.000000000000000000e+00,-2.817093431949615479e-01,0.000000000000000000e+00,-0.000000000000000000e+00,4.478944242000579834e-01,4.456186294555664062e-01,-0.000000000000000000e+00,1.692639738321304321e-01,-0.000000000000000000e+00,0.000000000000000000e+00,-0.000000000000000000e+00,-0.000000000000000000e+00,2.337847650051116943e-01,0.000000000000000000e+00,0.000000000000000000e+00,0.000000000000000000e+00,0.000000000000000000e+00,0.000000000000000000e+00,0.000000000000000000e+00,-1.990982443094253540e-01,-2.091536670923233032e-01,0.000000000000000000e+00,2.435057312250137329e-01,-0.000000000000000000e+00,-3.412559628486633301e-01,-0.000000000000000000e+00,-4.440934658050537109e-01,-0.000000000000000000e+00,-0.000000000000000000e+00,-3.245390355587005615e-01,0.000000000000000000e+00,6.843378543853759766e-01,-3.496422469615936279e-01
6.079031825065612793e-01,5.899160504341125488e-01,0.000000000000000000e+00,-0.000000000000000000e+00,6.156368851661682129e-01,-0.000000000000000000e+00,0.000000000000000000e+00,-0.000000000000000000e+00,-3.309487700462341309e-01,0.000000000000000000e+00,-0.000000000000000000e+00,0.000000000000000000e+00,3.560127615928649902e-01,-0.000000000000000000e+00,-0.000000000000000000e+00,-6.422120332717895508e-01,0.000000000000000000e+00,-5.348080992698669434e-01,0.000000000000000000e+00,0.000000000000000000e+00,-5.852242112159729004e-01,0.000000000000000000e+00,6.123557090759277344e-01,0.000000000000000000e+00,0.000000000000000000e+00,-3.028620779514312744e-01,-6.103099584579467773e-01,-0.000000000000000000e+00,0.000000000000000000e+00,-0.000000000000000000e+00,0.000000000000000000e+00,0.000000000000000000e+00,-0.000000000000000000e+00,0.000000000000000000e+00,0.000000000000000000e+00,-0.000000000000000000e+00,0.000000000000000000e+00,-2.061230540275573730e-01,-2.304340600967407227e-01,0.000000000000000000e+00,-4.289977848529815674e-01,0.000000000000000000e+00,-0.000000000000000000e+00,0.000000000000000000e+00,-0.000000000000000000e+00,-0.000000000000000000e+00,-2.928911149501800537e-01,-0.000000000000000000e+00,-0.000000000000000000e+00,0.000000000000000000e+00
0.000000000000000000e+00,5.677464008331298828e-01,-2.339219301939010620e-01,-1.989571452140808105e-01,5.498656034469604492e-01,-0.000000000000000000e+00,0.000000000000000000e+00,-0.000000000000000000e+00,-0.000000000000000000e+00,-2.227413952350616455e-01,-4.726000428199768066e-01,-0.000000000000000000e+00,-0.000000000000000000e+00,-0.000000000000000000e+00,-0.000000000000000000e+00,-0.000000000000000000e+00,-2.874750792980194092e-01,1.875995695590972900e-01,-2.510027289390563965e-01,0.000000000000000000e+00,0.000000000000000000e+00,0.000000000000000000e+00,0.000000000000000000e+00,-0.000000000000000000e+00,-0.000000000000000000e+00,0.000000000000000000e+00,0.000000000000000000e+00,0.000000000000000000e+00,-0.000000000000000000e+00,0.000000000000000000e+00,-5.631639361381530762e-01,-0.000000000000000000e+00,-2.916846871376037598e-01,0.000000000000000000e+00,-0.000000000000000000e+00,-0.000000000000000000e+00,0.000000000000000000e+00,0.000000000000000000e+00,-3.606302440166473389e-01,-0.000000000000000000e+00,2.025930285453796387e-01,0.000000000000000000e+00,0.000000000000000000e+00,0.000000000000000000e+00,-3.665317595005035400e-01,0.000000000000000000e+00,0.000000000000000000e+00,-0.000000000000000000e+00,0.000000000000000000e+00,0.000000000000000000e+00
